<?xml version="1.0" encoding="UTF-8" standalone="no"?>
<!-- Created with Inkscape (http://www.inkscape.org/) -->

<svg
   xmlns:dc="http://purl.org/dc/elements/1.1/"
   xmlns:cc="http://creativecommons.org/ns#"
   xmlns:rdf="http://www.w3.org/1999/02/22-rdf-syntax-ns#"
   xmlns:svg="http://www.w3.org/2000/svg"
   xmlns="http://www.w3.org/2000/svg"
   xmlns:sodipodi="http://sodipodi.sourceforge.net/DTD/sodipodi-0.dtd"
   xmlns:inkscape="http://www.inkscape.org/namespaces/inkscape"
   width="210mm"
   height="297mm"
   viewBox="0 0 210 297"
   version="1.1"
   id="svg8"
   inkscape:version="0.92.2 (5c3e80d, 2017-08-06)"
   sodipodi:docname="Logo Cashkeeper Nuevo 2.svg">
  <defs
     id="defs2">
    <clipPath
       id="clipPath20"
       clipPathUnits="userSpaceOnUse">
      <path
         inkscape:connector-curvature="0"
         id="path22"
         d="M 0,595.28 841.89,595.28 841.89,0 0,0 0,595.28 Z" />
    </clipPath>
    <clipPath
       id="clipPath84"
       clipPathUnits="userSpaceOnUse">
      <path
         inkscape:connector-curvature="0"
         id="path86"
         d="M 0,595.28 841.89,595.28 841.89,0 0,0 0,595.28 Z" />
    </clipPath>
  </defs>
  <sodipodi:namedview
     id="base"
     pagecolor="#ffffff"
     bordercolor="#666666"
     borderopacity="1.0"
     inkscape:pageopacity="0.0"
     inkscape:pageshadow="2"
     inkscape:zoom="0.98994949"
     inkscape:cx="365.92976"
     inkscape:cy="451.4849"
     inkscape:document-units="mm"
     inkscape:current-layer="layer1"
     showgrid="false"
     inkscape:window-width="1280"
     inkscape:window-height="1001"
     inkscape:window-x="-8"
     inkscape:window-y="-8"
     inkscape:window-maximized="1" />
  <metadata
     id="metadata5">
    <rdf:RDF>
      <cc:Work
         rdf:about="">
        <dc:format>image/svg+xml</dc:format>
        <dc:type
           rdf:resource="http://purl.org/dc/dcmitype/StillImage" />
        <dc:title></dc:title>
      </cc:Work>
    </rdf:RDF>
  </metadata>
  <g
     inkscape:label="Capa 1"
     inkscape:groupmode="layer"
     id="layer1">
    <g
       id="g4329"
       transform="matrix(0.65795798,0,0,0.65795798,15.00085,-26.883652)">
      <g
         style="fill:#83b81a;fill-opacity:1"
         transform="matrix(0.33072917,0,0,-0.33072917,114.94329,95.626204)"
         id="g88">
        <path
           inkscape:connector-curvature="0"
           id="path90"
           style="fill:#83b81a;fill-opacity:1;fill-rule:nonzero;stroke:none"
           d="M 0,0 H 24.008 V -22.897 L 11.991,-40.061 24.008,-57.222 v -22.89 H 0 Z" />
      </g>
      <g
         style="fill:#83b81a;fill-opacity:1"
         transform="matrix(0.33072917,0,0,-0.33072917,122.22079,108.87538)"
         id="g92">
        <path
           inkscape:connector-curvature="0"
           id="path94"
           style="fill:#83b81a;fill-opacity:1;fill-rule:nonzero;stroke:none"
           d="M 0,0 C 1.949,2.764 28.037,40.061 28.037,40.061 H 52.072 L 24.034,0 52.072,-40.051 H 28.037 Z" />
      </g>
      <g
         style="fill:#f39910;fill-opacity:1"
         transform="matrix(0.33072917,0,0,-0.33072917,138.51115,130.0687)"
         id="g96">
        <path
           inkscape:connector-curvature="0"
           id="path98"
           style="fill:#f39910;fill-opacity:1;fill-rule:nonzero;stroke:none"
           d="M 0,0 C 4.677,-0.073 11.201,6.22 11.201,11.982 H -85.346 V 116.137 H 11.17 c 0,5.761 -6.545,12.005 -11.245,12.005 h -11.284 -0.234 -54.615 -13.902 -3.697 c -6.184,0 -13.472,-6.913 -13.51,-13.542 l -0.002,-0.002 V 13.913 h 0.002 C -97.264,-0.016 -81.999,0 -83.468,0 Z" />
      </g>
      <g
         transform="matrix(0.33072917,0,0,-0.33072917,28.923841,121.33507)"
         id="g100">
        <path
           inkscape:connector-curvature="0"
           id="path102"
           style="fill:#1a171b;fill-opacity:1;fill-rule:nonzero;stroke:none"
           d="m 0,0 c -3.446,-1.782 -11.052,-3.564 -20.678,-3.564 -25.434,0 -40.882,15.923 -40.882,40.287 0,26.385 18.299,42.31 42.782,42.31 9.627,0 16.522,-2.021 19.493,-3.567 L -2.496,63.819 c -3.801,1.664 -9.031,3.092 -15.687,3.092 -16.283,0 -28.049,-10.222 -28.049,-29.475 0,-17.59 10.341,-28.879 27.929,-28.879 5.945,0 12.122,1.188 15.928,2.97 z" />
      </g>
      <g
         transform="matrix(0.33072917,0,0,-0.33072917,47.005598,110.95844)"
         id="g104">
        <path
           inkscape:connector-curvature="0"
           id="path106"
           style="fill:#1a171b;fill-opacity:1;fill-rule:nonzero;stroke:none"
           d="m 0,0 -6.297,19.728 c -1.545,4.874 -2.851,10.339 -4.041,14.975 h -0.239 c -1.186,-4.636 -2.376,-10.222 -3.801,-14.975 L -20.559,0 Z m -22.935,-11.053 -6.895,-22.7 H -44.922 L -19.253,46.35 H -0.592 L 25.433,-33.753 H 9.746 l -7.247,22.7 z" />
      </g>
      <g
         transform="matrix(0.33072917,0,0,-0.33072917,59.470119,116.85439)"
         id="g108">
        <path
           inkscape:connector-curvature="0"
           id="path110"
           style="fill:#1a171b;fill-opacity:1;fill-rule:nonzero;stroke:none"
           d="m 0,0 c 4.755,-2.732 11.886,-5.11 19.373,-5.11 9.387,0 14.617,4.397 14.617,10.933 0,6.061 -4.04,9.627 -14.261,13.312 C 6.537,23.888 -1.9,30.899 -1.9,42.429 c 0,13.071 10.932,23.056 28.284,23.056 8.676,0 15.093,-1.902 19.253,-4.041 L 42.072,49.677 c -2.851,1.546 -8.437,3.803 -15.927,3.803 -9.268,0 -13.308,-4.991 -13.308,-9.626 0,-6.179 4.635,-9.031 15.332,-13.192 13.903,-5.228 20.678,-12.239 20.678,-23.768 0,-12.836 -9.746,-24.006 -30.424,-24.006 -8.441,0 -17.233,2.374 -21.633,4.989 z" />
      </g>
      <g
         transform="matrix(0.33072917,0,0,-0.33072917,85.609663,95.629114)"
         id="g112">
        <path
           inkscape:connector-curvature="0"
           id="path114"
           style="fill:#1a171b;fill-opacity:1;fill-rule:nonzero;stroke:none"
           d="M 0,0 V -32.088 H 33.87 V 0 H 48.488 V -80.103 H 33.87 v 35.299 H 0 V -80.103 H -14.621 V 0 Z" />
      </g>
      <g
         transform="matrix(0.33072917,0,0,-0.33072917,157.0042,110.37289)"
         id="g116">
        <path
           inkscape:connector-curvature="0"
           id="path118"
           style="fill:#1a171b;fill-opacity:1;fill-rule:nonzero;stroke:none"
           d="M 0,0 H -30.174 V -23.522 H 3.564 v -12 H -44.79 V 44.55 H 1.78 v -12 H -30.174 V 11.88 H 0 Z" />
      </g>
      <g
         transform="matrix(0.33072917,0,0,-0.33072917,178.02684,110.37289)"
         id="g120">
        <path
           inkscape:connector-curvature="0"
           id="path122"
           style="fill:#1a171b;fill-opacity:1;fill-rule:nonzero;stroke:none"
           d="M 0,0 H -30.175 V -23.522 H 3.564 v -12 H -44.79 V 44.55 H 1.78 v -12 H -30.175 V 11.88 H 0 Z" />
      </g>
      <g
         transform="matrix(0.33072917,0,0,-0.33072917,189.03132,108.33004)"
         id="g124">
        <path
           inkscape:connector-curvature="0"
           id="path126"
           style="fill:#1a171b;fill-opacity:1;fill-rule:nonzero;stroke:none"
           d="m 0,0 c 1.78,-0.476 4.159,-0.593 7.128,-0.593 10.929,0 17.581,5.346 17.581,14.732 0,8.91 -6.178,13.661 -16.275,13.661 C 4.394,27.8 1.545,27.443 0,27.088 Z m -14.496,37.303 c 5.228,0.952 12.476,1.665 22.336,1.665 10.691,0 18.535,-2.257 23.642,-6.536 4.751,-3.919 7.84,-10.215 7.84,-17.701 0,-7.603 -2.375,-13.899 -6.888,-18.176 -5.825,-5.821 -14.972,-8.553 -25.306,-8.553 -2.734,0 -5.228,0.118 -7.128,0.475 v -30.176 h -14.496 z" />
      </g>
      <g
         transform="matrix(0.33072917,0,0,-0.33072917,221.36334,110.37289)"
         id="g128">
        <path
           inkscape:connector-curvature="0"
           id="path130"
           style="fill:#1a171b;fill-opacity:1;fill-rule:nonzero;stroke:none"
           d="M 0,0 H -30.173 V -23.522 H 3.564 v -12 H -44.789 V 44.55 H 1.779 v -12 H -30.173 V 11.88 H 0 Z" />
      </g>
      <g
         transform="matrix(0.33072917,0,0,-0.33072917,232.36557,107.70119)"
         id="g132">
        <path
           inkscape:connector-curvature="0"
           id="path134"
           style="fill:#1a171b;fill-opacity:1;fill-rule:nonzero;stroke:none"
           d="m 0,0 h 8.675 c 9.856,0 16.036,5.227 16.036,13.188 0,8.79 -6.18,12.829 -15.682,12.829 -4.633,0 -7.603,-0.355 -9.029,-0.712 z m -14.495,35.402 c 5.468,0.952 13.662,1.664 22.099,1.664 11.523,0 19.365,-1.901 24.709,-6.415 4.395,-3.683 6.889,-9.266 6.889,-16.039 0,-10.336 -7.008,-17.344 -14.491,-20.075 v -0.358 c 5.702,-2.139 9.148,-7.723 11.167,-15.443 2.495,-9.981 4.634,-19.247 6.299,-22.336 H 27.085 c -1.186,2.376 -3.089,8.912 -5.344,18.889 -2.26,10.455 -6.058,13.781 -14.377,14.018 H 0 V -43.6 h -14.495 z" />
      </g>
      <g
         transform="matrix(0.33072917,0,0,-0.33072917,14.542943,145.4316)"
         id="g136">
        <path
           inkscape:connector-curvature="0"
           id="path138"
           style="fill:#87888a;fill-opacity:1;fill-rule:nonzero;stroke:none"
           d="m 0,0 c -1.106,-0.577 -3.56,-1.347 -6.689,-1.347 -7.026,0 -11.598,4.765 -11.598,11.888 0,7.172 4.908,12.366 12.512,12.366 2.502,0 4.716,-0.623 5.872,-1.2 l -0.964,-3.274 c -1.009,0.576 -2.597,1.105 -4.908,1.105 -5.342,0 -8.23,-3.942 -8.23,-8.808 0,-5.388 3.466,-8.709 8.086,-8.709 2.406,0 3.995,0.626 5.196,1.155 z" />
      </g>
      <path
         inkscape:connector-curvature="0"
         id="path140"
         style="fill:#87888a;fill-opacity:1;fill-rule:nonzero;stroke:none;stroke-width:0.33072916"
         d="m 16.979226,134.41663 h 1.400638 v 11.30201 h -1.400638 z" />
      <g
         transform="matrix(0.33072917,0,0,-0.33072917,22.391146,141.88275)"
         id="g142">
        <path
           inkscape:connector-curvature="0"
           id="path144"
           style="fill:#87888a;fill-opacity:1;fill-rule:nonzero;stroke:none"
           d="m 0,0 c 0,-5.101 2.935,-8.95 7.076,-8.95 4.041,0 7.074,3.803 7.074,9.048 0,3.947 -1.974,8.952 -6.98,8.952 C 2.167,9.05 0,4.429 0,0 m 18.481,0.243 c 0,-8.616 -5.967,-12.37 -11.598,-12.37 -6.305,0 -11.166,4.621 -11.166,11.984 0,7.797 5.1,12.37 11.551,12.37 6.689,0 11.213,-4.862 11.213,-11.984" />
      </g>
      <g
         transform="matrix(0.33072917,0,0,-0.33072917,30.876234,144.28506)"
         id="g146">
        <path
           inkscape:connector-curvature="0"
           id="path148"
           style="fill:#87888a;fill-opacity:1;fill-rule:nonzero;stroke:none"
           d="m 0,0 c 1.253,-0.819 3.468,-1.687 5.583,-1.687 3.08,0 4.524,1.541 4.524,3.466 0,2.021 -1.203,3.128 -4.33,4.283 -4.188,1.495 -6.161,3.801 -6.161,6.596 0,3.752 3.032,6.832 8.037,6.832 2.359,0 4.428,-0.673 5.726,-1.445 L 12.32,14.966 c -0.914,0.576 -2.599,1.347 -4.762,1.347 -2.505,0 -3.899,-1.444 -3.899,-3.176 0,-1.923 1.394,-2.79 4.427,-3.946 4.044,-1.541 6.112,-3.558 6.112,-7.028 0,-4.09 -3.177,-6.976 -8.71,-6.976 -2.551,0 -4.91,0.625 -6.547,1.586 z" />
      </g>
      <g
         transform="matrix(0.33072917,0,0,-0.33072917,43.052988,141.11794)"
         id="g150">
        <path
           inkscape:connector-curvature="0"
           id="path152"
           style="fill:#87888a;fill-opacity:1;fill-rule:nonzero;stroke:none"
           d="m 0,0 c 0.05,2.694 -1.104,6.882 -5.871,6.882 -4.282,0 -6.158,-3.947 -6.497,-6.882 z m -12.415,-3.031 c 0.097,-5.729 3.754,-8.085 7.99,-8.085 3.031,0 4.86,0.529 6.448,1.201 l 0.722,-3.029 c -1.493,-0.676 -4.043,-1.446 -7.748,-1.446 -7.17,0 -11.455,4.715 -11.455,11.741 0,7.025 4.14,12.563 10.925,12.563 7.603,0 9.623,-6.689 9.623,-10.975 0,-0.865 -0.094,-1.538 -0.141,-1.97 z" />
      </g>
      <g
         transform="matrix(0.33072917,0,0,-0.33072917,52.190671,141.14959)"
         id="g154">
        <path
           inkscape:connector-curvature="0"
           id="path156"
           style="fill:#87888a;fill-opacity:1;fill-rule:nonzero;stroke:none"
           d="m 0,0 c 0,0.529 -0.048,1.252 -0.19,1.781 -0.627,2.691 -2.937,4.908 -6.113,4.908 -4.381,0 -6.979,-3.847 -6.979,-8.999 0,-4.716 2.311,-8.616 6.883,-8.616 2.838,0 5.437,1.877 6.209,5.053 0.142,0.58 0.19,1.156 0.19,1.83 z M 4.235,20.357 V -7.798 c 0,-2.066 0.05,-4.428 0.194,-6.017 H 0.627 L 0.433,-9.771 H 0.338 c -1.3,-2.599 -4.138,-4.573 -7.94,-4.573 -5.63,0 -9.963,4.765 -9.963,11.841 -0.047,7.747 4.764,12.513 10.444,12.513 3.56,0 5.967,-1.684 7.026,-3.563 H 0 v 13.91 z" />
      </g>
      <g
         transform="matrix(0.33072917,0,0,-0.33072917,64.941504,141.78584)"
         id="g158">
        <path
           inkscape:connector-curvature="0"
           id="path160"
           style="fill:#87888a;fill-opacity:1;fill-rule:nonzero;stroke:none"
           d="m 0,0 c -4.62,0.094 -9.864,-0.724 -9.864,-5.247 0,-2.746 1.829,-4.044 3.994,-4.044 3.032,0 4.957,1.926 5.631,3.897 C -0.095,-4.958 0,-4.478 0,-4.041 Z M 0.627,-11.892 0.291,-8.954 H 0.146 c -1.3,-1.829 -3.803,-3.466 -7.123,-3.466 -4.716,0 -7.123,3.323 -7.123,6.69 0,5.629 5.006,8.714 14.005,8.663 v 0.481 c 0,1.925 -0.53,5.393 -5.294,5.393 -2.165,0 -4.427,-0.674 -6.062,-1.735 l -0.965,2.793 c 1.926,1.25 4.717,2.069 7.654,2.069 7.121,0 8.853,-4.862 8.853,-9.53 v -8.711 c 0,-2.022 0.097,-3.995 0.386,-5.585 z" />
      </g>
      <g
         transform="matrix(0.33072917,0,0,-0.33072917,69.351943,140.09859)"
         id="g162">
        <path
           inkscape:connector-curvature="0"
           id="path164"
           style="fill:#87888a;fill-opacity:1;fill-rule:nonzero;stroke:none"
           d="M 0,0 C 0,2.403 -0.048,4.377 -0.192,6.302 H 3.561 L 3.802,2.454 h 0.096 c 1.155,2.211 3.85,4.378 7.702,4.378 3.222,0 8.229,-1.924 8.229,-9.914 v -13.911 h -4.235 v 13.43 c 0,3.755 -1.398,6.882 -5.391,6.882 C 7.412,3.319 5.247,1.347 4.524,-1.013 4.333,-1.541 4.235,-2.265 4.235,-2.984 V -16.993 H 0 Z" />
      </g>
      <g
         transform="matrix(0.33072917,0,0,-0.33072917,84.235384,141.14959)"
         id="g166">
        <path
           inkscape:connector-curvature="0"
           id="path168"
           style="fill:#87888a;fill-opacity:1;fill-rule:nonzero;stroke:none"
           d="m 0,0 c 0,0.529 -0.049,1.252 -0.192,1.781 -0.628,2.691 -2.937,4.908 -6.114,4.908 -4.379,0 -6.978,-3.847 -6.978,-8.999 0,-4.716 2.311,-8.616 6.883,-8.616 2.838,0 5.437,1.877 6.209,5.053 C -0.049,-5.293 0,-4.717 0,-4.043 Z M 4.235,20.357 V -7.798 c 0,-2.066 0.048,-4.428 0.192,-6.017 H 0.625 L 0.432,-9.771 H 0.336 c -1.3,-2.599 -4.138,-4.573 -7.94,-4.573 -5.631,0 -9.963,4.765 -9.963,11.841 -0.048,7.747 4.764,12.513 10.443,12.513 3.561,0 5.968,-1.684 7.027,-3.563 H 0 v 13.91 z" />
      </g>
      <g
         transform="matrix(0.33072917,0,0,-0.33072917,92.73681,144.28506)"
         id="g170">
        <path
           inkscape:connector-curvature="0"
           id="path172"
           style="fill:#87888a;fill-opacity:1;fill-rule:nonzero;stroke:none"
           d="m 0,0 c 1.25,-0.819 3.466,-1.687 5.581,-1.687 3.08,0 4.525,1.541 4.525,3.466 0,2.021 -1.204,3.128 -4.331,4.283 -4.188,1.495 -6.161,3.801 -6.161,6.596 0,3.752 3.032,6.832 8.037,6.832 2.359,0 4.428,-0.673 5.728,-1.445 L 12.32,14.966 c -0.914,0.576 -2.598,1.347 -4.764,1.347 -2.503,0 -3.898,-1.444 -3.898,-3.176 0,-1.923 1.395,-2.79 4.426,-3.946 4.044,-1.541 6.112,-3.558 6.112,-7.028 0,-4.09 -3.176,-6.976 -8.71,-6.976 -2.551,0 -4.908,0.625 -6.545,1.586 z" />
      </g>
      <g
         transform="matrix(0.33072917,0,0,-0.33072917,104.91356,141.11794)"
         id="g174">
        <path
           inkscape:connector-curvature="0"
           id="path176"
           style="fill:#87888a;fill-opacity:1;fill-rule:nonzero;stroke:none"
           d="m 0,0 c 0.048,2.694 -1.106,6.882 -5.872,6.882 -4.283,0 -6.16,-3.947 -6.498,-6.882 z m -12.415,-3.031 c 0.095,-5.729 3.752,-8.085 7.988,-8.085 3.031,0 4.861,0.529 6.448,1.201 l 0.723,-3.029 C 1.25,-13.62 -1.3,-14.39 -5.005,-14.39 c -7.17,0 -11.455,4.715 -11.455,11.741 0,7.025 4.14,12.563 10.925,12.563 7.603,0 9.626,-6.689 9.626,-10.975 0,-0.865 -0.095,-1.538 -0.144,-1.97 z" />
      </g>
      <g
         transform="matrix(0.33072917,0,0,-0.33072917,114.29023,145.4316)"
         id="g178">
        <path
           inkscape:connector-curvature="0"
           id="path180"
           style="fill:#87888a;fill-opacity:1;fill-rule:nonzero;stroke:none"
           d="m 0,0 c -1.109,-0.577 -3.563,-1.347 -6.689,-1.347 -7.027,0 -11.601,4.765 -11.601,11.888 0,7.172 4.911,12.366 12.515,12.366 2.502,0 4.716,-0.623 5.87,-1.2 l -0.963,-3.274 c -1.01,0.576 -2.598,1.105 -4.907,1.105 -5.344,0 -8.23,-3.942 -8.23,-8.808 0,-5.388 3.464,-8.709 8.084,-8.709 2.407,0 3.995,0.626 5.198,1.155 z" />
      </g>
      <g
         transform="matrix(0.33072917,0,0,-0.33072917,123.17246,143.61745)"
         id="g182">
        <path
           inkscape:connector-curvature="0"
           id="path184"
           style="fill:#87888a;fill-opacity:1;fill-rule:nonzero;stroke:none"
           d="m 0,0 c 0,-2.402 0.048,-4.52 0.192,-6.354 h -3.755 l -0.239,3.806 h -0.096 c -1.107,-1.879 -3.561,-4.334 -7.699,-4.334 -3.658,0 -8.04,2.026 -8.04,10.202 v 13.621 h 4.235 V 4.043 c 0,-4.427 1.35,-7.411 5.2,-7.411 2.84,0 4.813,1.975 5.58,3.85 0.242,0.626 0.387,1.396 0.387,2.166 V 16.941 H 0 Z" />
      </g>
      <g
         transform="matrix(0.33072917,0,0,-0.33072917,126.29339,140.41805)"
         id="g186">
        <path
           inkscape:connector-curvature="0"
           id="path188"
           style="fill:#87888a;fill-opacity:1;fill-rule:nonzero;stroke:none"
           d="M 0,0 C 0,2.744 -0.047,5.103 -0.192,7.268 H 3.514 L 3.658,2.695 h 0.194 c 1.056,3.127 3.608,5.103 6.448,5.103 0.481,0 0.817,-0.05 1.203,-0.143 V 3.659 C 11.069,3.756 10.636,3.803 10.059,3.803 7.074,3.803 4.958,1.542 4.38,-1.635 4.283,-2.212 4.188,-2.888 4.188,-3.606 V -16.027 H 0 Z" />
      </g>
      <g
         transform="matrix(0.33072917,0,0,-0.33072917,137.02254,141.11794)"
         id="g190">
        <path
           inkscape:connector-curvature="0"
           id="path192"
           style="fill:#87888a;fill-opacity:1;fill-rule:nonzero;stroke:none"
           d="m 0,0 c 0.047,2.694 -1.108,6.882 -5.873,6.882 -4.282,0 -6.161,-3.947 -6.497,-6.882 z m -12.417,-3.031 c 0.096,-5.729 3.754,-8.085 7.989,-8.085 3.032,0 4.861,0.529 6.448,1.201 l 0.723,-3.029 C 1.248,-13.62 -1.3,-14.39 -5.006,-14.39 c -7.17,0 -11.455,4.715 -11.455,11.741 0,7.025 4.14,12.563 10.927,12.563 7.602,0 9.623,-6.689 9.623,-10.975 0,-0.865 -0.096,-1.538 -0.143,-1.97 z" />
      </g>
      <g
         transform="matrix(0.33072917,0,0,-0.33072917,150.56854,145.4316)"
         id="g194">
        <path
           inkscape:connector-curvature="0"
           id="path196"
           style="fill:#87888a;fill-opacity:1;fill-rule:nonzero;stroke:none"
           d="m 0,0 c -1.104,-0.577 -3.559,-1.347 -6.689,-1.347 -7.026,0 -11.598,4.765 -11.598,11.888 0,7.172 4.909,12.366 12.513,12.366 2.503,0 4.713,-0.623 5.873,-1.2 l -0.967,-3.274 c -1.008,0.576 -2.596,1.105 -4.906,1.105 -5.341,0 -8.229,-3.942 -8.229,-8.808 0,-5.388 3.464,-8.709 8.085,-8.709 2.402,0 3.991,0.626 5.2,1.155 z" />
      </g>
      <g
         transform="matrix(0.33072917,0,0,-0.33072917,157.0643,141.78584)"
         id="g198">
        <path
           inkscape:connector-curvature="0"
           id="path200"
           style="fill:#87888a;fill-opacity:1;fill-rule:nonzero;stroke:none"
           d="m 0,0 c -4.619,0.094 -9.865,-0.724 -9.865,-5.247 0,-2.746 1.827,-4.044 3.993,-4.044 3.035,0 4.958,1.926 5.632,3.897 C -0.099,-4.958 0,-4.478 0,-4.041 Z M 0.625,-11.892 0.29,-8.954 H 0.145 c -1.3,-1.829 -3.806,-3.466 -7.125,-3.466 -4.716,0 -7.12,3.323 -7.12,6.69 0,5.629 5.002,8.714 14.001,8.663 v 0.481 c 0,1.925 -0.528,5.393 -5.293,5.393 -2.169,0 -4.427,-0.674 -6.061,-1.735 l -0.965,2.793 c 1.925,1.25 4.716,2.069 7.654,2.069 7.119,0 8.853,-4.862 8.853,-9.53 v -8.711 c 0,-2.022 0.099,-3.995 0.385,-5.585 z" />
      </g>
      <g
         transform="matrix(0.33072917,0,0,-0.33072917,161.28367,144.28506)"
         id="g202">
        <path
           inkscape:connector-curvature="0"
           id="path204"
           style="fill:#87888a;fill-opacity:1;fill-rule:nonzero;stroke:none"
           d="m 0,0 c 1.251,-0.819 3.464,-1.687 5.581,-1.687 3.083,0 4.526,1.541 4.526,3.466 0,2.021 -1.207,3.128 -4.334,4.283 -4.186,1.495 -6.16,3.801 -6.16,6.596 0,3.752 3.033,6.832 8.04,6.832 2.355,0 4.424,-0.673 5.726,-1.445 l -1.061,-3.079 c -0.914,0.576 -2.595,1.347 -4.763,1.347 -2.504,0 -3.899,-1.444 -3.899,-3.176 0,-1.923 1.395,-2.79 4.428,-3.946 4.041,-1.541 6.11,-3.558 6.11,-7.028 0,-4.09 -3.176,-6.976 -8.708,-6.976 -2.553,0 -4.907,0.625 -6.548,1.586 z" />
      </g>
      <g
         transform="matrix(0.33072917,0,0,-0.33072917,168.57327,134.4168)"
         id="g206">
        <path
           inkscape:connector-curvature="0"
           id="path208"
           style="fill:#87888a;fill-opacity:1;fill-rule:nonzero;stroke:none"
           d="m 0,0 h 4.237 v -14.533 h 0.099 c 0.672,1.201 1.73,2.262 3.027,2.982 1.252,0.724 2.744,1.203 4.334,1.203 3.127,0 8.135,-1.923 8.135,-9.964 v -13.861 h -4.236 v 13.378 c 0,3.758 -1.395,6.935 -5.393,6.935 -2.741,0 -4.907,-1.927 -5.677,-4.236 -0.24,-0.579 -0.289,-1.201 -0.289,-2.02 V -34.173 H 0 Z" />
      </g>
      <g
         transform="matrix(0.33072917,0,0,-0.33072917,182.37506,134.4168)"
         id="g210">
        <path
           inkscape:connector-curvature="0"
           id="path212"
           style="fill:#87888a;fill-opacity:1;fill-rule:nonzero;stroke:none"
           d="M 0,0 H 4.235 V -14.533 H 4.33 c 0.673,1.201 1.73,2.262 3.032,2.982 1.25,0.724 2.741,1.203 4.33,1.203 3.131,0 8.135,-1.923 8.135,-9.964 v -13.861 h -4.235 v 13.378 c 0,3.758 -1.399,6.935 -5.391,6.935 -2.744,0 -4.906,-1.927 -5.679,-4.236 -0.244,-0.579 -0.287,-1.201 -0.287,-2.02 V -34.173 H 0 Z" />
      </g>
      <g
         transform="matrix(0.33072917,0,0,-0.33072917,196.06514,141.78584)"
         id="g214">
        <path
           inkscape:connector-curvature="0"
           id="path216"
           style="fill:#87888a;fill-opacity:1;fill-rule:nonzero;stroke:none"
           d="m 0,0 c -4.621,0.094 -9.865,-0.724 -9.865,-5.247 0,-2.746 1.823,-4.044 3.993,-4.044 3.033,0 4.956,1.926 5.629,3.897 C -0.099,-4.958 0,-4.478 0,-4.041 Z M 0.623,-11.892 0.286,-8.954 H 0.145 c -1.302,-1.829 -3.806,-3.466 -7.125,-3.466 -4.717,0 -7.121,3.323 -7.121,6.69 0,5.629 5.002,8.714 14.002,8.663 v 0.481 c 0,1.925 -0.528,5.393 -5.295,5.393 -2.166,0 -4.428,-0.674 -6.06,-1.735 l -0.964,2.793 c 1.923,1.25 4.713,2.069 7.653,2.069 7.12,0 8.852,-4.862 8.852,-9.53 v -8.711 c 0,-2.022 0.099,-3.995 0.386,-5.585 z" />
      </g>
      <g
         transform="matrix(0.33072917,0,0,-0.33072917,200.47508,140.09859)"
         id="g218">
        <path
           inkscape:connector-curvature="0"
           id="path220"
           style="fill:#87888a;fill-opacity:1;fill-rule:nonzero;stroke:none"
           d="M 0,0 C 0,2.403 -0.048,4.377 -0.192,6.302 H 3.563 L 3.799,2.454 h 0.098 c 1.156,2.211 3.853,4.378 7.7,4.378 3.226,0 8.229,-1.924 8.229,-9.914 v -13.911 h -4.234 v 13.43 c 0,3.755 -1.396,6.882 -5.388,6.882 -2.79,0 -4.96,-1.972 -5.68,-4.332 -0.195,-0.528 -0.29,-1.252 -0.29,-1.971 V -16.993 H 0 Z" />
      </g>
      <g
         transform="matrix(0.33072917,0,0,-0.33072917,215.35819,141.14959)"
         id="g222">
        <path
           inkscape:connector-curvature="0"
           id="path224"
           style="fill:#87888a;fill-opacity:1;fill-rule:nonzero;stroke:none"
           d="m 0,0 c 0,0.529 -0.049,1.252 -0.193,1.781 -0.621,2.691 -2.933,4.908 -6.111,4.908 -4.379,0 -6.975,-3.847 -6.975,-8.999 0,-4.716 2.304,-8.616 6.878,-8.616 2.838,0 5.441,1.877 6.208,5.053 C -0.049,-5.293 0,-4.717 0,-4.043 Z M 4.235,20.357 V -7.798 c 0,-2.066 0.05,-4.428 0.195,-6.017 H 0.629 L 0.436,-9.771 H 0.337 c -1.297,-2.599 -4.138,-4.573 -7.941,-4.573 -5.631,0 -9.96,4.765 -9.96,11.841 -0.05,7.747 4.763,12.513 10.444,12.513 3.557,0 5.968,-1.684 7.025,-3.563 H 0 v 13.91 z" />
      </g>
      <path
         inkscape:connector-curvature="0"
         id="path226"
         style="fill:#87888a;fill-opacity:1;fill-rule:nonzero;stroke:none;stroke-width:0.33072916"
         d="m 219.87992,134.41663 h 1.40097 v 11.30201 h -1.40097 z" />
      <path
         inkscape:connector-curvature="0"
         id="path228"
         style="fill:#87888a;fill-opacity:1;fill-rule:nonzero;stroke:none;stroke-width:0.33072916"
         d="m 224.43207,138.01431 h 1.40064 v 7.70433 h -1.40064 z m 1.55939,-2.16496 c 0.0165,0.47791 -0.33337,0.8599 -0.89197,0.8599 -0.49213,0 -0.84204,-0.38199 -0.84204,-0.8599 0,-0.49245 0.36645,-0.8761 0.87478,-0.8761 0.52586,0 0.85923,0.38365 0.85923,0.8761" />
      <g
         transform="matrix(0.33072917,0,0,-0.33072917,228.95394,140.09859)"
         id="g230">
        <path
           inkscape:connector-curvature="0"
           id="path232"
           style="fill:#87888a;fill-opacity:1;fill-rule:nonzero;stroke:none"
           d="M 0,0 C 0,2.403 -0.051,4.377 -0.195,6.302 H 3.562 L 3.799,2.454 h 0.097 c 1.154,2.211 3.851,4.378 7.701,4.378 3.225,0 8.229,-1.924 8.229,-9.914 v -13.911 h -4.234 v 13.43 c 0,3.755 -1.399,6.882 -5.391,6.882 -2.79,0 -4.958,-1.972 -5.68,-4.332 C 4.329,-1.541 4.234,-2.265 4.234,-2.984 V -16.993 H 0 Z" />
      </g>
      <g
         transform="matrix(0.33072917,0,0,-0.33072917,243.77315,141.0543)"
         id="g234">
        <path
           inkscape:connector-curvature="0"
           id="path236"
           style="fill:#87888a;fill-opacity:1;fill-rule:nonzero;stroke:none"
           d="m 0,0 c 0,0.721 -0.051,1.349 -0.238,1.924 -0.772,2.454 -2.839,4.477 -5.922,4.477 -4.043,0 -6.927,-3.418 -6.927,-8.808 0,-4.572 2.303,-8.372 6.875,-8.372 2.606,0 4.96,1.636 5.875,4.331 C -0.096,-5.726 0,-4.908 0,-4.188 Z M 4.377,9.191 C 4.284,7.508 4.186,5.629 4.186,2.791 v -13.524 c 0,-5.341 -1.06,-8.615 -3.321,-10.635 -2.261,-2.119 -5.534,-2.791 -8.469,-2.791 -2.792,0 -5.871,0.672 -7.751,1.926 l 1.06,3.221 c 1.545,-0.962 3.947,-1.825 6.837,-1.825 4.33,0 7.507,2.261 7.507,8.132 v 2.598 h -0.1 c -1.296,-2.163 -3.8,-3.898 -7.407,-3.898 -5.78,0 -9.916,4.909 -9.916,11.358 0,7.892 5.152,12.369 10.49,12.369 4.043,0 6.259,-2.118 7.268,-4.042 h 0.094 l 0.194,3.511 z" />
      </g>
      <g
         transform="matrix(0.33072917,0,0,-0.33072917,14.542943,145.4316)"
         id="g238">
        <path
           inkscape:connector-curvature="0"
           id="path240"
           style="fill:#1a171b;fill-opacity:1;fill-rule:nonzero;stroke:none"
           d="m 0,0 c -1.106,-0.577 -3.56,-1.347 -6.689,-1.347 -7.026,0 -11.598,4.765 -11.598,11.888 0,7.172 4.908,12.366 12.512,12.366 2.502,0 4.716,-0.623 5.872,-1.2 l -0.964,-3.274 c -1.009,0.576 -2.597,1.105 -4.908,1.105 -5.342,0 -8.23,-3.942 -8.23,-8.808 0,-5.388 3.466,-8.709 8.086,-8.709 2.406,0 3.995,0.626 5.196,1.155 z" />
      </g>
      <path
         inkscape:connector-curvature="0"
         id="path242"
         style="fill:#1a171b;fill-opacity:1;fill-rule:nonzero;stroke:none;stroke-width:0.33072916"
         d="m 16.979226,134.41663 h 1.400638 v 11.30201 h -1.400638 z" />
      <g
         transform="matrix(0.33072917,0,0,-0.33072917,22.391146,141.88275)"
         id="g244">
        <path
           inkscape:connector-curvature="0"
           id="path246"
           style="fill:#1a171b;fill-opacity:1;fill-rule:nonzero;stroke:none"
           d="m 0,0 c 0,-5.101 2.935,-8.95 7.076,-8.95 4.041,0 7.074,3.803 7.074,9.048 0,3.947 -1.974,8.952 -6.98,8.952 C 2.167,9.05 0,4.429 0,0 m 18.481,0.243 c 0,-8.616 -5.967,-12.37 -11.598,-12.37 -6.305,0 -11.166,4.621 -11.166,11.984 0,7.797 5.1,12.37 11.551,12.37 6.689,0 11.213,-4.862 11.213,-11.984" />
      </g>
      <g
         transform="matrix(0.33072917,0,0,-0.33072917,30.876234,144.28506)"
         id="g248">
        <path
           inkscape:connector-curvature="0"
           id="path250"
           style="fill:#1a171b;fill-opacity:1;fill-rule:nonzero;stroke:none"
           d="m 0,0 c 1.253,-0.819 3.468,-1.687 5.583,-1.687 3.08,0 4.524,1.541 4.524,3.466 0,2.021 -1.203,3.128 -4.33,4.283 -4.188,1.495 -6.161,3.801 -6.161,6.596 0,3.752 3.032,6.832 8.037,6.832 2.359,0 4.428,-0.673 5.726,-1.445 L 12.32,14.966 c -0.914,0.576 -2.599,1.347 -4.762,1.347 -2.505,0 -3.899,-1.444 -3.899,-3.176 0,-1.923 1.394,-2.79 4.427,-3.946 4.044,-1.541 6.112,-3.558 6.112,-7.028 0,-4.09 -3.177,-6.976 -8.71,-6.976 -2.551,0 -4.91,0.625 -6.547,1.586 z" />
      </g>
      <g
         transform="matrix(0.33072917,0,0,-0.33072917,43.052988,141.11794)"
         id="g252">
        <path
           inkscape:connector-curvature="0"
           id="path254"
           style="fill:#1a171b;fill-opacity:1;fill-rule:nonzero;stroke:none"
           d="m 0,0 c 0.05,2.694 -1.104,6.882 -5.871,6.882 -4.282,0 -6.158,-3.947 -6.497,-6.882 z m -12.415,-3.031 c 0.097,-5.729 3.754,-8.085 7.99,-8.085 3.031,0 4.86,0.529 6.448,1.201 l 0.722,-3.029 c -1.493,-0.676 -4.043,-1.446 -7.748,-1.446 -7.17,0 -11.455,4.715 -11.455,11.741 0,7.025 4.14,12.563 10.925,12.563 7.603,0 9.623,-6.689 9.623,-10.975 0,-0.865 -0.094,-1.538 -0.141,-1.97 z" />
      </g>
      <g
         transform="matrix(0.33072917,0,0,-0.33072917,52.190671,141.14959)"
         id="g256">
        <path
           inkscape:connector-curvature="0"
           id="path258"
           style="fill:#1a171b;fill-opacity:1;fill-rule:nonzero;stroke:none"
           d="m 0,0 c 0,0.529 -0.048,1.252 -0.19,1.781 -0.627,2.691 -2.937,4.908 -6.113,4.908 -4.381,0 -6.979,-3.847 -6.979,-8.999 0,-4.716 2.311,-8.616 6.883,-8.616 2.838,0 5.437,1.877 6.209,5.053 0.142,0.58 0.19,1.156 0.19,1.83 z M 4.235,20.357 V -7.798 c 0,-2.066 0.05,-4.428 0.194,-6.017 H 0.627 L 0.433,-9.771 H 0.338 c -1.3,-2.599 -4.138,-4.573 -7.94,-4.573 -5.63,0 -9.963,4.765 -9.963,11.841 -0.047,7.747 4.764,12.513 10.444,12.513 3.56,0 5.967,-1.684 7.026,-3.563 H 0 v 13.91 z" />
      </g>
      <g
         transform="matrix(0.33072917,0,0,-0.33072917,64.941504,141.78584)"
         id="g260">
        <path
           inkscape:connector-curvature="0"
           id="path262"
           style="fill:#1a171b;fill-opacity:1;fill-rule:nonzero;stroke:none"
           d="m 0,0 c -4.62,0.094 -9.864,-0.724 -9.864,-5.247 0,-2.746 1.829,-4.044 3.994,-4.044 3.032,0 4.957,1.926 5.631,3.897 C -0.095,-4.958 0,-4.478 0,-4.041 Z M 0.627,-11.892 0.291,-8.954 H 0.146 c -1.3,-1.829 -3.803,-3.466 -7.123,-3.466 -4.716,0 -7.123,3.323 -7.123,6.69 0,5.629 5.006,8.714 14.005,8.663 v 0.481 c 0,1.925 -0.53,5.393 -5.294,5.393 -2.165,0 -4.427,-0.674 -6.062,-1.735 l -0.965,2.793 c 1.926,1.25 4.717,2.069 7.654,2.069 7.121,0 8.853,-4.862 8.853,-9.53 v -8.711 c 0,-2.022 0.097,-3.995 0.386,-5.585 z" />
      </g>
      <g
         transform="matrix(0.33072917,0,0,-0.33072917,69.351943,140.09859)"
         id="g264">
        <path
           inkscape:connector-curvature="0"
           id="path266"
           style="fill:#1a171b;fill-opacity:1;fill-rule:nonzero;stroke:none"
           d="M 0,0 C 0,2.403 -0.048,4.377 -0.192,6.302 H 3.561 L 3.802,2.454 h 0.096 c 1.155,2.211 3.85,4.378 7.702,4.378 3.222,0 8.229,-1.924 8.229,-9.914 v -13.911 h -4.235 v 13.43 c 0,3.755 -1.398,6.882 -5.391,6.882 C 7.412,3.319 5.247,1.347 4.524,-1.013 4.333,-1.541 4.235,-2.265 4.235,-2.984 V -16.993 H 0 Z" />
      </g>
      <g
         transform="matrix(0.33072917,0,0,-0.33072917,84.235384,141.14959)"
         id="g268">
        <path
           inkscape:connector-curvature="0"
           id="path270"
           style="fill:#1a171b;fill-opacity:1;fill-rule:nonzero;stroke:none"
           d="m 0,0 c 0,0.529 -0.049,1.252 -0.192,1.781 -0.628,2.691 -2.937,4.908 -6.114,4.908 -4.379,0 -6.978,-3.847 -6.978,-8.999 0,-4.716 2.311,-8.616 6.883,-8.616 2.838,0 5.437,1.877 6.209,5.053 C -0.049,-5.293 0,-4.717 0,-4.043 Z M 4.235,20.357 V -7.798 c 0,-2.066 0.048,-4.428 0.192,-6.017 H 0.625 L 0.432,-9.771 H 0.336 c -1.3,-2.599 -4.138,-4.573 -7.94,-4.573 -5.631,0 -9.963,4.765 -9.963,11.841 -0.048,7.747 4.764,12.513 10.443,12.513 3.561,0 5.968,-1.684 7.027,-3.563 H 0 v 13.91 z" />
      </g>
      <g
         transform="matrix(0.33072917,0,0,-0.33072917,92.73681,144.28506)"
         id="g272">
        <path
           inkscape:connector-curvature="0"
           id="path274"
           style="fill:#1a171b;fill-opacity:1;fill-rule:nonzero;stroke:none"
           d="m 0,0 c 1.25,-0.819 3.466,-1.687 5.581,-1.687 3.08,0 4.525,1.541 4.525,3.466 0,2.021 -1.204,3.128 -4.331,4.283 -4.188,1.495 -6.161,3.801 -6.161,6.596 0,3.752 3.032,6.832 8.037,6.832 2.359,0 4.428,-0.673 5.728,-1.445 L 12.32,14.966 c -0.914,0.576 -2.598,1.347 -4.764,1.347 -2.503,0 -3.898,-1.444 -3.898,-3.176 0,-1.923 1.395,-2.79 4.426,-3.946 4.044,-1.541 6.112,-3.558 6.112,-7.028 0,-4.09 -3.176,-6.976 -8.71,-6.976 -2.551,0 -4.908,0.625 -6.545,1.586 z" />
      </g>
      <g
         transform="matrix(0.33072917,0,0,-0.33072917,104.91356,141.11794)"
         id="g276">
        <path
           inkscape:connector-curvature="0"
           id="path278"
           style="fill:#1a171b;fill-opacity:1;fill-rule:nonzero;stroke:none"
           d="m 0,0 c 0.048,2.694 -1.106,6.882 -5.872,6.882 -4.283,0 -6.16,-3.947 -6.498,-6.882 z m -12.415,-3.031 c 0.095,-5.729 3.752,-8.085 7.988,-8.085 3.031,0 4.861,0.529 6.448,1.201 l 0.723,-3.029 C 1.25,-13.62 -1.3,-14.39 -5.005,-14.39 c -7.17,0 -11.455,4.715 -11.455,11.741 0,7.025 4.14,12.563 10.925,12.563 7.603,0 9.626,-6.689 9.626,-10.975 0,-0.865 -0.095,-1.538 -0.144,-1.97 z" />
      </g>
      <g
         transform="matrix(0.33072917,0,0,-0.33072917,114.29023,145.4316)"
         id="g280">
        <path
           inkscape:connector-curvature="0"
           id="path282"
           style="fill:#1a171b;fill-opacity:1;fill-rule:nonzero;stroke:none"
           d="m 0,0 c -1.109,-0.577 -3.563,-1.347 -6.689,-1.347 -7.027,0 -11.601,4.765 -11.601,11.888 0,7.172 4.911,12.366 12.515,12.366 2.502,0 4.716,-0.623 5.87,-1.2 l -0.963,-3.274 c -1.01,0.576 -2.598,1.105 -4.907,1.105 -5.344,0 -8.23,-3.942 -8.23,-8.808 0,-5.388 3.464,-8.709 8.084,-8.709 2.407,0 3.995,0.626 5.198,1.155 z" />
      </g>
      <g
         transform="matrix(0.33072917,0,0,-0.33072917,123.17246,143.61745)"
         id="g284">
        <path
           inkscape:connector-curvature="0"
           id="path286"
           style="fill:#1a171b;fill-opacity:1;fill-rule:nonzero;stroke:none"
           d="m 0,0 c 0,-2.402 0.048,-4.52 0.192,-6.354 h -3.755 l -0.239,3.806 h -0.096 c -1.107,-1.879 -3.561,-4.334 -7.699,-4.334 -3.658,0 -8.04,2.026 -8.04,10.202 v 13.621 h 4.235 V 4.043 c 0,-4.427 1.35,-7.411 5.2,-7.411 2.84,0 4.813,1.975 5.58,3.85 0.242,0.626 0.387,1.396 0.387,2.166 V 16.941 H 0 Z" />
      </g>
      <g
         transform="matrix(0.33072917,0,0,-0.33072917,126.29339,140.41805)"
         id="g288">
        <path
           inkscape:connector-curvature="0"
           id="path290"
           style="fill:#1a171b;fill-opacity:1;fill-rule:nonzero;stroke:none"
           d="M 0,0 C 0,2.744 -0.047,5.103 -0.192,7.268 H 3.514 L 3.658,2.695 h 0.194 c 1.056,3.127 3.608,5.103 6.448,5.103 0.481,0 0.817,-0.05 1.203,-0.143 V 3.659 C 11.069,3.756 10.636,3.803 10.059,3.803 7.074,3.803 4.958,1.542 4.38,-1.635 4.283,-2.212 4.188,-2.888 4.188,-3.606 V -16.027 H 0 Z" />
      </g>
      <g
         transform="matrix(0.33072917,0,0,-0.33072917,137.02254,141.11794)"
         id="g292">
        <path
           inkscape:connector-curvature="0"
           id="path294"
           style="fill:#1a171b;fill-opacity:1;fill-rule:nonzero;stroke:none"
           d="m 0,0 c 0.047,2.694 -1.108,6.882 -5.873,6.882 -4.282,0 -6.161,-3.947 -6.497,-6.882 z m -12.417,-3.031 c 0.096,-5.729 3.754,-8.085 7.989,-8.085 3.032,0 4.861,0.529 6.448,1.201 l 0.723,-3.029 C 1.248,-13.62 -1.3,-14.39 -5.006,-14.39 c -7.17,0 -11.455,4.715 -11.455,11.741 0,7.025 4.14,12.563 10.927,12.563 7.602,0 9.623,-6.689 9.623,-10.975 0,-0.865 -0.096,-1.538 -0.143,-1.97 z" />
      </g>
      <g
         transform="matrix(0.33072917,0,0,-0.33072917,150.56854,145.4316)"
         id="g296">
        <path
           inkscape:connector-curvature="0"
           id="path298"
           style="fill:#1a171b;fill-opacity:1;fill-rule:nonzero;stroke:none"
           d="m 0,0 c -1.104,-0.577 -3.559,-1.347 -6.689,-1.347 -7.026,0 -11.598,4.765 -11.598,11.888 0,7.172 4.909,12.366 12.513,12.366 2.503,0 4.713,-0.623 5.873,-1.2 l -0.967,-3.274 c -1.008,0.576 -2.596,1.105 -4.906,1.105 -5.341,0 -8.229,-3.942 -8.229,-8.808 0,-5.388 3.464,-8.709 8.085,-8.709 2.402,0 3.991,0.626 5.2,1.155 z" />
      </g>
      <g
         transform="matrix(0.33072917,0,0,-0.33072917,157.0643,141.78584)"
         id="g300">
        <path
           inkscape:connector-curvature="0"
           id="path302"
           style="fill:#1a171b;fill-opacity:1;fill-rule:nonzero;stroke:none"
           d="m 0,0 c -4.619,0.094 -9.865,-0.724 -9.865,-5.247 0,-2.746 1.827,-4.044 3.993,-4.044 3.035,0 4.958,1.926 5.632,3.897 C -0.099,-4.958 0,-4.478 0,-4.041 Z M 0.625,-11.892 0.29,-8.954 H 0.145 c -1.3,-1.829 -3.806,-3.466 -7.125,-3.466 -4.716,0 -7.12,3.323 -7.12,6.69 0,5.629 5.002,8.714 14.001,8.663 v 0.481 c 0,1.925 -0.528,5.393 -5.293,5.393 -2.169,0 -4.427,-0.674 -6.061,-1.735 l -0.965,2.793 c 1.925,1.25 4.716,2.069 7.654,2.069 7.119,0 8.853,-4.862 8.853,-9.53 v -8.711 c 0,-2.022 0.099,-3.995 0.385,-5.585 z" />
      </g>
      <g
         transform="matrix(0.33072917,0,0,-0.33072917,161.28367,144.28506)"
         id="g304">
        <path
           inkscape:connector-curvature="0"
           id="path306"
           style="fill:#1a171b;fill-opacity:1;fill-rule:nonzero;stroke:none"
           d="m 0,0 c 1.251,-0.819 3.464,-1.687 5.581,-1.687 3.083,0 4.526,1.541 4.526,3.466 0,2.021 -1.207,3.128 -4.334,4.283 -4.186,1.495 -6.16,3.801 -6.16,6.596 0,3.752 3.033,6.832 8.04,6.832 2.355,0 4.424,-0.673 5.726,-1.445 l -1.061,-3.079 c -0.914,0.576 -2.595,1.347 -4.763,1.347 -2.504,0 -3.899,-1.444 -3.899,-3.176 0,-1.923 1.395,-2.79 4.428,-3.946 4.041,-1.541 6.11,-3.558 6.11,-7.028 0,-4.09 -3.176,-6.976 -8.708,-6.976 -2.553,0 -4.907,0.625 -6.548,1.586 z" />
      </g>
      <g
         transform="matrix(0.33072917,0,0,-0.33072917,168.57327,134.4168)"
         id="g308">
        <path
           inkscape:connector-curvature="0"
           id="path310"
           style="fill:#1a171b;fill-opacity:1;fill-rule:nonzero;stroke:none"
           d="m 0,0 h 4.237 v -14.533 h 0.099 c 0.672,1.201 1.73,2.262 3.027,2.982 1.252,0.724 2.744,1.203 4.334,1.203 3.127,0 8.135,-1.923 8.135,-9.964 v -13.861 h -4.236 v 13.378 c 0,3.758 -1.395,6.935 -5.393,6.935 -2.741,0 -4.907,-1.927 -5.677,-4.236 -0.24,-0.579 -0.289,-1.201 -0.289,-2.02 V -34.173 H 0 Z" />
      </g>
      <g
         transform="matrix(0.33072917,0,0,-0.33072917,182.37506,134.4168)"
         id="g312">
        <path
           inkscape:connector-curvature="0"
           id="path314"
           style="fill:#1a171b;fill-opacity:1;fill-rule:nonzero;stroke:none"
           d="M 0,0 H 4.235 V -14.533 H 4.33 c 0.673,1.201 1.73,2.262 3.032,2.982 1.25,0.724 2.741,1.203 4.33,1.203 3.131,0 8.135,-1.923 8.135,-9.964 v -13.861 h -4.235 v 13.378 c 0,3.758 -1.399,6.935 -5.391,6.935 -2.744,0 -4.906,-1.927 -5.679,-4.236 -0.244,-0.579 -0.287,-1.201 -0.287,-2.02 V -34.173 H 0 Z" />
      </g>
      <g
         transform="matrix(0.33072917,0,0,-0.33072917,196.06514,141.78584)"
         id="g316">
        <path
           inkscape:connector-curvature="0"
           id="path318"
           style="fill:#1a171b;fill-opacity:1;fill-rule:nonzero;stroke:none"
           d="m 0,0 c -4.621,0.094 -9.865,-0.724 -9.865,-5.247 0,-2.746 1.823,-4.044 3.993,-4.044 3.033,0 4.956,1.926 5.629,3.897 C -0.099,-4.958 0,-4.478 0,-4.041 Z M 0.623,-11.892 0.286,-8.954 H 0.145 c -1.302,-1.829 -3.806,-3.466 -7.125,-3.466 -4.717,0 -7.121,3.323 -7.121,6.69 0,5.629 5.002,8.714 14.002,8.663 v 0.481 c 0,1.925 -0.528,5.393 -5.295,5.393 -2.166,0 -4.428,-0.674 -6.06,-1.735 l -0.964,2.793 c 1.923,1.25 4.713,2.069 7.653,2.069 7.12,0 8.852,-4.862 8.852,-9.53 v -8.711 c 0,-2.022 0.099,-3.995 0.386,-5.585 z" />
      </g>
      <g
         transform="matrix(0.33072917,0,0,-0.33072917,200.47508,140.09859)"
         id="g320">
        <path
           inkscape:connector-curvature="0"
           id="path322"
           style="fill:#1a171b;fill-opacity:1;fill-rule:nonzero;stroke:none"
           d="M 0,0 C 0,2.403 -0.048,4.377 -0.192,6.302 H 3.563 L 3.799,2.454 h 0.098 c 1.156,2.211 3.853,4.378 7.7,4.378 3.226,0 8.229,-1.924 8.229,-9.914 v -13.911 h -4.234 v 13.43 c 0,3.755 -1.396,6.882 -5.388,6.882 -2.79,0 -4.96,-1.972 -5.68,-4.332 -0.195,-0.528 -0.29,-1.252 -0.29,-1.971 V -16.993 H 0 Z" />
      </g>
      <g
         transform="matrix(0.33072917,0,0,-0.33072917,215.35819,141.14959)"
         id="g324">
        <path
           inkscape:connector-curvature="0"
           id="path326"
           style="fill:#1a171b;fill-opacity:1;fill-rule:nonzero;stroke:none"
           d="m 0,0 c 0,0.529 -0.049,1.252 -0.193,1.781 -0.621,2.691 -2.933,4.908 -6.111,4.908 -4.379,0 -6.975,-3.847 -6.975,-8.999 0,-4.716 2.304,-8.616 6.878,-8.616 2.838,0 5.441,1.877 6.208,5.053 C -0.049,-5.293 0,-4.717 0,-4.043 Z M 4.235,20.357 V -7.798 c 0,-2.066 0.05,-4.428 0.195,-6.017 H 0.629 L 0.436,-9.771 H 0.337 c -1.297,-2.599 -4.138,-4.573 -7.941,-4.573 -5.631,0 -9.96,4.765 -9.96,11.841 -0.05,7.747 4.763,12.513 10.444,12.513 3.557,0 5.968,-1.684 7.025,-3.563 H 0 v 13.91 z" />
      </g>
      <path
         inkscape:connector-curvature="0"
         id="path328"
         style="fill:#1a171b;fill-opacity:1;fill-rule:nonzero;stroke:none;stroke-width:0.33072916"
         d="m 219.87992,134.41663 h 1.40097 v 11.30201 h -1.40097 z" />
      <path
         inkscape:connector-curvature="0"
         id="path330"
         style="fill:#1a171b;fill-opacity:1;fill-rule:nonzero;stroke:none;stroke-width:0.33072916"
         d="m 224.43207,138.01431 h 1.40064 v 7.70433 h -1.40064 z m 1.55939,-2.16496 c 0.0165,0.47791 -0.33337,0.8599 -0.89197,0.8599 -0.49213,0 -0.84204,-0.38199 -0.84204,-0.8599 0,-0.49245 0.36645,-0.8761 0.87478,-0.8761 0.52586,0 0.85923,0.38365 0.85923,0.8761" />
      <g
         transform="matrix(0.33072917,0,0,-0.33072917,228.95394,140.09859)"
         id="g332">
        <path
           inkscape:connector-curvature="0"
           id="path334"
           style="fill:#1a171b;fill-opacity:1;fill-rule:nonzero;stroke:none"
           d="M 0,0 C 0,2.403 -0.051,4.377 -0.195,6.302 H 3.562 L 3.799,2.454 h 0.097 c 1.154,2.211 3.851,4.378 7.701,4.378 3.225,0 8.229,-1.924 8.229,-9.914 v -13.911 h -4.234 v 13.43 c 0,3.755 -1.399,6.882 -5.391,6.882 -2.79,0 -4.958,-1.972 -5.68,-4.332 C 4.329,-1.541 4.234,-2.265 4.234,-2.984 V -16.993 H 0 Z" />
      </g>
      <g
         transform="matrix(0.33072917,0,0,-0.33072917,243.77315,141.0543)"
         id="g336">
        <path
           inkscape:connector-curvature="0"
           id="path338"
           style="fill:#1a171b;fill-opacity:1;fill-rule:nonzero;stroke:none"
           d="m 0,0 c 0,0.721 -0.051,1.349 -0.238,1.924 -0.772,2.454 -2.839,4.477 -5.922,4.477 -4.043,0 -6.927,-3.418 -6.927,-8.808 0,-4.572 2.303,-8.372 6.875,-8.372 2.606,0 4.96,1.636 5.875,4.331 C -0.096,-5.726 0,-4.908 0,-4.188 Z M 4.377,9.191 C 4.284,7.508 4.186,5.629 4.186,2.791 v -13.524 c 0,-5.341 -1.06,-8.615 -3.321,-10.635 -2.261,-2.119 -5.534,-2.791 -8.469,-2.791 -2.792,0 -5.871,0.672 -7.751,1.926 l 1.06,3.221 c 1.545,-0.962 3.947,-1.825 6.837,-1.825 4.33,0 7.507,2.261 7.507,8.132 v 2.598 h -0.1 c -1.296,-2.163 -3.8,-3.898 -7.407,-3.898 -5.78,0 -9.916,4.909 -9.916,11.358 0,7.892 5.152,12.369 10.49,12.369 4.043,0 6.259,-2.118 7.268,-4.042 h 0.094 l 0.194,3.511 z" />
      </g>
      <g
         transform="matrix(0.33072917,0,0,-0.33072917,252.8769,92.031277)"
         id="g340">
        <path
           inkscape:connector-curvature="0"
           id="path342"
           style="fill:#1a171b;fill-opacity:1;fill-rule:nonzero;stroke:none"
           d="m 0,0 h 1.902 c 2.161,0 3.517,1.146 3.517,2.892 0,1.927 -1.356,2.813 -3.44,2.813 C 0.964,5.705 0.313,5.627 0,5.549 Z m -3.179,7.763 c 1.2,0.208 2.995,0.365 4.847,0.365 2.525,0 4.246,-0.418 5.417,-1.407 C 8.049,5.913 8.597,4.689 8.597,3.204 8.597,0.938 7.06,-0.599 5.419,-1.199 v -0.078 c 1.25,-0.469 2.006,-1.694 2.449,-3.386 0.546,-2.189 1.015,-4.22 1.38,-4.898 H 5.939 C 5.68,-9.04 5.262,-7.607 4.767,-5.418 4.272,-3.126 3.438,-2.396 1.614,-2.345 H 0 v -7.216 h -3.179 z" />
      </g>
      <g
         transform="matrix(0.33072917,0,0,-0.33072917,253.62362,88.269563)"
         id="g344">
        <path
           inkscape:connector-curvature="0"
           id="path346"
           style="fill:#1a171b;fill-opacity:1;fill-rule:nonzero;stroke:none"
           d="m 0,0 c -6.771,0 -12.279,-5.509 -12.279,-12.279 0,-6.771 5.508,-12.279 12.279,-12.279 6.771,0 12.279,5.508 12.279,12.279 C 12.279,-5.509 6.771,0 0,0 m 0,-26.231 c -1.883,0 -3.711,0.369 -5.432,1.096 -1.661,0.703 -3.153,1.709 -4.434,2.99 -1.28,1.282 -2.287,2.773 -2.989,4.435 -0.728,1.72 -1.097,3.548 -1.097,5.431 0,1.883 0.369,3.71 1.097,5.431 0.702,1.661 1.709,3.153 2.989,4.435 1.281,1.28 2.773,2.286 4.434,2.99 1.721,0.727 3.549,1.096 5.432,1.096 1.882,0 3.71,-0.369 5.431,-1.096 1.662,-0.704 3.153,-1.71 4.434,-2.99 1.281,-1.282 2.288,-2.774 2.99,-4.435 0.727,-1.721 1.097,-3.548 1.097,-5.431 0,-1.883 -0.37,-3.711 -1.097,-5.431 -0.702,-1.662 -1.709,-3.153 -2.99,-4.435 -1.281,-1.281 -2.772,-2.287 -4.434,-2.99 C 3.71,-25.862 1.882,-26.231 0,-26.231" />
      </g>
    </g>
    <g
       id="g705">
      <g
         style="fill:#83b81a;fill-opacity:1"
         transform="matrix(0.2176059,0,0,-0.2176059,93.711684,116.48433)"
         id="g88-3">
        <path
           inkscape:connector-curvature="0"
           id="path90-8"
           style="fill:#83b81a;fill-opacity:1;fill-rule:nonzero;stroke:none"
           d="M 0,0 H 24.008 V -22.897 L 11.991,-40.061 24.008,-57.222 v -22.89 H 0 Z" />
      </g>
      <g
         style="fill:#83b81a;fill-opacity:1"
         transform="matrix(0.2176059,0,0,-0.2176059,98.499973,125.20174)"
         id="g92-7">
        <path
           inkscape:connector-curvature="0"
           id="path94-3"
           style="fill:#83b81a;fill-opacity:1;fill-rule:nonzero;stroke:none"
           d="M 0,0 C 1.949,2.764 28.037,40.061 28.037,40.061 H 52.072 L 24.034,0 52.072,-40.051 H 28.037 Z" />
      </g>
      <g
         style="fill:#f39910;fill-opacity:1"
         transform="matrix(0.2176059,0,0,-0.2176059,109.21835,139.14605)"
         id="g96-8">
        <path
           inkscape:connector-curvature="0"
           id="path98-7"
           style="fill:#f39910;fill-opacity:1;fill-rule:nonzero;stroke:none"
           d="M 0,0 C 4.677,-0.073 11.201,6.22 11.201,11.982 H -85.346 V 116.137 H 11.17 c 0,5.761 -6.545,12.005 -11.245,12.005 h -11.284 -0.234 -54.615 -13.902 -3.697 c -6.184,0 -13.472,-6.913 -13.51,-13.542 l -0.002,-0.002 V 13.913 h 0.002 C -97.264,-0.016 -81.999,0 -83.468,0 Z" />
      </g>
      <g
         transform="matrix(0.2176059,0,0,-0.2176059,37.114501,133.39969)"
         id="g100-6">
        <path
           inkscape:connector-curvature="0"
           id="path102-8"
           style="fill:#1a171b;fill-opacity:1;fill-rule:nonzero;stroke:none"
           d="m 0,0 c -3.446,-1.782 -11.052,-3.564 -20.678,-3.564 -25.434,0 -40.882,15.923 -40.882,40.287 0,26.385 18.299,42.31 42.782,42.31 9.627,0 16.522,-2.021 19.493,-3.567 L -2.496,63.819 c -3.801,1.664 -9.031,3.092 -15.687,3.092 -16.283,0 -28.049,-10.222 -28.049,-29.475 0,-17.59 10.341,-28.879 27.929,-28.879 5.945,0 12.122,1.188 15.928,2.97 z" />
      </g>
      <g
         transform="matrix(0.2176059,0,0,-0.2176059,49.011537,126.5723)"
         id="g104-7">
        <path
           inkscape:connector-curvature="0"
           id="path106-0"
           style="fill:#1a171b;fill-opacity:1;fill-rule:nonzero;stroke:none"
           d="m 0,0 -6.297,19.728 c -1.545,4.874 -2.851,10.339 -4.041,14.975 h -0.239 c -1.186,-4.636 -2.376,-10.222 -3.801,-14.975 L -20.559,0 Z m -22.935,-11.053 -6.895,-22.7 H -44.922 L -19.253,46.35 H -0.592 L 25.433,-33.753 H 9.746 l -7.247,22.7 z" />
      </g>
      <g
         transform="matrix(0.2176059,0,0,-0.2176059,57.212668,130.45159)"
         id="g108-7">
        <path
           inkscape:connector-curvature="0"
           id="path110-1"
           style="fill:#1a171b;fill-opacity:1;fill-rule:nonzero;stroke:none"
           d="m 0,0 c 4.755,-2.732 11.886,-5.11 19.373,-5.11 9.387,0 14.617,4.397 14.617,10.933 0,6.061 -4.04,9.627 -14.261,13.312 C 6.537,23.888 -1.9,30.899 -1.9,42.429 c 0,13.071 10.932,23.056 28.284,23.056 8.676,0 15.093,-1.902 19.253,-4.041 L 42.072,49.677 c -2.851,1.546 -8.437,3.803 -15.927,3.803 -9.268,0 -13.308,-4.991 -13.308,-9.626 0,-6.179 4.635,-9.031 15.332,-13.192 13.903,-5.228 20.678,-12.239 20.678,-23.768 0,-12.836 -9.746,-24.006 -30.424,-24.006 -8.441,0 -17.233,2.374 -21.633,4.989 z" />
      </g>
      <g
         transform="matrix(0.2176059,0,0,-0.2176059,74.41139,116.48625)"
         id="g112-5">
        <path
           inkscape:connector-curvature="0"
           id="path114-2"
           style="fill:#1a171b;fill-opacity:1;fill-rule:nonzero;stroke:none"
           d="M 0,0 V -32.088 H 33.87 V 0 H 48.488 V -80.103 H 33.87 v 35.299 H 0 V -80.103 H -14.621 V 0 Z" />
      </g>
      <g
         transform="matrix(0.2176059,0,0,-0.2176059,121.386,126.18703)"
         id="g116-1">
        <path
           inkscape:connector-curvature="0"
           id="path118-3"
           style="fill:#1a171b;fill-opacity:1;fill-rule:nonzero;stroke:none"
           d="M 0,0 H -30.174 V -23.522 H 3.564 v -12 H -44.79 V 44.55 H 1.78 v -12 H -30.174 V 11.88 H 0 Z" />
      </g>
      <g
         transform="matrix(0.2176059,0,0,-0.2176059,135.21801,126.18703)"
         id="g120-8">
        <path
           inkscape:connector-curvature="0"
           id="path122-3"
           style="fill:#1a171b;fill-opacity:1;fill-rule:nonzero;stroke:none"
           d="M 0,0 H -30.175 V -23.522 H 3.564 v -12 H -44.79 V 44.55 H 1.78 v -12 H -30.175 V 11.88 H 0 Z" />
      </g>
      <g
         transform="matrix(0.2176059,0,0,-0.2176059,142.45849,124.84292)"
         id="g124-5">
        <path
           inkscape:connector-curvature="0"
           id="path126-1"
           style="fill:#1a171b;fill-opacity:1;fill-rule:nonzero;stroke:none"
           d="m 0,0 c 1.78,-0.476 4.159,-0.593 7.128,-0.593 10.929,0 17.581,5.346 17.581,14.732 0,8.91 -6.178,13.661 -16.275,13.661 C 4.394,27.8 1.545,27.443 0,27.088 Z m -14.496,37.303 c 5.228,0.952 12.476,1.665 22.336,1.665 10.691,0 18.535,-2.257 23.642,-6.536 4.751,-3.919 7.84,-10.215 7.84,-17.701 0,-7.603 -2.375,-13.899 -6.888,-18.176 -5.825,-5.821 -14.972,-8.553 -25.306,-8.553 -2.734,0 -5.228,0.118 -7.128,0.475 v -30.176 h -14.496 z" />
      </g>
      <g
         transform="matrix(0.2176059,0,0,-0.2176059,163.73161,126.18703)"
         id="g128-2">
        <path
           inkscape:connector-curvature="0"
           id="path130-5"
           style="fill:#1a171b;fill-opacity:1;fill-rule:nonzero;stroke:none"
           d="M 0,0 H -30.173 V -23.522 H 3.564 v -12 H -44.789 V 44.55 H 1.779 v -12 H -30.173 V 11.88 H 0 Z" />
      </g>
      <g
         transform="matrix(0.2176059,0,0,-0.2176059,170.97061,124.42917)"
         id="g132-3">
        <path
           inkscape:connector-curvature="0"
           id="path134-6"
           style="fill:#1a171b;fill-opacity:1;fill-rule:nonzero;stroke:none"
           d="m 0,0 h 8.675 c 9.856,0 16.036,5.227 16.036,13.188 0,8.79 -6.18,12.829 -15.682,12.829 -4.633,0 -7.603,-0.355 -9.029,-0.712 z m -14.495,35.402 c 5.468,0.952 13.662,1.664 22.099,1.664 11.523,0 19.365,-1.901 24.709,-6.415 4.395,-3.683 6.889,-9.266 6.889,-16.039 0,-10.336 -7.008,-17.344 -14.491,-20.075 v -0.358 c 5.702,-2.139 9.148,-7.723 11.167,-15.443 2.495,-9.981 4.634,-19.247 6.299,-22.336 H 27.085 c -1.186,2.376 -3.089,8.912 -5.344,18.889 -2.26,10.455 -6.058,13.781 -14.377,14.018 H 0 V -43.6 h -14.495 z" />
      </g>
      <g
         transform="matrix(0.2176059,0,0,-0.2176059,184.4662,114.11902)"
         id="g340-7">
        <path
           inkscape:connector-curvature="0"
           id="path342-8"
           style="fill:#1a171b;fill-opacity:1;fill-rule:nonzero;stroke:none"
           d="m 0,0 h 1.902 c 2.161,0 3.517,1.146 3.517,2.892 0,1.927 -1.356,2.813 -3.44,2.813 C 0.964,5.705 0.313,5.627 0,5.549 Z m -3.179,7.763 c 1.2,0.208 2.995,0.365 4.847,0.365 2.525,0 4.246,-0.418 5.417,-1.407 C 8.049,5.913 8.597,4.689 8.597,3.204 8.597,0.938 7.06,-0.599 5.419,-1.199 v -0.078 c 1.25,-0.469 2.006,-1.694 2.449,-3.386 0.546,-2.189 1.015,-4.22 1.38,-4.898 H 5.939 C 5.68,-9.04 5.262,-7.607 4.767,-5.418 4.272,-3.126 3.438,-2.396 1.614,-2.345 H 0 v -7.216 h -3.179 z" />
      </g>
      <g
         transform="matrix(0.2176059,0,0,-0.2176059,184.95751,111.64397)"
         id="g344-2">
        <path
           inkscape:connector-curvature="0"
           id="path346-4"
           style="fill:#1a171b;fill-opacity:1;fill-rule:nonzero;stroke:none"
           d="m 0,0 c -6.771,0 -12.279,-5.509 -12.279,-12.279 0,-6.771 5.508,-12.279 12.279,-12.279 6.771,0 12.279,5.508 12.279,12.279 C 12.279,-5.509 6.771,0 0,0 m 0,-26.231 c -1.883,0 -3.711,0.369 -5.432,1.096 -1.661,0.703 -3.153,1.709 -4.434,2.99 -1.28,1.282 -2.287,2.773 -2.989,4.435 -0.728,1.72 -1.097,3.548 -1.097,5.431 0,1.883 0.369,3.71 1.097,5.431 0.702,1.661 1.709,3.153 2.989,4.435 1.281,1.28 2.773,2.286 4.434,2.99 1.721,0.727 3.549,1.096 5.432,1.096 1.882,0 3.71,-0.369 5.431,-1.096 1.662,-0.704 3.153,-1.71 4.434,-2.99 1.281,-1.282 2.288,-2.774 2.99,-4.435 0.727,-1.721 1.097,-3.548 1.097,-5.431 0,-1.883 -0.37,-3.711 -1.097,-5.431 -0.702,-1.662 -1.709,-3.153 -2.99,-4.435 -1.281,-1.281 -2.772,-2.287 -4.434,-2.99 C 3.71,-25.862 1.882,-26.231 0,-26.231" />
      </g>
    </g>
  </g>
</svg>
