<?xml version="1.0" encoding="UTF-8" standalone="no"?>
<!-- Created with Inkscape (http://www.inkscape.org/) -->

<svg xmlns:dc="http://purl.org/dc/elements/1.1/" xmlns:cc="http://creativecommons.org/ns#" xmlns:rdf="http://www.w3.org/1999/02/22-rdf-syntax-ns#" xmlns:svg="http://www.w3.org/2000/svg" xmlns="http://www.w3.org/2000/svg" xmlns:sodipodi="http://sodipodi.sourceforge.net/DTD/sodipodi-0.dtd" xmlns:inkscape="http://www.inkscape.org/namespaces/inkscape" width="467.52893" height="180" id="svg2" version="1.1" inkscape:version="0.48.5 r10040" sodipodi:docname="Unycop - Logo - Unycop Update.svg" inkscape:export-filename="/var/www/html/Quico/logo - Unycop - Mobile.png" inkscape:export-xdpi="90" inkscape:export-ydpi="90">
    <defs id="defs4">
        <filter id="filter5060" inkscape:label="Drop Shadow" color-interpolation-filters="sRGB">
            <feFlood id="feFlood5062" result="flood" flood-color="rgb(0,0,0)" flood-opacity="0.5" />
            <feComposite id="feComposite5064" result="composite1" operator="in" in2="SourceGraphic" in="flood" />
            <feGaussianBlur id="feGaussianBlur5066" result="blur" stdDeviation="2" />
            <feOffset id="feOffset5068" result="offset" dy="3" dx="3" />
            <feComposite id="feComposite5070" result="composite2" operator="over" in2="offset" in="SourceGraphic" />
        </filter>
        <filter color-interpolation-filters="sRGB" id="filter4173" inkscape:label="Drop Shadow">
            <feFlood id="feFlood4175" result="flood" flood-color="rgb(0,0,0)" flood-opacity="0.5" />
            <feComposite id="feComposite4177" result="composite1" operator="in" in2="SourceGraphic" in="flood" />
            <feGaussianBlur id="feGaussianBlur4179" result="blur" stdDeviation="2" />
            <feOffset id="feOffset4181" result="offset" dy="3" dx="3" />
            <feComposite id="feComposite4183" result="composite2" operator="over" in2="offset" in="SourceGraphic" />
        </filter>
    </defs>
    <sodipodi:namedview id="base" pagecolor="#ffffff" bordercolor="#666666" borderopacity="1.0" inkscape:pageopacity="0.0" inkscape:pageshadow="2" inkscape:zoom="2.4939633" inkscape:cx="233.76447" inkscape:cy="90" inkscape:document-units="px" inkscape:current-layer="layer1" showgrid="false" fit-margin-top="0" fit-margin-left="0" fit-margin-right="0" fit-margin-bottom="0" inkscape:window-width="1680" inkscape:window-height="953" inkscape:window-x="0" inkscape:window-y="27" inkscape:window-maximized="1" />
    <metadata id="metadata7">
        <rdf:RDF>
            <cc:Work rdf:about="">
                <dc:format>image/svg+xml</dc:format>
                <dc:type rdf:resource="http://purl.org/dc/dcmitype/StillImage" />
                <dc:title></dc:title>
            </cc:Work>
        </rdf:RDF>
    </metadata>
    <g inkscape:label="Capa 1" inkscape:groupmode="layer" id="layer1" transform="translate(-143.37839,-422.36218)">
        <text xml:space="preserve" style="font-size:50.13165664999999649px;font-style:normal;font-variant:normal;font-weight:normal;font-stretch:normal;text-align:start;line-height:125%;letter-spacing:0px;word-spacing:0px;writing-mode:lr-tb;text-anchor:start;fill:#f58c29;fill-opacity:1;stroke:none;filter:url(#filter4173);font-family:Sans;-inkscape-font-specification:Sans" x="120.01922" y="42.496662" id="text2993" sodipodi:linespacing="125%" transform="matrix(1.4980198,0,0,1.3769664,112.50484,423.21377)"><tspan sodipodi:role="line" id="tspan2995" x="120.01922" y="42.496662">Unycop</tspan></text>
        <g id="g4633" transform="matrix(0.12864702,-0.12890011,0.12864702,0.12890011,69.206786,513.5143)" style="opacity:0.50000000000000000;fill:#f58c29;fill-opacity:1">
            <g transform="translate(0,227.63782)" id="layer1-2" inkscape:label="3" style="fill:#f58c29;fill-opacity:1" />
            <g inkscape:label="4" id="layer4" style="fill:#f58c29;fill-opacity:1" />
            <g inkscape:label="5" id="layer5" style="fill:#f58c29;fill-opacity:1" />
            <g inkscape:label="2" id="layer2" style="fill:#f58c29;fill-opacity:1">
                <g id="g5729" style="fill:#f58c29;fill-opacity:1">
                    <g transform="translate(0,227.63782)" id="g4441" style="fill:#f58c29;fill-opacity:1">
                        <g transform="translate(0,480.58977)" id="g4305" style="fill:#f58c29;fill-opacity:1">
                            <path sodipodi:type="arc" style="fill:#f58c29;fill-opacity:1;fill-rule:nonzero;stroke:none" id="path2989-5-9" sodipodi:cx="416.08878" sodipodi:cy="341.74756" sodipodi:rx="18.86269" sodipodi:ry="18.86269" d="m 434.95147,341.74756 c 0,10.41757 -8.44512,18.86269 -18.86269,18.86269 -10.41758,0 -18.86269,-8.44512 -18.86269,-18.86269 0,-10.41758 8.44511,-18.86269 18.86269,-18.86269 10.41757,0 18.86269,8.44511 18.86269,18.86269 z" transform="matrix(0,0.84823533,-0.84823533,0,621.9691,-425.96259)" />
                            <path sodipodi:type="arc" style="fill:#f58c29;fill-opacity:1;fill-rule:nonzero;stroke:none" id="path2987-9-8" sodipodi:cx="330.09708" sodipodi:cy="330.09708" sodipodi:rx="28.294037" sodipodi:ry="28.294037" d="m 358.39111,330.09708 c 0,15.62636 -12.66767,28.29403 -28.29403,28.29403 -15.62637,0 -28.29404,-12.66767 -28.29404,-28.29403 0,-15.62637 12.66767,-28.29404 28.29404,-28.29404 15.62636,0 28.29403,12.66767 28.29403,28.29404 z" transform="matrix(0,0.84823527,-0.84823527,0,612.08673,-303.80501)" />
                            <path sodipodi:type="arc" style="fill:#f58c29;fill-opacity:1;fill-rule:nonzero;stroke:none" id="path2987-7-9" sodipodi:cx="330.09708" sodipodi:cy="330.09708" sodipodi:rx="28.294037" sodipodi:ry="28.294037" d="m 358.39111,330.09708 c 0,15.62636 -12.66767,28.29403 -28.29403,28.29403 -15.62637,0 -28.29404,-12.66767 -28.29404,-28.29403 0,-15.62637 12.66767,-28.29404 28.29404,-28.29404 15.62636,0 28.29403,12.66767 28.29403,28.29404 z" transform="matrix(0,0.84823527,-0.84823527,0,612.08673,-402.23774)" />
                            <path sodipodi:type="arc" style="fill:#f58c29;fill-opacity:1;fill-rule:nonzero;stroke:none" id="path2987-78-8" sodipodi:cx="330.09708" sodipodi:cy="330.09708" sodipodi:rx="28.294037" sodipodi:ry="28.294037" d="m 358.39111,330.09708 c 0,15.62636 -12.66767,28.29403 -28.29403,28.29403 -15.62637,0 -28.29404,-12.66767 -28.29404,-28.29403 0,-15.62637 12.66767,-28.29404 28.29404,-28.29404 15.62636,0 28.29403,12.66767 28.29403,28.29404 z" transform="matrix(0,0.84823527,-0.84823527,0,612.67569,-248.65448)" />
                            <path sodipodi:type="arc" style="fill:#f58c29;fill-opacity:1;fill-rule:nonzero;stroke:none" id="path2987-3-7" sodipodi:cx="330.09708" sodipodi:cy="330.09708" sodipodi:rx="28.294037" sodipodi:ry="28.294037" d="m 358.39111,330.09708 c 0,15.62636 -12.66767,28.29403 -28.29403,28.29403 -15.62637,0 -28.29404,-12.66767 -28.29404,-28.29403 0,-15.62637 12.66767,-28.29404 28.29404,-28.29404 15.62636,0 28.29403,12.66767 28.29403,28.29404 z" transform="matrix(0,0.84823527,-0.84823527,0,612.08673,-458.2762)" />
                            <path sodipodi:type="arc" style="fill:#f58c29;fill-opacity:1;fill-rule:nonzero;stroke:none" id="path2987-786-8" sodipodi:cx="330.09708" sodipodi:cy="330.09708" sodipodi:rx="28.294037" sodipodi:ry="28.294037" d="m 358.39111,330.09708 c 0,15.62636 -12.66767,28.29403 -28.29403,28.29403 -15.62637,0 -28.29404,-12.66767 -28.29404,-28.29403 0,-15.62637 12.66767,-28.29404 28.29404,-28.29404 15.62636,0 28.29403,12.66767 28.29403,28.29404 z" transform="matrix(0,0.84823527,-0.84823527,0,666.9147,-458.2762)" />
                            <path sodipodi:type="arc" style="fill:#f58c29;fill-opacity:1;fill-rule:nonzero;stroke:none" id="path2987-0-92" sodipodi:cx="330.09708" sodipodi:cy="330.09708" sodipodi:rx="28.294037" sodipodi:ry="28.294037" d="m 358.39111,330.09708 c 0,15.62636 -12.66767,28.29403 -28.29403,28.29403 -15.62637,0 -28.29404,-12.66767 -28.29404,-28.29403 0,-15.62637 12.66767,-28.29404 28.29404,-28.29404 15.62636,0 28.29403,12.66767 28.29403,28.29404 z" transform="matrix(0,0.84823527,-0.84823527,0,723.26715,-458.2762)" />
                            <path sodipodi:type="arc" style="fill:#f58c29;fill-opacity:1;fill-rule:nonzero;stroke:none" id="path2989-9-3" sodipodi:cx="416.08878" sodipodi:cy="341.74756" sodipodi:rx="18.86269" sodipodi:ry="18.86269" d="m 434.95147,341.74756 c 0,10.41757 -8.44512,18.86269 -18.86269,18.86269 -10.41758,0 -18.86269,-8.44512 -18.86269,-18.86269 0,-10.41758 8.44511,-18.86269 18.86269,-18.86269 10.41757,0 18.86269,8.44511 18.86269,18.86269 z" transform="matrix(0,0.84823533,-0.84823533,0,780.73973,-531.21742)" />
                            <path sodipodi:type="arc" style="fill:#f58c29;fill-opacity:1;fill-rule:nonzero;stroke:none" id="path2987-786-4-8" sodipodi:cx="330.09708" sodipodi:cy="330.09708" sodipodi:rx="28.294037" sodipodi:ry="28.294037" d="m 358.39111,330.09708 c 0,15.62636 -12.66767,28.29403 -28.29403,28.29403 -15.62637,0 -28.29404,-12.66767 -28.29404,-28.29403 0,-15.62637 12.66767,-28.29404 28.29404,-28.29404 15.62636,0 28.29403,12.66767 28.29403,28.29404 z" transform="matrix(0,0.84823527,-0.84823527,0,666.9147,-248.65448)" />
                            <path sodipodi:type="arc" style="fill:#f58c29;fill-opacity:1;fill-rule:nonzero;stroke:none" id="path2987-0-9-0" sodipodi:cx="330.09708" sodipodi:cy="330.09708" sodipodi:rx="28.294037" sodipodi:ry="28.294037" d="m 358.39111,330.09708 c 0,15.62636 -12.66767,28.29403 -28.29403,28.29403 -15.62637,0 -28.29404,-12.66767 -28.29404,-28.29403 0,-15.62637 12.66767,-28.29404 28.29404,-28.29404 15.62636,0 28.29403,12.66767 28.29403,28.29404 z" transform="matrix(0,0.84823527,-0.84823527,0,723.98769,-248.65448)" />
                            <path sodipodi:type="arc" style="fill:#f58c29;fill-opacity:1;fill-rule:nonzero;stroke:none" id="path2989-9-5-7" sodipodi:cx="416.08878" sodipodi:cy="341.74756" sodipodi:rx="18.86269" sodipodi:ry="18.86269" d="m 434.95147,341.74756 c 0,10.41757 -8.44512,18.86269 -18.86269,18.86269 -10.41758,0 -18.86269,-8.44512 -18.86269,-18.86269 0,-10.41758 8.44511,-18.86269 18.86269,-18.86269 10.41757,0 18.86269,8.44511 18.86269,18.86269 z" transform="matrix(0,0.84823533,-0.84823533,0,781.46027,-321.5957)" />
                            <path sodipodi:type="arc" style="fill:#f58c29;fill-opacity:1;fill-rule:nonzero;stroke:none" id="path2989-5-97" sodipodi:cx="416.08878" sodipodi:cy="341.74756" sodipodi:rx="18.86269" sodipodi:ry="18.86269" d="m 434.95147,341.74756 c 0,10.41757 -8.44512,18.86269 -18.86269,18.86269 -10.41758,0 -18.86269,-8.44512 -18.86269,-18.86269 0,-10.41758 8.44511,-18.86269 18.86269,-18.86269 10.41757,0 18.86269,8.44511 18.86269,18.86269 z" transform="matrix(0,-0.84823533,0.84823533,0,662.90931,279.20274)" />
                            <path sodipodi:type="arc" style="fill:#f58c29;fill-opacity:1;fill-rule:nonzero;stroke:none" id="path2987-9-6" sodipodi:cx="330.09708" sodipodi:cy="330.09708" sodipodi:rx="28.294037" sodipodi:ry="28.294037" d="m 358.39111,330.09708 c 0,15.62636 -12.66767,28.29403 -28.29403,28.29403 -15.62637,0 -28.29404,-12.66767 -28.29404,-28.29403 0,-15.62637 12.66767,-28.29404 28.29404,-28.29404 15.62636,0 28.29403,12.66767 28.29403,28.29404 z" transform="matrix(0,-0.84823527,0.84823527,0,672.79168,157.04516)" />
                            <path sodipodi:type="arc" style="fill:#f58c29;fill-opacity:1;fill-rule:nonzero;stroke:none" id="path2987-7-0" sodipodi:cx="330.09708" sodipodi:cy="330.09708" sodipodi:rx="28.294037" sodipodi:ry="28.294037" d="m 358.39111,330.09708 c 0,15.62636 -12.66767,28.29403 -28.29403,28.29403 -15.62637,0 -28.29404,-12.66767 -28.29404,-28.29403 0,-15.62637 12.66767,-28.29404 28.29404,-28.29404 15.62636,0 28.29403,12.66767 28.29403,28.29404 z" transform="matrix(0,-0.84823527,0.84823527,0,672.79168,255.47789)" />
                            <path sodipodi:type="arc" style="fill:#f58c29;fill-opacity:1;fill-rule:nonzero;stroke:none" id="path2987-78-7" sodipodi:cx="330.09708" sodipodi:cy="330.09708" sodipodi:rx="28.294037" sodipodi:ry="28.294037" d="m 358.39111,330.09708 c 0,15.62636 -12.66767,28.29403 -28.29403,28.29403 -15.62637,0 -28.29404,-12.66767 -28.29404,-28.29403 0,-15.62637 12.66767,-28.29404 28.29404,-28.29404 15.62636,0 28.29403,12.66767 28.29403,28.29404 z" transform="matrix(0,-0.84823527,0.84823527,0,672.20272,101.89463)" />
                            <path sodipodi:type="arc" style="fill:#f58c29;fill-opacity:1;fill-rule:nonzero;stroke:none" id="path2987-3-1" sodipodi:cx="330.09708" sodipodi:cy="330.09708" sodipodi:rx="28.294037" sodipodi:ry="28.294037" d="m 358.39111,330.09708 c 0,15.62636 -12.66767,28.29403 -28.29403,28.29403 -15.62637,0 -28.29404,-12.66767 -28.29404,-28.29403 0,-15.62637 12.66767,-28.29404 28.29404,-28.29404 15.62636,0 28.29403,12.66767 28.29403,28.29404 z" transform="matrix(0,-0.84823527,0.84823527,0,672.79168,311.51635)" />
                            <path sodipodi:type="arc" style="fill:#f58c29;fill-opacity:1;fill-rule:nonzero;stroke:none" id="path2987-786-5" sodipodi:cx="330.09708" sodipodi:cy="330.09708" sodipodi:rx="28.294037" sodipodi:ry="28.294037" d="m 358.39111,330.09708 c 0,15.62636 -12.66767,28.29403 -28.29403,28.29403 -15.62637,0 -28.29404,-12.66767 -28.29404,-28.29403 0,-15.62637 12.66767,-28.29404 28.29404,-28.29404 15.62636,0 28.29403,12.66767 28.29403,28.29404 z" transform="matrix(0,-0.84823527,0.84823527,0,617.96371,311.51635)" />
                            <path sodipodi:type="arc" style="fill:#f58c29;fill-opacity:1;fill-rule:nonzero;stroke:none" id="path2987-0-0" sodipodi:cx="330.09708" sodipodi:cy="330.09708" sodipodi:rx="28.294037" sodipodi:ry="28.294037" d="m 358.39111,330.09708 c 0,15.62636 -12.66767,28.29403 -28.29403,28.29403 -15.62637,0 -28.29404,-12.66767 -28.29404,-28.29403 0,-15.62637 12.66767,-28.29404 28.29404,-28.29404 15.62636,0 28.29403,12.66767 28.29403,28.29404 z" transform="matrix(0,-0.84823527,0.84823527,0,561.61126,311.51635)" />
                            <path sodipodi:type="arc" style="fill:#f58c29;fill-opacity:1;fill-rule:nonzero;stroke:none" id="path2989-9-6" sodipodi:cx="416.08878" sodipodi:cy="341.74756" sodipodi:rx="18.86269" sodipodi:ry="18.86269" d="m 434.95147,341.74756 c 0,10.41757 -8.44512,18.86269 -18.86269,18.86269 -10.41758,0 -18.86269,-8.44512 -18.86269,-18.86269 0,-10.41758 8.44511,-18.86269 18.86269,-18.86269 10.41757,0 18.86269,8.44511 18.86269,18.86269 z" transform="matrix(0,-0.84823533,0.84823533,0,504.13868,384.45757)" />
                            <path sodipodi:type="arc" style="fill:#f58c29;fill-opacity:1;fill-rule:nonzero;stroke:none" id="path2987-786-4-1" sodipodi:cx="330.09708" sodipodi:cy="330.09708" sodipodi:rx="28.294037" sodipodi:ry="28.294037" d="m 358.39111,330.09708 c 0,15.62636 -12.66767,28.29403 -28.29403,28.29403 -15.62637,0 -28.29404,-12.66767 -28.29404,-28.29403 0,-15.62637 12.66767,-28.29404 28.29404,-28.29404 15.62636,0 28.29403,12.66767 28.29403,28.29404 z" transform="matrix(0,-0.84823527,0.84823527,0,617.96371,101.89463)" />
                            <path sodipodi:type="arc" style="fill:#f58c29;fill-opacity:1;fill-rule:nonzero;stroke:none" id="path2987-0-9-3" sodipodi:cx="330.09708" sodipodi:cy="330.09708" sodipodi:rx="28.294037" sodipodi:ry="28.294037" d="m 358.39111,330.09708 c 0,15.62636 -12.66767,28.29403 -28.29403,28.29403 -15.62637,0 -28.29404,-12.66767 -28.29404,-28.29403 0,-15.62637 12.66767,-28.29404 28.29404,-28.29404 15.62636,0 28.29403,12.66767 28.29403,28.29404 z" transform="matrix(0,-0.84823527,0.84823527,0,560.89072,101.89463)" />
                            <path sodipodi:type="arc" style="fill:#f58c29;fill-opacity:1;fill-rule:nonzero;stroke:none" id="path2989-9-5-4" sodipodi:cx="416.08878" sodipodi:cy="341.74756" sodipodi:rx="18.86269" sodipodi:ry="18.86269" d="m 434.95147,341.74756 c 0,10.41757 -8.44512,18.86269 -18.86269,18.86269 -10.41758,0 -18.86269,-8.44512 -18.86269,-18.86269 0,-10.41758 8.44511,-18.86269 18.86269,-18.86269 10.41757,0 18.86269,8.44511 18.86269,18.86269 z" transform="matrix(0,-0.84823533,0.84823533,0,503.41814,174.83585)" />
                        </g>
                        <g transform="translate(-0.01221774,0)" id="g4413" style="fill:#f58c29;fill-opacity:1">
                            <path sodipodi:type="arc" style="fill:#f58c29;fill-opacity:1;fill-rule:nonzero;stroke:none" id="path2989-5" sodipodi:cx="416.08878" sodipodi:cy="341.74756" sodipodi:rx="18.86269" sodipodi:ry="18.86269" d="m 434.95147,341.74756 c 0,10.41757 -8.44512,18.86269 -18.86269,18.86269 -10.41758,0 -18.86269,-8.44512 -18.86269,-18.86269 0,-10.41758 8.44511,-18.86269 18.86269,-18.86269 10.41757,0 18.86269,8.44511 18.86269,18.86269 z" transform="matrix(0.84823533,0,0,0.84823533,289.95419,428.3078)" />
                            <path sodipodi:type="arc" style="fill:#f58c29;fill-opacity:1;fill-rule:nonzero;stroke:none" id="path2987-9" sodipodi:cx="330.09708" sodipodi:cy="330.09708" sodipodi:rx="28.294037" sodipodi:ry="28.294037" d="m 358.39111,330.09708 c 0,15.62636 -12.66767,28.29403 -28.29403,28.29403 -15.62637,0 -28.29404,-12.66767 -28.29404,-28.29403 0,-15.62637 12.66767,-28.29404 28.29404,-28.29404 15.62636,0 28.29403,12.66767 28.29403,28.29404 z" transform="matrix(0.84823527,0,0,0.84823527,412.11177,438.19017)" />
                            <path sodipodi:type="arc" style="fill:#f58c29;fill-opacity:1;fill-rule:nonzero;stroke:none" id="path2987-7" sodipodi:cx="330.09708" sodipodi:cy="330.09708" sodipodi:rx="28.294037" sodipodi:ry="28.294037" d="m 358.39111,330.09708 c 0,15.62636 -12.66767,28.29403 -28.29403,28.29403 -15.62637,0 -28.29404,-12.66767 -28.29404,-28.29403 0,-15.62637 12.66767,-28.29404 28.29404,-28.29404 15.62636,0 28.29403,12.66767 28.29403,28.29404 z" transform="matrix(0.84823527,0,0,0.84823527,313.67904,438.19017)" />
                            <path sodipodi:type="arc" style="fill:#f58c29;fill-opacity:1;fill-rule:nonzero;stroke:none" id="path2987-78" sodipodi:cx="330.09708" sodipodi:cy="330.09708" sodipodi:rx="28.294037" sodipodi:ry="28.294037" d="m 358.39111,330.09708 c 0,15.62636 -12.66767,28.29403 -28.29403,28.29403 -15.62637,0 -28.29404,-12.66767 -28.29404,-28.29403 0,-15.62637 12.66767,-28.29404 28.29404,-28.29404 15.62636,0 28.29403,12.66767 28.29403,28.29404 z" transform="matrix(0.84823527,0,0,0.84823527,467.2623,437.60121)" />
                            <path sodipodi:type="arc" style="fill:#f58c29;fill-opacity:1;fill-rule:nonzero;stroke:none" id="path2987-3" sodipodi:cx="330.09708" sodipodi:cy="330.09708" sodipodi:rx="28.294037" sodipodi:ry="28.294037" d="m 358.39111,330.09708 c 0,15.62636 -12.66767,28.29403 -28.29403,28.29403 -15.62637,0 -28.29404,-12.66767 -28.29404,-28.29403 0,-15.62637 12.66767,-28.29404 28.29404,-28.29404 15.62636,0 28.29403,12.66767 28.29403,28.29404 z" transform="matrix(0.84823527,0,0,0.84823527,257.64058,438.19017)" />
                            <path sodipodi:type="arc" style="fill:#f58c29;fill-opacity:1;fill-rule:nonzero;stroke:none" id="path2987-786" sodipodi:cx="330.09708" sodipodi:cy="330.09708" sodipodi:rx="28.294037" sodipodi:ry="28.294037" d="m 358.39111,330.09708 c 0,15.62636 -12.66767,28.29403 -28.29403,28.29403 -15.62637,0 -28.29404,-12.66767 -28.29404,-28.29403 0,-15.62637 12.66767,-28.29404 28.29404,-28.29404 15.62636,0 28.29403,12.66767 28.29403,28.29404 z" transform="matrix(0.84823527,0,0,0.84823527,257.64058,383.3622)" />
                            <path sodipodi:type="arc" style="fill:#f58c29;fill-opacity:1;fill-rule:nonzero;stroke:none" id="path2987-0" sodipodi:cx="330.09708" sodipodi:cy="330.09708" sodipodi:rx="28.294037" sodipodi:ry="28.294037" d="m 358.39111,330.09708 c 0,15.62636 -12.66767,28.29403 -28.29403,28.29403 -15.62637,0 -28.29404,-12.66767 -28.29404,-28.29403 0,-15.62637 12.66767,-28.29404 28.29404,-28.29404 15.62636,0 28.29403,12.66767 28.29403,28.29404 z" transform="matrix(0.84823527,0,0,0.84823527,257.64058,327.00975)" />
                            <path sodipodi:type="arc" style="fill:#f58c29;fill-opacity:1;fill-rule:nonzero;stroke:none" id="path2987-8" sodipodi:cx="330.09708" sodipodi:cy="330.09708" sodipodi:rx="28.294037" sodipodi:ry="28.294037" d="m 358.39111,330.09708 c 0,15.62636 -12.66767,28.29403 -28.29403,28.29403 -15.62637,0 -28.29404,-12.66767 -28.29404,-28.29403 0,-15.62637 12.66767,-28.29404 28.29404,-28.29404 15.62636,0 28.29403,12.66767 28.29403,28.29404 z" transform="matrix(0.84823527,0,0,0.84823527,257.64058,232.59154)" />
                            <path sodipodi:type="arc" style="fill:#f58c29;fill-opacity:1;fill-rule:nonzero;stroke:none" id="path2989-9" sodipodi:cx="416.08878" sodipodi:cy="341.74756" sodipodi:rx="18.86269" sodipodi:ry="18.86269" d="m 434.95147,341.74756 c 0,10.41757 -8.44512,18.86269 -18.86269,18.86269 -10.41758,0 -18.86269,-8.44512 -18.86269,-18.86269 0,-10.41758 8.44511,-18.86269 18.86269,-18.86269 10.41757,0 18.86269,8.44511 18.86269,18.86269 z" transform="matrix(0.84823533,0,0,0.84823533,184.69936,269.53717)" />
                            <path sodipodi:type="arc" style="fill:#f58c29;fill-opacity:1;fill-rule:nonzero;stroke:none" id="path2987-786-4" sodipodi:cx="330.09708" sodipodi:cy="330.09708" sodipodi:rx="28.294037" sodipodi:ry="28.294037" d="m 358.39111,330.09708 c 0,15.62636 -12.66767,28.29403 -28.29403,28.29403 -15.62637,0 -28.29404,-12.66767 -28.29404,-28.29403 0,-15.62637 12.66767,-28.29404 28.29404,-28.29404 15.62636,0 28.29403,12.66767 28.29403,28.29404 z" transform="matrix(0.84823527,0,0,0.84823527,467.2623,383.3622)" />
                            <path sodipodi:type="arc" style="fill:#f58c29;fill-opacity:1;fill-rule:nonzero;stroke:none" id="path2987-0-9" sodipodi:cx="330.09708" sodipodi:cy="330.09708" sodipodi:rx="28.294037" sodipodi:ry="28.294037" d="m 358.39111,330.09708 c 0,15.62636 -12.66767,28.29403 -28.29403,28.29403 -15.62637,0 -28.29404,-12.66767 -28.29404,-28.29403 0,-15.62637 12.66767,-28.29404 28.29404,-28.29404 15.62636,0 28.29403,12.66767 28.29403,28.29404 z" transform="matrix(0.84823527,0,0,0.84823527,467.2623,326.28921)" />
                            <path sodipodi:type="arc" style="fill:#f58c29;fill-opacity:1;fill-rule:nonzero;stroke:none" id="path2987-8-7" sodipodi:cx="330.09708" sodipodi:cy="330.09708" sodipodi:rx="28.294037" sodipodi:ry="28.294037" d="m 358.39111,330.09708 c 0,15.62636 -12.66767,28.29403 -28.29403,28.29403 -15.62637,0 -28.29404,-12.66767 -28.29404,-28.29403 0,-15.62637 12.66767,-28.29404 28.29404,-28.29404 15.62636,0 28.29403,12.66767 28.29403,28.29404 z" transform="matrix(0.84823527,0,0,0.84823527,467.2623,232.59154)" />
                            <path sodipodi:type="arc" style="fill:#f58c29;fill-opacity:1;fill-rule:nonzero;stroke:none" id="path2989-9-5" sodipodi:cx="416.08878" sodipodi:cy="341.74756" sodipodi:rx="18.86269" sodipodi:ry="18.86269" d="m 434.95147,341.74756 c 0,10.41757 -8.44512,18.86269 -18.86269,18.86269 -10.41758,0 -18.86269,-8.44512 -18.86269,-18.86269 0,-10.41758 8.44511,-18.86269 18.86269,-18.86269 10.41757,0 18.86269,8.44511 18.86269,18.86269 z" transform="matrix(0.84823533,0,0,0.84823533,394.32108,268.81663)" />
                            <path sodipodi:type="arc" style="fill:#f58c29;fill-opacity:1;fill-rule:nonzero;stroke:none" id="path2989-5-4" sodipodi:cx="416.08878" sodipodi:cy="341.74756" sodipodi:rx="18.86269" sodipodi:ry="18.86269" d="m 434.95147,341.74756 c 0,10.41757 -8.44512,18.86269 -18.86269,18.86269 -10.41758,0 -18.86269,-8.44512 -18.86269,-18.86269 0,-10.41758 8.44511,-18.86269 18.86269,-18.86269 10.41757,0 18.86269,8.44511 18.86269,18.86269 z" transform="matrix(0.84823533,0,0,-0.84823533,289.95419,386.11189)" />
                            <path sodipodi:type="arc" style="fill:#f58c29;fill-opacity:1;fill-rule:nonzero;stroke:none" id="path2987-9-2" sodipodi:cx="330.09708" sodipodi:cy="330.09708" sodipodi:rx="28.294037" sodipodi:ry="28.294037" d="m 358.39111,330.09708 c 0,15.62636 -12.66767,28.29403 -28.29403,28.29403 -15.62637,0 -28.29404,-12.66767 -28.29404,-28.29403 0,-15.62637 12.66767,-28.29404 28.29404,-28.29404 15.62636,0 28.29403,12.66767 28.29403,28.29404 z" transform="matrix(0.84823527,0,0,-0.84823527,412.11177,376.22952)" />
                            <path sodipodi:type="arc" style="fill:#f58c29;fill-opacity:1;fill-rule:nonzero;stroke:none" id="path2987-7-1" sodipodi:cx="330.09708" sodipodi:cy="330.09708" sodipodi:rx="28.294037" sodipodi:ry="28.294037" d="m 358.39111,330.09708 c 0,15.62636 -12.66767,28.29403 -28.29403,28.29403 -15.62637,0 -28.29404,-12.66767 -28.29404,-28.29403 0,-15.62637 12.66767,-28.29404 28.29404,-28.29404 15.62636,0 28.29403,12.66767 28.29403,28.29404 z" transform="matrix(0.84823527,0,0,-0.84823527,313.67904,376.22952)" />
                            <path sodipodi:type="arc" style="fill:#f58c29;fill-opacity:1;fill-rule:nonzero;stroke:none" id="path2987-78-4" sodipodi:cx="330.09708" sodipodi:cy="330.09708" sodipodi:rx="28.294037" sodipodi:ry="28.294037" d="m 358.39111,330.09708 c 0,15.62636 -12.66767,28.29403 -28.29403,28.29403 -15.62637,0 -28.29404,-12.66767 -28.29404,-28.29403 0,-15.62637 12.66767,-28.29404 28.29404,-28.29404 15.62636,0 28.29403,12.66767 28.29403,28.29404 z" transform="matrix(0.84823527,0,0,-0.84823527,467.2623,376.81848)" />
                            <path sodipodi:type="arc" style="fill:#f58c29;fill-opacity:1;fill-rule:nonzero;stroke:none" id="path2987-3-71" sodipodi:cx="330.09708" sodipodi:cy="330.09708" sodipodi:rx="28.294037" sodipodi:ry="28.294037" d="m 358.39111,330.09708 c 0,15.62636 -12.66767,28.29403 -28.29403,28.29403 -15.62637,0 -28.29404,-12.66767 -28.29404,-28.29403 0,-15.62637 12.66767,-28.29404 28.29404,-28.29404 15.62636,0 28.29403,12.66767 28.29403,28.29404 z" transform="matrix(0.84823527,0,0,-0.84823527,257.64058,376.22952)" />
                            <path sodipodi:type="arc" style="fill:#f58c29;fill-opacity:1;fill-rule:nonzero;stroke:none" id="path2987-786-7" sodipodi:cx="330.09708" sodipodi:cy="330.09708" sodipodi:rx="28.294037" sodipodi:ry="28.294037" d="m 358.39111,330.09708 c 0,15.62636 -12.66767,28.29403 -28.29403,28.29403 -15.62637,0 -28.29404,-12.66767 -28.29404,-28.29403 0,-15.62637 12.66767,-28.29404 28.29404,-28.29404 15.62636,0 28.29403,12.66767 28.29403,28.29404 z" transform="matrix(0.84823527,0,0,-0.84823527,257.64058,431.05749)" />
                            <path sodipodi:type="arc" style="fill:#f58c29;fill-opacity:1;fill-rule:nonzero;stroke:none" id="path2987-0-99" sodipodi:cx="330.09708" sodipodi:cy="330.09708" sodipodi:rx="28.294037" sodipodi:ry="28.294037" d="m 358.39111,330.09708 c 0,15.62636 -12.66767,28.29403 -28.29403,28.29403 -15.62637,0 -28.29404,-12.66767 -28.29404,-28.29403 0,-15.62637 12.66767,-28.29404 28.29404,-28.29404 15.62636,0 28.29403,12.66767 28.29403,28.29404 z" transform="matrix(0.84823527,0,0,-0.84823527,257.64058,487.40994)" />
                            <path sodipodi:type="arc" style="fill:#f58c29;fill-opacity:1;fill-rule:nonzero;stroke:none" id="path2987-8-70" sodipodi:cx="330.09708" sodipodi:cy="330.09708" sodipodi:rx="28.294037" sodipodi:ry="28.294037" d="m 358.39111,330.09708 c 0,15.62636 -12.66767,28.29403 -28.29403,28.29403 -15.62637,0 -28.29404,-12.66767 -28.29404,-28.29403 0,-15.62637 12.66767,-28.29404 28.29404,-28.29404 15.62636,0 28.29403,12.66767 28.29403,28.29404 z" transform="matrix(0.84823527,0,0,-0.84823527,257.64058,581.82815)" />
                            <path sodipodi:type="arc" style="fill:#f58c29;fill-opacity:1;fill-rule:nonzero;stroke:none" id="path2989-9-9" sodipodi:cx="416.08878" sodipodi:cy="341.74756" sodipodi:rx="18.86269" sodipodi:ry="18.86269" d="m 434.95147,341.74756 c 0,10.41757 -8.44512,18.86269 -18.86269,18.86269 -10.41758,0 -18.86269,-8.44512 -18.86269,-18.86269 0,-10.41758 8.44511,-18.86269 18.86269,-18.86269 10.41757,0 18.86269,8.44511 18.86269,18.86269 z" transform="matrix(0.84823533,0,0,-0.84823533,184.69936,544.88252)" />
                            <path sodipodi:type="arc" style="fill:#f58c29;fill-opacity:1;fill-rule:nonzero;stroke:none" id="path2987-786-4-87" sodipodi:cx="330.09708" sodipodi:cy="330.09708" sodipodi:rx="28.294037" sodipodi:ry="28.294037" d="m 358.39111,330.09708 c 0,15.62636 -12.66767,28.29403 -28.29403,28.29403 -15.62637,0 -28.29404,-12.66767 -28.29404,-28.29403 0,-15.62637 12.66767,-28.29404 28.29404,-28.29404 15.62636,0 28.29403,12.66767 28.29403,28.29404 z" transform="matrix(0.84823527,0,0,-0.84823527,467.2623,431.05749)" />
                            <path sodipodi:type="arc" style="fill:#f58c29;fill-opacity:1;fill-rule:nonzero;stroke:none" id="path2987-0-9-5" sodipodi:cx="330.09708" sodipodi:cy="330.09708" sodipodi:rx="28.294037" sodipodi:ry="28.294037" d="m 358.39111,330.09708 c 0,15.62636 -12.66767,28.29403 -28.29403,28.29403 -15.62637,0 -28.29404,-12.66767 -28.29404,-28.29403 0,-15.62637 12.66767,-28.29404 28.29404,-28.29404 15.62636,0 28.29403,12.66767 28.29403,28.29404 z" transform="matrix(0.84823527,0,0,-0.84823527,467.2623,488.13048)" />
                            <path sodipodi:type="arc" style="fill:#f58c29;fill-opacity:1;fill-rule:nonzero;stroke:none" id="path2987-8-7-9" sodipodi:cx="330.09708" sodipodi:cy="330.09708" sodipodi:rx="28.294037" sodipodi:ry="28.294037" d="m 358.39111,330.09708 c 0,15.62636 -12.66767,28.29403 -28.29403,28.29403 -15.62637,0 -28.29404,-12.66767 -28.29404,-28.29403 0,-15.62637 12.66767,-28.29404 28.29404,-28.29404 15.62636,0 28.29403,12.66767 28.29403,28.29404 z" transform="matrix(0.84823527,0,0,-0.84823527,467.2623,581.82815)" />
                            <path sodipodi:type="arc" style="fill:#f58c29;fill-opacity:1;fill-rule:nonzero;stroke:none" id="path2989-9-5-49" sodipodi:cx="416.08878" sodipodi:cy="341.74756" sodipodi:rx="18.86269" sodipodi:ry="18.86269" d="m 434.95147,341.74756 c 0,10.41757 -8.44512,18.86269 -18.86269,18.86269 -10.41758,0 -18.86269,-8.44512 -18.86269,-18.86269 0,-10.41758 8.44511,-18.86269 18.86269,-18.86269 10.41757,0 18.86269,8.44511 18.86269,18.86269 z" transform="matrix(0.84823533,0,0,-0.84823533,394.32108,545.60306)" />
                        </g>
                    </g>
                    <path sodipodi:type="arc" style="opacity:0.59999999999999998;fill:#f58c29;fill-opacity:1;fill-rule:nonzero;stroke:none" id="path2987-6-9-0" sodipodi:cx="330.09708" sodipodi:cy="330.09708" sodipodi:rx="28.294037" sodipodi:ry="28.294037" d="m 358.39111,330.09708 c 0,15.62636 -12.66767,28.29403 -28.29403,28.29403 -15.62637,0 -28.29404,-12.66767 -28.29404,-28.29403 0,-15.62637 12.66767,-28.29404 28.29404,-28.29404 15.62636,0 28.29403,12.66767 28.29403,28.29404 z" transform="matrix(0.84823527,0,0,0.84823527,211.50002,506.00002)" />
                    <path sodipodi:type="arc" style="opacity:0.59999999999999998;fill:#f58c29;fill-opacity:1;fill-rule:nonzero;stroke:none" id="path2989-4-8-9" sodipodi:cx="416.08878" sodipodi:cy="341.74756" sodipodi:rx="18.86269" sodipodi:ry="18.86269" d="m 434.95147,341.74756 c 0,10.41757 -8.44512,18.86269 -18.86269,18.86269 -10.41758,0 -18.86269,-8.44512 -18.86269,-18.86269 0,-10.41758 8.44511,-18.86269 18.86269,-18.86269 10.41757,0 18.86269,8.44511 18.86269,18.86269 z" transform="matrix(0.84823533,0,0,0.84823533,91.058801,496.11765)" />
                    <path sodipodi:type="arc" style="opacity:0.59999999999999998;fill:#f58c29;fill-opacity:1;fill-rule:nonzero;stroke:none" id="path2989-4-8-9-2" sodipodi:cx="416.08878" sodipodi:cy="341.74756" sodipodi:rx="18.86269" sodipodi:ry="18.86269" d="m 434.95147,341.74756 c 0,10.41757 -8.44512,18.86269 -18.86269,18.86269 -10.41758,0 -18.86269,-8.44512 -18.86269,-18.86269 0,-10.41758 8.44511,-18.86269 18.86269,-18.86269 10.41757,0 18.86269,8.44511 18.86269,18.86269 z" transform="matrix(0.84823533,0,0,0.84823533,34.122013,496.11765)" />
                    <path sodipodi:type="arc" style="opacity:0.59999999999999998;fill:#f58c29;fill-opacity:1;fill-rule:nonzero;stroke:none" id="path2989-4-8-9-2-2" sodipodi:cx="416.08878" sodipodi:cy="341.74756" sodipodi:rx="18.86269" sodipodi:ry="18.86269" d="m 434.95147,341.74756 c 0,10.41757 -8.44512,18.86269 -18.86269,18.86269 -10.41758,0 -18.86269,-8.44512 -18.86269,-18.86269 0,-10.41758 8.44511,-18.86269 18.86269,-18.86269 10.41757,0 18.86269,8.44511 18.86269,18.86269 z" transform="matrix(0.84823533,0,0,0.84823533,138.0588,544.82763)" />
                    <path sodipodi:type="arc" style="opacity:0.59999999999999998;fill:#f58c29;fill-opacity:1;fill-rule:nonzero;stroke:none" id="path2989-4-8-9-2-5" sodipodi:cx="416.08878" sodipodi:cy="341.74756" sodipodi:rx="18.86269" sodipodi:ry="18.86269" d="m 434.95147,341.74756 c 0,10.41757 -8.44512,18.86269 -18.86269,18.86269 -10.41758,0 -18.86269,-8.44512 -18.86269,-18.86269 0,-10.41758 8.44511,-18.86269 18.86269,-18.86269 10.41757,0 18.86269,8.44511 18.86269,18.86269 z" transform="matrix(0.84823533,0,0,0.84823533,138.0588,600.59382)" />
                    <path sodipodi:type="arc" style="opacity:0.59999999999999998;fill:#f58c29;fill-opacity:1;fill-rule:nonzero;stroke:none" id="path2989-4-8-9-2-7" sodipodi:cx="416.08878" sodipodi:cy="341.74756" sodipodi:rx="18.86269" sodipodi:ry="18.86269" d="m 434.95147,341.74756 c 0,10.41757 -8.44512,18.86269 -18.86269,18.86269 -10.41758,0 -18.86269,-8.44512 -18.86269,-18.86269 0,-10.41758 8.44511,-18.86269 18.86269,-18.86269 10.41757,0 18.86269,8.44511 18.86269,18.86269 z" transform="matrix(0.84823533,0,0,0.84823533,138.0588,656.12348)" />
                    <path sodipodi:type="arc" style="opacity:0.59999999999999998;fill:#f58c29;fill-opacity:1;fill-rule:nonzero;stroke:none" id="path2989-4-8-9-2-9" sodipodi:cx="416.08878" sodipodi:cy="341.74756" sodipodi:rx="18.86269" sodipodi:ry="18.86269" d="m 434.95147,341.74756 c 0,10.41757 -8.44512,18.86269 -18.86269,18.86269 -10.41758,0 -18.86269,-8.44512 -18.86269,-18.86269 0,-10.41758 8.44511,-18.86269 18.86269,-18.86269 10.41757,0 18.86269,8.44511 18.86269,18.86269 z" transform="matrix(0.84823533,0,0,0.84823533,138.0588,710.3238)" />
                    <path sodipodi:type="arc" style="opacity:0.59999999999999998;fill:#f58c29;fill-opacity:1;fill-rule:nonzero;stroke:none" id="path2989-4-8-9-2-3" sodipodi:cx="416.08878" sodipodi:cy="341.74756" sodipodi:rx="18.86269" sodipodi:ry="18.86269" d="m 434.95147,341.74756 c 0,10.41757 -8.44512,18.86269 -18.86269,18.86269 -10.41758,0 -18.86269,-8.44512 -18.86269,-18.86269 0,-10.41758 8.44511,-18.86269 18.86269,-18.86269 10.41757,0 18.86269,8.44511 18.86269,18.86269 z" transform="matrix(0.84823533,0,0,0.84823533,-20.407647,496.11765)" />
                    <path sodipodi:type="arc" style="opacity:0.59999999999999998;fill:#f58c29;fill-opacity:1;fill-rule:nonzero;stroke:none" id="path2987-6-9-0-1" sodipodi:cx="330.09708" sodipodi:cy="330.09708" sodipodi:rx="28.294037" sodipodi:ry="28.294037" d="m 358.39111,330.09708 c 0,15.62636 -12.66767,28.29403 -28.29403,28.29403 -15.62637,0 -28.29404,-12.66767 -28.29404,-28.29403 0,-15.62637 12.66767,-28.29404 28.29404,-28.29404 15.62636,0 28.29403,12.66767 28.29403,28.29404 z" transform="matrix(0.84823527,0,0,-0.84823527,210.18099,761.36208)" />
                    <path sodipodi:type="arc" style="opacity:0.59999999999999998;fill:#f58c29;fill-opacity:1;fill-rule:nonzero;stroke:none" id="path2989-4-8-9-0" sodipodi:cx="416.08878" sodipodi:cy="341.74756" sodipodi:rx="18.86269" sodipodi:ry="18.86269" d="m 434.95147,341.74756 c 0,10.41757 -8.44512,18.86269 -18.86269,18.86269 -10.41758,0 -18.86269,-8.44512 -18.86269,-18.86269 0,-10.41758 8.44511,-18.86269 18.86269,-18.86269 10.41757,0 18.86269,8.44511 18.86269,18.86269 z" transform="matrix(0.84823533,0,0,-0.84823533,89.739769,771.24445)" />
                    <path sodipodi:type="arc" style="opacity:0.59999999999999998;fill:#f58c29;fill-opacity:1;fill-rule:nonzero;stroke:none" id="path2989-4-8-9-2-6" sodipodi:cx="416.08878" sodipodi:cy="341.74756" sodipodi:rx="18.86269" sodipodi:ry="18.86269" d="m 434.95147,341.74756 c 0,10.41757 -8.44512,18.86269 -18.86269,18.86269 -10.41758,0 -18.86269,-8.44512 -18.86269,-18.86269 0,-10.41758 8.44511,-18.86269 18.86269,-18.86269 10.41757,0 18.86269,8.44511 18.86269,18.86269 z" transform="matrix(0.84823533,0,0,-0.84823533,32.802981,771.24445)" />
                    <path sodipodi:type="arc" style="opacity:0.59999999999999998;fill:#f58c29;fill-opacity:1;fill-rule:nonzero;stroke:none" id="path2989-4-8-9-2-2-7" sodipodi:cx="416.08878" sodipodi:cy="341.74756" sodipodi:rx="18.86269" sodipodi:ry="18.86269" d="m 434.95147,341.74756 c 0,10.41757 -8.44512,18.86269 -18.86269,18.86269 -10.41758,0 -18.86269,-8.44512 -18.86269,-18.86269 0,-10.41758 8.44511,-18.86269 18.86269,-18.86269 10.41757,0 18.86269,8.44511 18.86269,18.86269 z" transform="matrix(0.84823533,0,0,-0.84823533,136.73977,721.70604)" />
                    <path sodipodi:type="arc" style="opacity:0.59999999999999998;fill:#f58c29;fill-opacity:1;fill-rule:nonzero;stroke:none" id="path2989-4-8-9-2-5-1" sodipodi:cx="416.08878" sodipodi:cy="341.74756" sodipodi:rx="18.86269" sodipodi:ry="18.86269" d="m 434.95147,341.74756 c 0,10.41757 -8.44512,18.86269 -18.86269,18.86269 -10.41758,0 -18.86269,-8.44512 -18.86269,-18.86269 0,-10.41758 8.44511,-18.86269 18.86269,-18.86269 10.41757,0 18.86269,8.44511 18.86269,18.86269 z" transform="matrix(0.84823533,0,0,-0.84823533,136.73977,666.76828)" />
                    <path sodipodi:type="arc" style="opacity:0.59999999999999998;fill:#f58c29;fill-opacity:1;fill-rule:nonzero;stroke:none" id="path2989-4-8-9-2-7-0" sodipodi:cx="416.08878" sodipodi:cy="341.74756" sodipodi:rx="18.86269" sodipodi:ry="18.86269" d="m 434.95147,341.74756 c 0,10.41757 -8.44512,18.86269 -18.86269,18.86269 -10.41758,0 -18.86269,-8.44512 -18.86269,-18.86269 0,-10.41758 8.44511,-18.86269 18.86269,-18.86269 10.41757,0 18.86269,8.44511 18.86269,18.86269 z" transform="matrix(0.84823533,0,0,-0.84823533,136.73977,611.23862)" />
                    <path sodipodi:type="arc" style="opacity:0.59999999999999998;fill:#f58c29;fill-opacity:1;fill-rule:nonzero;stroke:none" id="path2989-4-8-9-2-9-2" sodipodi:cx="416.08878" sodipodi:cy="341.74756" sodipodi:rx="18.86269" sodipodi:ry="18.86269" d="m 434.95147,341.74756 c 0,10.41757 -8.44512,18.86269 -18.86269,18.86269 -10.41758,0 -18.86269,-8.44512 -18.86269,-18.86269 0,-10.41758 8.44511,-18.86269 18.86269,-18.86269 10.41757,0 18.86269,8.44511 18.86269,18.86269 z" transform="matrix(0.84823533,0,0,-0.84823533,136.73977,557.0383)" />
                    <path sodipodi:type="arc" style="opacity:0.59999999999999998;fill:#f58c29;fill-opacity:1;fill-rule:nonzero;stroke:none" id="path2989-4-8-9-2-3-5" sodipodi:cx="416.08878" sodipodi:cy="341.74756" sodipodi:rx="18.86269" sodipodi:ry="18.86269" d="m 434.95147,341.74756 c 0,10.41757 -8.44512,18.86269 -18.86269,18.86269 -10.41758,0 -18.86269,-8.44512 -18.86269,-18.86269 0,-10.41758 8.44511,-18.86269 18.86269,-18.86269 10.41757,0 18.86269,8.44511 18.86269,18.86269 z" transform="matrix(0.84823533,0,0,-0.84823533,-21.726679,771.24445)" />
                    <path sodipodi:type="arc" style="opacity:0.59999999999999998;fill:#f58c29;fill-opacity:1;fill-rule:nonzero;stroke:none" id="path2987-6-9-0-1-6" sodipodi:cx="330.09708" sodipodi:cy="330.09708" sodipodi:rx="28.294037" sodipodi:ry="28.294037" d="m 358.39111,330.09708 c 0,15.62636 -12.66767,28.29403 -28.29403,28.29403 -15.62637,0 -28.29404,-12.66767 -28.29404,-28.29403 0,-15.62637 12.66767,-28.29404 28.29404,-28.29404 15.62636,0 28.29403,12.66767 28.29403,28.29404 z" transform="matrix(-0.84823527,0,0,0.84823527,1075.4096,506.29939)" />
                    <path sodipodi:type="arc" style="opacity:0.59999999999999998;fill:#f58c29;fill-opacity:1;fill-rule:nonzero;stroke:none" id="path2989-4-8-9-0-8" sodipodi:cx="416.08878" sodipodi:cy="341.74756" sodipodi:rx="18.86269" sodipodi:ry="18.86269" d="m 434.95147,341.74756 c 0,10.41757 -8.44512,18.86269 -18.86269,18.86269 -10.41758,0 -18.86269,-8.44512 -18.86269,-18.86269 0,-10.41758 8.44511,-18.86269 18.86269,-18.86269 10.41757,0 18.86269,8.44511 18.86269,18.86269 z" transform="matrix(-0.84823533,0,0,0.84823533,1195.8508,496.41702)" />
                    <path sodipodi:type="arc" style="opacity:0.59999999999999998;fill:#f58c29;fill-opacity:1;fill-rule:nonzero;stroke:none" id="path2989-4-8-9-2-6-8" sodipodi:cx="416.08878" sodipodi:cy="341.74756" sodipodi:rx="18.86269" sodipodi:ry="18.86269" d="m 434.95147,341.74756 c 0,10.41757 -8.44512,18.86269 -18.86269,18.86269 -10.41758,0 -18.86269,-8.44512 -18.86269,-18.86269 0,-10.41758 8.44511,-18.86269 18.86269,-18.86269 10.41757,0 18.86269,8.44511 18.86269,18.86269 z" transform="matrix(-0.84823533,0,0,0.84823533,1252.7876,496.41702)" />
                    <path sodipodi:type="arc" style="opacity:0.59999999999999998;fill:#f58c29;fill-opacity:1;fill-rule:nonzero;stroke:none" id="path2989-4-8-9-2-2-7-3" sodipodi:cx="416.08878" sodipodi:cy="341.74756" sodipodi:rx="18.86269" sodipodi:ry="18.86269" d="m 434.95147,341.74756 c 0,10.41757 -8.44512,18.86269 -18.86269,18.86269 -10.41758,0 -18.86269,-8.44512 -18.86269,-18.86269 0,-10.41758 8.44511,-18.86269 18.86269,-18.86269 10.41757,0 18.86269,8.44511 18.86269,18.86269 z" transform="matrix(-0.84823533,0,0,0.84823533,1148.8508,545.95543)" />
                    <path sodipodi:type="arc" style="opacity:0.59999999999999998;fill:#f58c29;fill-opacity:1;fill-rule:nonzero;stroke:none" id="path2989-4-8-9-2-5-1-2" sodipodi:cx="416.08878" sodipodi:cy="341.74756" sodipodi:rx="18.86269" sodipodi:ry="18.86269" d="m 434.95147,341.74756 c 0,10.41757 -8.44512,18.86269 -18.86269,18.86269 -10.41758,0 -18.86269,-8.44512 -18.86269,-18.86269 0,-10.41758 8.44511,-18.86269 18.86269,-18.86269 10.41757,0 18.86269,8.44511 18.86269,18.86269 z" transform="matrix(-0.84823533,0,0,0.84823533,1148.8508,600.89319)" />
                    <path sodipodi:type="arc" style="opacity:0.59999999999999998;fill:#f58c29;fill-opacity:1;fill-rule:nonzero;stroke:none" id="path2989-4-8-9-2-7-0-7" sodipodi:cx="416.08878" sodipodi:cy="341.74756" sodipodi:rx="18.86269" sodipodi:ry="18.86269" d="m 434.95147,341.74756 c 0,10.41757 -8.44512,18.86269 -18.86269,18.86269 -10.41758,0 -18.86269,-8.44512 -18.86269,-18.86269 0,-10.41758 8.44511,-18.86269 18.86269,-18.86269 10.41757,0 18.86269,8.44511 18.86269,18.86269 z" transform="matrix(-0.84823533,0,0,0.84823533,1148.8508,656.42285)" />
                    <path sodipodi:type="arc" style="opacity:0.59999999999999998;fill:#f58c29;fill-opacity:1;fill-rule:nonzero;stroke:none" id="path2989-4-8-9-2-9-2-5" sodipodi:cx="416.08878" sodipodi:cy="341.74756" sodipodi:rx="18.86269" sodipodi:ry="18.86269" d="m 434.95147,341.74756 c 0,10.41757 -8.44512,18.86269 -18.86269,18.86269 -10.41758,0 -18.86269,-8.44512 -18.86269,-18.86269 0,-10.41758 8.44511,-18.86269 18.86269,-18.86269 10.41757,0 18.86269,8.44511 18.86269,18.86269 z" transform="matrix(-0.84823533,0,0,0.84823533,1148.8508,710.62317)" />
                    <path sodipodi:type="arc" style="opacity:0.59999999999999998;fill:#f58c29;fill-opacity:1;fill-rule:nonzero;stroke:none" id="path2989-4-8-9-2-3-5-5" sodipodi:cx="416.08878" sodipodi:cy="341.74756" sodipodi:rx="18.86269" sodipodi:ry="18.86269" d="m 434.95147,341.74756 c 0,10.41757 -8.44512,18.86269 -18.86269,18.86269 -10.41758,0 -18.86269,-8.44512 -18.86269,-18.86269 0,-10.41758 8.44511,-18.86269 18.86269,-18.86269 10.41757,0 18.86269,8.44511 18.86269,18.86269 z" transform="matrix(-0.84823533,0,0,0.84823533,1307.3172,496.41702)" />
                    <path sodipodi:type="arc" style="opacity:0.59999999999999998;fill:#f58c29;fill-opacity:1;fill-rule:nonzero;stroke:none" id="path2987-6-9-0-1-8" sodipodi:cx="330.09708" sodipodi:cy="330.09708" sodipodi:rx="28.294037" sodipodi:ry="28.294037" d="m 358.39111,330.09708 c 0,15.62636 -12.66767,28.29403 -28.29403,28.29403 -15.62637,0 -28.29404,-12.66767 -28.29404,-28.29403 0,-15.62637 12.66767,-28.29404 28.29404,-28.29404 15.62636,0 28.29403,12.66767 28.29403,28.29404 z" transform="matrix(-0.84823527,0,0,-0.84823527,1073.3622,762.94604)" />
                    <path sodipodi:type="arc" style="opacity:0.59999999999999998;fill:#f58c29;fill-opacity:1;fill-rule:nonzero;stroke:none" id="path2989-4-8-9-0-6" sodipodi:cx="416.08878" sodipodi:cy="341.74756" sodipodi:rx="18.86269" sodipodi:ry="18.86269" d="m 434.95147,341.74756 c 0,10.41757 -8.44512,18.86269 -18.86269,18.86269 -10.41758,0 -18.86269,-8.44512 -18.86269,-18.86269 0,-10.41758 8.44511,-18.86269 18.86269,-18.86269 10.41757,0 18.86269,8.44511 18.86269,18.86269 z" transform="matrix(-0.84823533,0,0,-0.84823533,1193.8034,772.82841)" />
                    <path sodipodi:type="arc" style="opacity:0.59999999999999998;fill:#f58c29;fill-opacity:1;fill-rule:nonzero;stroke:none" id="path2989-4-8-9-2-6-0" sodipodi:cx="416.08878" sodipodi:cy="341.74756" sodipodi:rx="18.86269" sodipodi:ry="18.86269" d="m 434.95147,341.74756 c 0,10.41757 -8.44512,18.86269 -18.86269,18.86269 -10.41758,0 -18.86269,-8.44512 -18.86269,-18.86269 0,-10.41758 8.44511,-18.86269 18.86269,-18.86269 10.41757,0 18.86269,8.44511 18.86269,18.86269 z" transform="matrix(-0.84823533,0,0,-0.84823533,1250.7402,772.82841)" />
                    <path sodipodi:type="arc" style="opacity:0.59999999999999998;fill:#f58c29;fill-opacity:1;fill-rule:nonzero;stroke:none" id="path2989-4-8-9-2-2-7-7" sodipodi:cx="416.08878" sodipodi:cy="341.74756" sodipodi:rx="18.86269" sodipodi:ry="18.86269" d="m 434.95147,341.74756 c 0,10.41757 -8.44512,18.86269 -18.86269,18.86269 -10.41758,0 -18.86269,-8.44512 -18.86269,-18.86269 0,-10.41758 8.44511,-18.86269 18.86269,-18.86269 10.41757,0 18.86269,8.44511 18.86269,18.86269 z" transform="matrix(-0.84823533,0,0,-0.84823533,1146.8034,723.29)" />
                    <path sodipodi:type="arc" style="opacity:0.59999999999999998;fill:#f58c29;fill-opacity:1;fill-rule:nonzero;stroke:none" id="path2989-4-8-9-2-5-1-5" sodipodi:cx="416.08878" sodipodi:cy="341.74756" sodipodi:rx="18.86269" sodipodi:ry="18.86269" d="m 434.95147,341.74756 c 0,10.41757 -8.44512,18.86269 -18.86269,18.86269 -10.41758,0 -18.86269,-8.44512 -18.86269,-18.86269 0,-10.41758 8.44511,-18.86269 18.86269,-18.86269 10.41757,0 18.86269,8.44511 18.86269,18.86269 z" transform="matrix(-0.84823533,0,0,-0.84823533,1146.8034,668.35224)" />
                    <path sodipodi:type="arc" style="opacity:0.59999999999999998;fill:#f58c29;fill-opacity:1;fill-rule:nonzero;stroke:none" id="path2989-4-8-9-2-7-0-3" sodipodi:cx="416.08878" sodipodi:cy="341.74756" sodipodi:rx="18.86269" sodipodi:ry="18.86269" d="m 434.95147,341.74756 c 0,10.41757 -8.44512,18.86269 -18.86269,18.86269 -10.41758,0 -18.86269,-8.44512 -18.86269,-18.86269 0,-10.41758 8.44511,-18.86269 18.86269,-18.86269 10.41757,0 18.86269,8.44511 18.86269,18.86269 z" transform="matrix(-0.84823533,0,0,-0.84823533,1146.8034,612.82258)" />
                    <path sodipodi:type="arc" style="opacity:0.59999999999999998;fill:#f58c29;fill-opacity:1;fill-rule:nonzero;stroke:none" id="path2989-4-8-9-2-9-2-9" sodipodi:cx="416.08878" sodipodi:cy="341.74756" sodipodi:rx="18.86269" sodipodi:ry="18.86269" d="m 434.95147,341.74756 c 0,10.41757 -8.44512,18.86269 -18.86269,18.86269 -10.41758,0 -18.86269,-8.44512 -18.86269,-18.86269 0,-10.41758 8.44511,-18.86269 18.86269,-18.86269 10.41757,0 18.86269,8.44511 18.86269,18.86269 z" transform="matrix(-0.84823533,0,0,-0.84823533,1146.8034,558.62226)" />
                    <path sodipodi:type="arc" style="opacity:0.59999999999999998;fill:#f58c29;fill-opacity:1;fill-rule:nonzero;stroke:none" id="path2989-4-8-9-2-3-5-1" sodipodi:cx="416.08878" sodipodi:cy="341.74756" sodipodi:rx="18.86269" sodipodi:ry="18.86269" d="m 434.95147,341.74756 c 0,10.41757 -8.44512,18.86269 -18.86269,18.86269 -10.41758,0 -18.86269,-8.44512 -18.86269,-18.86269 0,-10.41758 8.44511,-18.86269 18.86269,-18.86269 10.41757,0 18.86269,8.44511 18.86269,18.86269 z" transform="matrix(-0.84823533,0,0,-0.84823533,1305.2698,772.82841)" />
                    <g id="g5081" style="fill:#f58c29;fill-opacity:1">
                        <path transform="matrix(0.84823527,0,0,0.84823527,163.21091,554.71)" d="m 358.39111,330.09708 c 0,15.62636 -12.66767,28.29403 -28.29403,28.29403 -15.62637,0 -28.29404,-12.66767 -28.29404,-28.29403 0,-15.62637 12.66767,-28.29404 28.29404,-28.29404 15.62636,0 28.29403,12.66767 28.29403,28.29404 z" sodipodi:ry="28.294037" sodipodi:rx="28.294037" sodipodi:cy="330.09708" sodipodi:cx="330.09708" id="path2987-6-9-2-6" style="opacity:0.40000000000000002;fill:#f58c29;fill-opacity:1;fill-rule:nonzero;stroke:none" sodipodi:type="arc" />
                        <path transform="matrix(0.84823527,0,0,0.84823527,107.15,554.71)" d="m 358.39111,330.09708 c 0,15.62636 -12.66767,28.29403 -28.29403,28.29403 -15.62637,0 -28.29404,-12.66767 -28.29404,-28.29403 0,-15.62637 12.66767,-28.29404 28.29404,-28.29404 15.62636,0 28.29403,12.66767 28.29403,28.29404 z" sodipodi:ry="28.294037" sodipodi:rx="28.294037" sodipodi:cy="330.09708" sodipodi:cx="330.09708" id="path2987-6-9-2-3" style="opacity:0.40000000000000002;fill:#f58c29;fill-opacity:1;fill-rule:nonzero;stroke:none" sodipodi:type="arc" />
                        <path transform="matrix(0.84823527,0,0,0.84823527,51.879848,554.71)" d="m 358.39111,330.09708 c 0,15.62636 -12.66767,28.29403 -28.29403,28.29403 -15.62637,0 -28.29404,-12.66767 -28.29404,-28.29403 0,-15.62637 12.66767,-28.29404 28.29404,-28.29404 15.62636,0 28.29403,12.66767 28.29403,28.29404 z" sodipodi:ry="28.294037" sodipodi:rx="28.294037" sodipodi:cy="330.09708" sodipodi:cx="330.09708" id="path2987-6-9-2-9" style="opacity:0.40000000000000002;fill:#f58c29;fill-opacity:1;fill-rule:nonzero;stroke:none" sodipodi:type="arc" />
                        <path transform="matrix(0.84823527,0,0,0.84823527,163.2109,608.16329)" d="m 358.39111,330.09708 c 0,15.62636 -12.66767,28.29403 -28.29403,28.29403 -15.62637,0 -28.29404,-12.66767 -28.29404,-28.29403 0,-15.62637 12.66767,-28.29404 28.29404,-28.29404 15.62636,0 28.29403,12.66767 28.29403,28.29404 z" sodipodi:ry="28.294037" sodipodi:rx="28.294037" sodipodi:cy="330.09708" sodipodi:cx="330.09708" id="path2987-6-9-2-90" style="opacity:0.40000000000000002;fill:#f58c29;fill-opacity:1;fill-rule:nonzero;stroke:none" sodipodi:type="arc" />
                        <path transform="matrix(0.84823527,0,0,0.84823527,163.2109,663.89119)" d="m 358.39111,330.09708 c 0,15.62636 -12.66767,28.29403 -28.29403,28.29403 -15.62637,0 -28.29404,-12.66767 -28.29404,-28.29403 0,-15.62637 12.66767,-28.29404 28.29404,-28.29404 15.62636,0 28.29403,12.66767 28.29403,28.29404 z" sodipodi:ry="28.294037" sodipodi:rx="28.294037" sodipodi:cy="330.09708" sodipodi:cx="330.09708" id="path2987-6-9-2-8" style="opacity:0.40000000000000002;fill:#f58c29;fill-opacity:1;fill-rule:nonzero;stroke:none" sodipodi:type="arc" />
                        <path transform="matrix(0.84823527,0,0,0.84823527,163.2109,719.61907)" d="m 358.39111,330.09708 c 0,15.62636 -12.66767,28.29403 -28.29403,28.29403 -15.62637,0 -28.29404,-12.66767 -28.29404,-28.29403 0,-15.62637 12.66767,-28.29404 28.29404,-28.29404 15.62636,0 28.29403,12.66767 28.29403,28.29404 z" sodipodi:ry="28.294037" sodipodi:rx="28.294037" sodipodi:cy="330.09708" sodipodi:cx="330.09708" id="path2987-6-9-2-0" style="opacity:0.40000000000000002;fill:#f58c29;fill-opacity:1;fill-rule:nonzero;stroke:none" sodipodi:type="arc" />
                    </g>
                    <g transform="matrix(-1,0,0,1,1288.904,-1.1470243)" id="g5081-0" style="fill:#f58c29;fill-opacity:1">
                        <path transform="matrix(0.84823527,0,0,0.84823527,163.21091,554.71)" d="m 358.39111,330.09708 c 0,15.62636 -12.66767,28.29403 -28.29403,28.29403 -15.62637,0 -28.29404,-12.66767 -28.29404,-28.29403 0,-15.62637 12.66767,-28.29404 28.29404,-28.29404 15.62636,0 28.29403,12.66767 28.29403,28.29404 z" sodipodi:ry="28.294037" sodipodi:rx="28.294037" sodipodi:cy="330.09708" sodipodi:cx="330.09708" id="path2987-6-9-2-6-7" style="opacity:0.40000000000000002;fill:#f58c29;fill-opacity:1;fill-rule:nonzero;stroke:none" sodipodi:type="arc" />
                        <path transform="matrix(0.84823527,0,0,0.84823527,107.15,554.71)" d="m 358.39111,330.09708 c 0,15.62636 -12.66767,28.29403 -28.29403,28.29403 -15.62637,0 -28.29404,-12.66767 -28.29404,-28.29403 0,-15.62637 12.66767,-28.29404 28.29404,-28.29404 15.62636,0 28.29403,12.66767 28.29403,28.29404 z" sodipodi:ry="28.294037" sodipodi:rx="28.294037" sodipodi:cy="330.09708" sodipodi:cx="330.09708" id="path2987-6-9-2-3-2" style="opacity:0.40000000000000002;fill:#f58c29;fill-opacity:1;fill-rule:nonzero;stroke:none" sodipodi:type="arc" />
                        <path transform="matrix(0.84823527,0,0,0.84823527,51.879848,554.71)" d="m 358.39111,330.09708 c 0,15.62636 -12.66767,28.29403 -28.29403,28.29403 -15.62637,0 -28.29404,-12.66767 -28.29404,-28.29403 0,-15.62637 12.66767,-28.29404 28.29404,-28.29404 15.62636,0 28.29403,12.66767 28.29403,28.29404 z" sodipodi:ry="28.294037" sodipodi:rx="28.294037" sodipodi:cy="330.09708" sodipodi:cx="330.09708" id="path2987-6-9-2-9-7" style="opacity:0.40000000000000002;fill:#f58c29;fill-opacity:1;fill-rule:nonzero;stroke:none" sodipodi:type="arc" />
                        <path transform="matrix(0.84823527,0,0,0.84823527,163.2109,608.16329)" d="m 358.39111,330.09708 c 0,15.62636 -12.66767,28.29403 -28.29403,28.29403 -15.62637,0 -28.29404,-12.66767 -28.29404,-28.29403 0,-15.62637 12.66767,-28.29404 28.29404,-28.29404 15.62636,0 28.29403,12.66767 28.29403,28.29404 z" sodipodi:ry="28.294037" sodipodi:rx="28.294037" sodipodi:cy="330.09708" sodipodi:cx="330.09708" id="path2987-6-9-2-90-5" style="opacity:0.40000000000000002;fill:#f58c29;fill-opacity:1;fill-rule:nonzero;stroke:none" sodipodi:type="arc" />
                        <path transform="matrix(0.84823527,0,0,0.84823527,163.2109,663.89119)" d="m 358.39111,330.09708 c 0,15.62636 -12.66767,28.29403 -28.29403,28.29403 -15.62637,0 -28.29404,-12.66767 -28.29404,-28.29403 0,-15.62637 12.66767,-28.29404 28.29404,-28.29404 15.62636,0 28.29403,12.66767 28.29403,28.29404 z" sodipodi:ry="28.294037" sodipodi:rx="28.294037" sodipodi:cy="330.09708" sodipodi:cx="330.09708" id="path2987-6-9-2-8-1" style="opacity:0.40000000000000002;fill:#f58c29;fill-opacity:1;fill-rule:nonzero;stroke:none" sodipodi:type="arc" />
                        <path transform="matrix(0.84823527,0,0,0.84823527,163.2109,719.61907)" d="m 358.39111,330.09708 c 0,15.62636 -12.66767,28.29403 -28.29403,28.29403 -15.62637,0 -28.29404,-12.66767 -28.29404,-28.29403 0,-15.62637 12.66767,-28.29404 28.29404,-28.29404 15.62636,0 28.29403,12.66767 28.29403,28.29404 z" sodipodi:ry="28.294037" sodipodi:rx="28.294037" sodipodi:cy="330.09708" sodipodi:cx="330.09708" id="path2987-6-9-2-0-0" style="opacity:0.40000000000000002;fill:#f58c29;fill-opacity:1;fill-rule:nonzero;stroke:none" sodipodi:type="arc" />
                    </g>
                    <g transform="matrix(1,0,0,-1,-0.52838317,1267.4528)" id="g5081-9" style="fill:#f58c29;fill-opacity:1">
                        <path transform="matrix(0.84823527,0,0,0.84823527,163.21091,554.71)" d="m 358.39111,330.09708 c 0,15.62636 -12.66767,28.29403 -28.29403,28.29403 -15.62637,0 -28.29404,-12.66767 -28.29404,-28.29403 0,-15.62637 12.66767,-28.29404 28.29404,-28.29404 15.62636,0 28.29403,12.66767 28.29403,28.29404 z" sodipodi:ry="28.294037" sodipodi:rx="28.294037" sodipodi:cy="330.09708" sodipodi:cx="330.09708" id="path2987-6-9-2-6-0" style="opacity:0.40000000000000002;fill:#f58c29;fill-opacity:1;fill-rule:nonzero;stroke:none" sodipodi:type="arc" />
                        <path transform="matrix(0.84823527,0,0,0.84823527,107.15,554.71)" d="m 358.39111,330.09708 c 0,15.62636 -12.66767,28.29403 -28.29403,28.29403 -15.62637,0 -28.29404,-12.66767 -28.29404,-28.29403 0,-15.62637 12.66767,-28.29404 28.29404,-28.29404 15.62636,0 28.29403,12.66767 28.29403,28.29404 z" sodipodi:ry="28.294037" sodipodi:rx="28.294037" sodipodi:cy="330.09708" sodipodi:cx="330.09708" id="path2987-6-9-2-3-7" style="opacity:0.40000000000000002;fill:#f58c29;fill-opacity:1;fill-rule:nonzero;stroke:none" sodipodi:type="arc" />
                        <path transform="matrix(0.84823527,0,0,0.84823527,51.879848,554.71)" d="m 358.39111,330.09708 c 0,15.62636 -12.66767,28.29403 -28.29403,28.29403 -15.62637,0 -28.29404,-12.66767 -28.29404,-28.29403 0,-15.62637 12.66767,-28.29404 28.29404,-28.29404 15.62636,0 28.29403,12.66767 28.29403,28.29404 z" sodipodi:ry="28.294037" sodipodi:rx="28.294037" sodipodi:cy="330.09708" sodipodi:cx="330.09708" id="path2987-6-9-2-9-4" style="opacity:0.40000000000000002;fill:#f58c29;fill-opacity:1;fill-rule:nonzero;stroke:none" sodipodi:type="arc" />
                        <path transform="matrix(0.84823527,0,0,0.84823527,163.2109,608.16329)" d="m 358.39111,330.09708 c 0,15.62636 -12.66767,28.29403 -28.29403,28.29403 -15.62637,0 -28.29404,-12.66767 -28.29404,-28.29403 0,-15.62637 12.66767,-28.29404 28.29404,-28.29404 15.62636,0 28.29403,12.66767 28.29403,28.29404 z" sodipodi:ry="28.294037" sodipodi:rx="28.294037" sodipodi:cy="330.09708" sodipodi:cx="330.09708" id="path2987-6-9-2-90-8" style="opacity:0.40000000000000002;fill:#f58c29;fill-opacity:1;fill-rule:nonzero;stroke:none" sodipodi:type="arc" />
                        <path transform="matrix(0.84823527,0,0,0.84823527,163.2109,663.89119)" d="m 358.39111,330.09708 c 0,15.62636 -12.66767,28.29403 -28.29403,28.29403 -15.62637,0 -28.29404,-12.66767 -28.29404,-28.29403 0,-15.62637 12.66767,-28.29404 28.29404,-28.29404 15.62636,0 28.29403,12.66767 28.29403,28.29404 z" sodipodi:ry="28.294037" sodipodi:rx="28.294037" sodipodi:cy="330.09708" sodipodi:cx="330.09708" id="path2987-6-9-2-8-4" style="opacity:0.40000000000000002;fill:#f58c29;fill-opacity:1;fill-rule:nonzero;stroke:none" sodipodi:type="arc" />
                        <path transform="matrix(0.84823527,0,0,0.84823527,163.2109,719.61907)" d="m 358.39111,330.09708 c 0,15.62636 -12.66767,28.29403 -28.29403,28.29403 -15.62637,0 -28.29404,-12.66767 -28.29404,-28.29403 0,-15.62637 12.66767,-28.29404 28.29404,-28.29404 15.62636,0 28.29403,12.66767 28.29403,28.29404 z" sodipodi:ry="28.294037" sodipodi:rx="28.294037" sodipodi:cy="330.09708" sodipodi:cx="330.09708" id="path2987-6-9-2-0-4" style="opacity:0.40000000000000002;fill:#f58c29;fill-opacity:1;fill-rule:nonzero;stroke:none" sodipodi:type="arc" />
                    </g>
                    <g transform="matrix(-1,0,0,-1,1285.2558,1267.62)" id="g5081-9-4" style="fill:#f58c29;fill-opacity:1">
                        <path transform="matrix(0.84823527,0,0,0.84823527,163.21091,554.71)" d="m 358.39111,330.09708 c 0,15.62636 -12.66767,28.29403 -28.29403,28.29403 -15.62637,0 -28.29404,-12.66767 -28.29404,-28.29403 0,-15.62637 12.66767,-28.29404 28.29404,-28.29404 15.62636,0 28.29403,12.66767 28.29403,28.29404 z" sodipodi:ry="28.294037" sodipodi:rx="28.294037" sodipodi:cy="330.09708" sodipodi:cx="330.09708" id="path2987-6-9-2-6-0-5" style="opacity:0.40000000000000002;fill:#f58c29;fill-opacity:1;fill-rule:nonzero;stroke:none" sodipodi:type="arc" />
                        <path transform="matrix(0.84823527,0,0,0.84823527,107.15,554.71)" d="m 358.39111,330.09708 c 0,15.62636 -12.66767,28.29403 -28.29403,28.29403 -15.62637,0 -28.29404,-12.66767 -28.29404,-28.29403 0,-15.62637 12.66767,-28.29404 28.29404,-28.29404 15.62636,0 28.29403,12.66767 28.29403,28.29404 z" sodipodi:ry="28.294037" sodipodi:rx="28.294037" sodipodi:cy="330.09708" sodipodi:cx="330.09708" id="path2987-6-9-2-3-7-2" style="opacity:0.40000000000000002;fill:#f58c29;fill-opacity:1;fill-rule:nonzero;stroke:none" sodipodi:type="arc" />
                        <path transform="matrix(0.84823527,0,0,0.84823527,51.879848,554.71)" d="m 358.39111,330.09708 c 0,15.62636 -12.66767,28.29403 -28.29403,28.29403 -15.62637,0 -28.29404,-12.66767 -28.29404,-28.29403 0,-15.62637 12.66767,-28.29404 28.29404,-28.29404 15.62636,0 28.29403,12.66767 28.29403,28.29404 z" sodipodi:ry="28.294037" sodipodi:rx="28.294037" sodipodi:cy="330.09708" sodipodi:cx="330.09708" id="path2987-6-9-2-9-4-2" style="opacity:0.40000000000000002;fill:#f58c29;fill-opacity:1;fill-rule:nonzero;stroke:none" sodipodi:type="arc" />
                        <path transform="matrix(0.84823527,0,0,0.84823527,163.2109,608.16329)" d="m 358.39111,330.09708 c 0,15.62636 -12.66767,28.29403 -28.29403,28.29403 -15.62637,0 -28.29404,-12.66767 -28.29404,-28.29403 0,-15.62637 12.66767,-28.29404 28.29404,-28.29404 15.62636,0 28.29403,12.66767 28.29403,28.29404 z" sodipodi:ry="28.294037" sodipodi:rx="28.294037" sodipodi:cy="330.09708" sodipodi:cx="330.09708" id="path2987-6-9-2-90-8-0" style="opacity:0.40000000000000002;fill:#f58c29;fill-opacity:1;fill-rule:nonzero;stroke:none" sodipodi:type="arc" />
                        <path transform="matrix(0.84823527,0,0,0.84823527,163.2109,663.89119)" d="m 358.39111,330.09708 c 0,15.62636 -12.66767,28.29403 -28.29403,28.29403 -15.62637,0 -28.29404,-12.66767 -28.29404,-28.29403 0,-15.62637 12.66767,-28.29404 28.29404,-28.29404 15.62636,0 28.29403,12.66767 28.29403,28.29404 z" sodipodi:ry="28.294037" sodipodi:rx="28.294037" sodipodi:cy="330.09708" sodipodi:cx="330.09708" id="path2987-6-9-2-8-4-1" style="opacity:0.40000000000000002;fill:#f58c29;fill-opacity:1;fill-rule:nonzero;stroke:none" sodipodi:type="arc" />
                        <path transform="matrix(0.84823527,0,0,0.84823527,163.2109,719.61907)" d="m 358.39111,330.09708 c 0,15.62636 -12.66767,28.29403 -28.29403,28.29403 -15.62637,0 -28.29404,-12.66767 -28.29404,-28.29403 0,-15.62637 12.66767,-28.29404 28.29404,-28.29404 15.62636,0 28.29403,12.66767 28.29403,28.29404 z" sodipodi:ry="28.294037" sodipodi:rx="28.294037" sodipodi:cy="330.09708" sodipodi:cx="330.09708" id="path2987-6-9-2-0-4-5" style="opacity:0.40000000000000002;fill:#f58c29;fill-opacity:1;fill-rule:nonzero;stroke:none" sodipodi:type="arc" />
                    </g>
                    <g id="g5297" style="fill:#f58c29;fill-opacity:1">
                        <path transform="matrix(0.84823533,0,0,0.84823533,-74.758696,544.50011)" d="m 434.95147,341.74756 c 0,10.41757 -8.44512,18.86269 -18.86269,18.86269 -10.41758,0 -18.86269,-8.44512 -18.86269,-18.86269 0,-10.41758 8.44511,-18.86269 18.86269,-18.86269 10.41757,0 18.86269,8.44511 18.86269,18.86269 z" sodipodi:ry="18.86269" sodipodi:rx="18.86269" sodipodi:cy="341.74756" sodipodi:cx="416.08878" id="path2989-4-8-8-0-0" style="opacity:0.20000000000000001;fill:#f58c29;fill-opacity:1;fill-rule:nonzero;stroke:none" sodipodi:type="arc" />
                        <path transform="matrix(0.84823533,0,0,0.84823533,33.297867,599.11765)" d="m 434.95147,341.74756 c 0,10.41757 -8.44512,18.86269 -18.86269,18.86269 -10.41758,0 -18.86269,-8.44512 -18.86269,-18.86269 0,-10.41758 8.44511,-18.86269 18.86269,-18.86269 10.41757,0 18.86269,8.44511 18.86269,18.86269 z" sodipodi:ry="18.86269" sodipodi:rx="18.86269" sodipodi:cy="341.74756" sodipodi:cx="416.08878" id="path2989-4-8-8-0-9" style="opacity:0.20000000000000001;fill:#f58c29;fill-opacity:1;fill-rule:nonzero;stroke:none" sodipodi:type="arc" />
                        <path transform="matrix(0.84823533,0,0,0.84823533,-20.977931,599.11765)" d="m 434.95147,341.74756 c 0,10.41757 -8.44512,18.86269 -18.86269,18.86269 -10.41758,0 -18.86269,-8.44512 -18.86269,-18.86269 0,-10.41758 8.44511,-18.86269 18.86269,-18.86269 10.41757,0 18.86269,8.44511 18.86269,18.86269 z" sodipodi:ry="18.86269" sodipodi:rx="18.86269" sodipodi:cy="341.74756" sodipodi:cx="416.08878" id="path2989-4-8-8-0-02" style="opacity:0.20000000000000001;fill:#f58c29;fill-opacity:1;fill-rule:nonzero;stroke:none" sodipodi:type="arc" />
                        <path transform="matrix(0.84823527,0,0,0.84823527,-2.3249827,607.96018)" d="m 358.39111,330.09708 c 0,15.62636 -12.66767,28.29403 -28.29403,28.29403 -15.62637,0 -28.29404,-12.66767 -28.29404,-28.29403 0,-15.62637 12.66767,-28.29404 28.29404,-28.29404 15.62636,0 28.29403,12.66767 28.29403,28.29404 z" sodipodi:ry="28.294037" sodipodi:rx="28.294037" sodipodi:cy="330.09708" sodipodi:cx="330.09708" id="path2987-6-9-2-4-10" style="opacity:0.20000000000000001;fill:#f58c29;fill-opacity:1;fill-rule:nonzero;stroke:none" sodipodi:type="arc" />
                        <path transform="matrix(0.84823533,0,0,0.84823533,-75.215649,496.60899)" d="m 434.95147,341.74756 c 0,10.41757 -8.44512,18.86269 -18.86269,18.86269 -10.41758,0 -18.86269,-8.44512 -18.86269,-18.86269 0,-10.41758 8.44511,-18.86269 18.86269,-18.86269 10.41757,0 18.86269,8.44511 18.86269,18.86269 z" sodipodi:ry="18.86269" sodipodi:rx="18.86269" sodipodi:cy="341.74756" sodipodi:cx="416.08878" id="path2989-4-8-8-0-0-1" style="opacity:0.20000000000000001;fill:#f58c29;fill-opacity:1;fill-rule:nonzero;stroke:none" sodipodi:type="arc" />
                    </g>
                    <g transform="matrix(-1,0,0,1,1284.0386,3.4000939)" id="g5297-9" style="fill:#f58c29;fill-opacity:1">
                        <path transform="matrix(0.84823533,0,0,0.84823533,-74.758696,544.50011)" d="m 434.95147,341.74756 c 0,10.41757 -8.44512,18.86269 -18.86269,18.86269 -10.41758,0 -18.86269,-8.44512 -18.86269,-18.86269 0,-10.41758 8.44511,-18.86269 18.86269,-18.86269 10.41757,0 18.86269,8.44511 18.86269,18.86269 z" sodipodi:ry="18.86269" sodipodi:rx="18.86269" sodipodi:cy="341.74756" sodipodi:cx="416.08878" id="path2989-4-8-8-0-0-8" style="opacity:0.20000000000000001;fill:#f58c29;fill-opacity:1;fill-rule:nonzero;stroke:none" sodipodi:type="arc" />
                        <path transform="matrix(0.84823533,0,0,0.84823533,33.297867,599.11765)" d="m 434.95147,341.74756 c 0,10.41757 -8.44512,18.86269 -18.86269,18.86269 -10.41758,0 -18.86269,-8.44512 -18.86269,-18.86269 0,-10.41758 8.44511,-18.86269 18.86269,-18.86269 10.41757,0 18.86269,8.44511 18.86269,18.86269 z" sodipodi:ry="18.86269" sodipodi:rx="18.86269" sodipodi:cy="341.74756" sodipodi:cx="416.08878" id="path2989-4-8-8-0-9-7" style="opacity:0.20000000000000001;fill:#f58c29;fill-opacity:1;fill-rule:nonzero;stroke:none" sodipodi:type="arc" />
                        <path transform="matrix(0.84823533,0,0,0.84823533,-20.977931,599.11765)" d="m 434.95147,341.74756 c 0,10.41757 -8.44512,18.86269 -18.86269,18.86269 -10.41758,0 -18.86269,-8.44512 -18.86269,-18.86269 0,-10.41758 8.44511,-18.86269 18.86269,-18.86269 10.41757,0 18.86269,8.44511 18.86269,18.86269 z" sodipodi:ry="18.86269" sodipodi:rx="18.86269" sodipodi:cy="341.74756" sodipodi:cx="416.08878" id="path2989-4-8-8-0-02-1" style="opacity:0.20000000000000001;fill:#f58c29;fill-opacity:1;fill-rule:nonzero;stroke:none" sodipodi:type="arc" />
                        <path transform="matrix(0.84823527,0,0,0.84823527,-2.3249827,607.96018)" d="m 358.39111,330.09708 c 0,15.62636 -12.66767,28.29403 -28.29403,28.29403 -15.62637,0 -28.29404,-12.66767 -28.29404,-28.29403 0,-15.62637 12.66767,-28.29404 28.29404,-28.29404 15.62636,0 28.29403,12.66767 28.29403,28.29404 z" sodipodi:ry="28.294037" sodipodi:rx="28.294037" sodipodi:cy="330.09708" sodipodi:cx="330.09708" id="path2987-6-9-2-4-10-9" style="opacity:0.20000000000000001;fill:#f58c29;fill-opacity:1;fill-rule:nonzero;stroke:none" sodipodi:type="arc" />
                        <path transform="matrix(0.84823533,0,0,0.84823533,-75.215649,496.60899)" d="m 434.95147,341.74756 c 0,10.41757 -8.44512,18.86269 -18.86269,18.86269 -10.41758,0 -18.86269,-8.44512 -18.86269,-18.86269 0,-10.41758 8.44511,-18.86269 18.86269,-18.86269 10.41757,0 18.86269,8.44511 18.86269,18.86269 z" sodipodi:ry="18.86269" sodipodi:rx="18.86269" sodipodi:cy="341.74756" sodipodi:cx="416.08878" id="path2989-4-8-8-0-0-1-7" style="opacity:0.20000000000000001;fill:#f58c29;fill-opacity:1;fill-rule:nonzero;stroke:none" sodipodi:type="arc" />
                    </g>
                    <g transform="matrix(1,0,0,-1,0.668812,1265.8924)" id="g5297-0" style="fill:#f58c29;fill-opacity:1">
                        <path transform="matrix(0.84823533,0,0,0.84823533,-74.758696,544.50011)" d="m 434.95147,341.74756 c 0,10.41757 -8.44512,18.86269 -18.86269,18.86269 -10.41758,0 -18.86269,-8.44512 -18.86269,-18.86269 0,-10.41758 8.44511,-18.86269 18.86269,-18.86269 10.41757,0 18.86269,8.44511 18.86269,18.86269 z" sodipodi:ry="18.86269" sodipodi:rx="18.86269" sodipodi:cy="341.74756" sodipodi:cx="416.08878" id="path2989-4-8-8-0-0-6" style="opacity:0.20000000000000001;fill:#f58c29;fill-opacity:1;fill-rule:nonzero;stroke:none" sodipodi:type="arc" />
                        <path transform="matrix(0.84823533,0,0,0.84823533,33.297867,599.11765)" d="m 434.95147,341.74756 c 0,10.41757 -8.44512,18.86269 -18.86269,18.86269 -10.41758,0 -18.86269,-8.44512 -18.86269,-18.86269 0,-10.41758 8.44511,-18.86269 18.86269,-18.86269 10.41757,0 18.86269,8.44511 18.86269,18.86269 z" sodipodi:ry="18.86269" sodipodi:rx="18.86269" sodipodi:cy="341.74756" sodipodi:cx="416.08878" id="path2989-4-8-8-0-9-75" style="opacity:0.20000000000000001;fill:#f58c29;fill-opacity:1;fill-rule:nonzero;stroke:none" sodipodi:type="arc" />
                        <path transform="matrix(0.84823533,0,0,0.84823533,-20.977931,599.11765)" d="m 434.95147,341.74756 c 0,10.41757 -8.44512,18.86269 -18.86269,18.86269 -10.41758,0 -18.86269,-8.44512 -18.86269,-18.86269 0,-10.41758 8.44511,-18.86269 18.86269,-18.86269 10.41757,0 18.86269,8.44511 18.86269,18.86269 z" sodipodi:ry="18.86269" sodipodi:rx="18.86269" sodipodi:cy="341.74756" sodipodi:cx="416.08878" id="path2989-4-8-8-0-02-0" style="opacity:0.20000000000000001;fill:#f58c29;fill-opacity:1;fill-rule:nonzero;stroke:none" sodipodi:type="arc" />
                        <path transform="matrix(0.84823527,0,0,0.84823527,-2.3249827,607.96018)" d="m 358.39111,330.09708 c 0,15.62636 -12.66767,28.29403 -28.29403,28.29403 -15.62637,0 -28.29404,-12.66767 -28.29404,-28.29403 0,-15.62637 12.66767,-28.29404 28.29404,-28.29404 15.62636,0 28.29403,12.66767 28.29403,28.29404 z" sodipodi:ry="28.294037" sodipodi:rx="28.294037" sodipodi:cy="330.09708" sodipodi:cx="330.09708" id="path2987-6-9-2-4-10-4" style="opacity:0.20000000000000001;fill:#f58c29;fill-opacity:1;fill-rule:nonzero;stroke:none" sodipodi:type="arc" />
                        <path transform="matrix(0.84823533,0,0,0.84823533,-75.215649,496.60899)" d="m 434.95147,341.74756 c 0,10.41757 -8.44512,18.86269 -18.86269,18.86269 -10.41758,0 -18.86269,-8.44512 -18.86269,-18.86269 0,-10.41758 8.44511,-18.86269 18.86269,-18.86269 10.41757,0 18.86269,8.44511 18.86269,18.86269 z" sodipodi:ry="18.86269" sodipodi:rx="18.86269" sodipodi:cy="341.74756" sodipodi:cx="416.08878" id="path2989-4-8-8-0-0-1-2" style="opacity:0.20000000000000001;fill:#f58c29;fill-opacity:1;fill-rule:nonzero;stroke:none" sodipodi:type="arc" />
                    </g>
                    <g transform="matrix(-1,0,0,-1,1282.2971,1269.3754)" id="g5297-2" style="fill:#f58c29;fill-opacity:1">
                        <path transform="matrix(0.84823533,0,0,0.84823533,-74.758696,544.50011)" d="m 434.95147,341.74756 c 0,10.41757 -8.44512,18.86269 -18.86269,18.86269 -10.41758,0 -18.86269,-8.44512 -18.86269,-18.86269 0,-10.41758 8.44511,-18.86269 18.86269,-18.86269 10.41757,0 18.86269,8.44511 18.86269,18.86269 z" sodipodi:ry="18.86269" sodipodi:rx="18.86269" sodipodi:cy="341.74756" sodipodi:cx="416.08878" id="path2989-4-8-8-0-0-82" style="opacity:0.20000000000000001;fill:#f58c29;fill-opacity:1;fill-rule:nonzero;stroke:none" sodipodi:type="arc" />
                        <path transform="matrix(0.84823533,0,0,0.84823533,33.297867,599.11765)" d="m 434.95147,341.74756 c 0,10.41757 -8.44512,18.86269 -18.86269,18.86269 -10.41758,0 -18.86269,-8.44512 -18.86269,-18.86269 0,-10.41758 8.44511,-18.86269 18.86269,-18.86269 10.41757,0 18.86269,8.44511 18.86269,18.86269 z" sodipodi:ry="18.86269" sodipodi:rx="18.86269" sodipodi:cy="341.74756" sodipodi:cx="416.08878" id="path2989-4-8-8-0-9-4" style="opacity:0.20000000000000001;fill:#f58c29;fill-opacity:1;fill-rule:nonzero;stroke:none" sodipodi:type="arc" />
                        <path transform="matrix(0.84823533,0,0,0.84823533,-20.977931,599.11765)" d="m 434.95147,341.74756 c 0,10.41757 -8.44512,18.86269 -18.86269,18.86269 -10.41758,0 -18.86269,-8.44512 -18.86269,-18.86269 0,-10.41758 8.44511,-18.86269 18.86269,-18.86269 10.41757,0 18.86269,8.44511 18.86269,18.86269 z" sodipodi:ry="18.86269" sodipodi:rx="18.86269" sodipodi:cy="341.74756" sodipodi:cx="416.08878" id="path2989-4-8-8-0-02-3" style="opacity:0.20000000000000001;fill:#f58c29;fill-opacity:1;fill-rule:nonzero;stroke:none" sodipodi:type="arc" />
                        <path transform="matrix(0.84823527,0,0,0.84823527,-2.3249827,607.96018)" d="m 358.39111,330.09708 c 0,15.62636 -12.66767,28.29403 -28.29403,28.29403 -15.62637,0 -28.29404,-12.66767 -28.29404,-28.29403 0,-15.62637 12.66767,-28.29404 28.29404,-28.29404 15.62636,0 28.29403,12.66767 28.29403,28.29404 z" sodipodi:ry="28.294037" sodipodi:rx="28.294037" sodipodi:cy="330.09708" sodipodi:cx="330.09708" id="path2987-6-9-2-4-10-6" style="opacity:0.20000000000000001;fill:#f58c29;fill-opacity:1;fill-rule:nonzero;stroke:none" sodipodi:type="arc" />
                        <path transform="matrix(0.84823533,0,0,0.84823533,-75.215649,496.60899)" d="m 434.95147,341.74756 c 0,10.41757 -8.44512,18.86269 -18.86269,18.86269 -10.41758,0 -18.86269,-8.44512 -18.86269,-18.86269 0,-10.41758 8.44511,-18.86269 18.86269,-18.86269 10.41757,0 18.86269,8.44511 18.86269,18.86269 z" sodipodi:ry="18.86269" sodipodi:rx="18.86269" sodipodi:cy="341.74756" sodipodi:cx="416.08878" id="path2989-4-8-8-0-0-1-6" style="opacity:0.20000000000000001;fill:#f58c29;fill-opacity:1;fill-rule:nonzero;stroke:none" sodipodi:type="arc" />
                    </g>
                    <g id="g5467" style="fill:#f58c29;fill-opacity:1">
                        <path transform="matrix(0.84823533,0,0,0.84823533,89.398949,758.4986)" d="m 434.95147,341.74756 c 0,10.41757 -8.44512,18.86269 -18.86269,18.86269 -10.41758,0 -18.86269,-8.44512 -18.86269,-18.86269 0,-10.41758 8.44511,-18.86269 18.86269,-18.86269 10.41757,0 18.86269,8.44511 18.86269,18.86269 z" sodipodi:ry="18.86269" sodipodi:rx="18.86269" sodipodi:cy="341.74756" sodipodi:cx="416.08878" id="path2989-4-8-8-0-6" style="opacity:0.20000000000000001;fill:#f58c29;fill-opacity:1;fill-rule:nonzero;stroke:none" sodipodi:type="arc" />
                        <path transform="matrix(0.84823533,0,0,0.84823533,187.45583,758.4986)" d="m 434.95147,341.74756 c 0,10.41757 -8.44512,18.86269 -18.86269,18.86269 -10.41758,0 -18.86269,-8.44512 -18.86269,-18.86269 0,-10.41758 8.44511,-18.86269 18.86269,-18.86269 10.41757,0 18.86269,8.44511 18.86269,18.86269 z" sodipodi:ry="18.86269" sodipodi:rx="18.86269" sodipodi:cy="341.74756" sodipodi:cx="416.08878" id="path2989-4-8-8-0-5" style="opacity:0.20000000000000001;fill:#f58c29;fill-opacity:1;fill-rule:nonzero;stroke:none" sodipodi:type="arc" />
                        <path transform="matrix(0.84823527,0,0,0.84823527,211.36861,768.38097)" d="m 358.39111,330.09708 c 0,15.62636 -12.66767,28.29403 -28.29403,28.29403 -15.62637,0 -28.29404,-12.66767 -28.29404,-28.29403 0,-15.62637 12.66767,-28.29404 28.29404,-28.29404 15.62636,0 28.29403,12.66767 28.29403,28.29404 z" sodipodi:ry="28.294037" sodipodi:rx="28.294037" sodipodi:cy="330.09708" sodipodi:cx="330.09708" id="path2987-6-9-2-4-7" style="opacity:0.20000000000000001;fill:#f58c29;fill-opacity:1;fill-rule:nonzero;stroke:none" sodipodi:type="arc" />
                        <path transform="matrix(0.84823527,0,0,0.84823527,162.15061,817.48643)" d="m 358.39111,330.09708 c 0,15.62636 -12.66767,28.29403 -28.29403,28.29403 -15.62637,0 -28.29404,-12.66767 -28.29404,-28.29403 0,-15.62637 12.66767,-28.29404 28.29404,-28.29404 15.62636,0 28.29403,12.66767 28.29403,28.29404 z" sodipodi:ry="28.294037" sodipodi:rx="28.294037" sodipodi:cy="330.09708" sodipodi:cx="330.09708" id="path2987-6-9-2-4-9" style="opacity:0.20000000000000001;fill:#f58c29;fill-opacity:1;fill-rule:nonzero;stroke:none" sodipodi:type="arc" />
                        <path transform="matrix(0.84823527,0,0,0.84823527,261.00129,817.48643)" d="m 358.39111,330.09708 c 0,15.62636 -12.66767,28.29403 -28.29403,28.29403 -15.62637,0 -28.29404,-12.66767 -28.29404,-28.29403 0,-15.62637 12.66767,-28.29404 28.29404,-28.29404 15.62636,0 28.29403,12.66767 28.29403,28.29404 z" sodipodi:ry="28.294037" sodipodi:rx="28.294037" sodipodi:cy="330.09708" sodipodi:cx="330.09708" id="path2987-6-9-2-4-5" style="opacity:0.20000000000000001;fill:#f58c29;fill-opacity:1;fill-rule:nonzero;stroke:none" sodipodi:type="arc" />
                        <path transform="matrix(0.84823533,0,0,0.84823533,138.63472,807.60406)" d="m 434.95147,341.74756 c 0,10.41757 -8.44512,18.86269 -18.86269,18.86269 -10.41758,0 -18.86269,-8.44512 -18.86269,-18.86269 0,-10.41758 8.44511,-18.86269 18.86269,-18.86269 10.41757,0 18.86269,8.44511 18.86269,18.86269 z" sodipodi:ry="18.86269" sodipodi:rx="18.86269" sodipodi:cy="341.74756" sodipodi:cx="416.08878" id="path2989-4-8-8-0-6-9" style="opacity:0.20000000000000001;fill:#f58c29;fill-opacity:1;fill-rule:nonzero;stroke:none" sodipodi:type="arc" />
                    </g>
                    <g transform="translate(304.61478,-1.3148844)" id="g5467-3" style="fill:#f58c29;fill-opacity:1">
                        <path transform="matrix(0.84823533,0,0,0.84823533,89.398949,758.4986)" d="m 434.95147,341.74756 c 0,10.41757 -8.44512,18.86269 -18.86269,18.86269 -10.41758,0 -18.86269,-8.44512 -18.86269,-18.86269 0,-10.41758 8.44511,-18.86269 18.86269,-18.86269 10.41757,0 18.86269,8.44511 18.86269,18.86269 z" sodipodi:ry="18.86269" sodipodi:rx="18.86269" sodipodi:cy="341.74756" sodipodi:cx="416.08878" id="path2989-4-8-8-0-6-6" style="opacity:0.20000000000000001;fill:#f58c29;fill-opacity:1;fill-rule:nonzero;stroke:none" sodipodi:type="arc" />
                        <path transform="matrix(0.84823533,0,0,0.84823533,187.45583,758.4986)" d="m 434.95147,341.74756 c 0,10.41757 -8.44512,18.86269 -18.86269,18.86269 -10.41758,0 -18.86269,-8.44512 -18.86269,-18.86269 0,-10.41758 8.44511,-18.86269 18.86269,-18.86269 10.41757,0 18.86269,8.44511 18.86269,18.86269 z" sodipodi:ry="18.86269" sodipodi:rx="18.86269" sodipodi:cy="341.74756" sodipodi:cx="416.08878" id="path2989-4-8-8-0-5-2" style="opacity:0.20000000000000001;fill:#f58c29;fill-opacity:1;fill-rule:nonzero;stroke:none" sodipodi:type="arc" />
                        <path transform="matrix(0.84823527,0,0,0.84823527,211.36861,768.38097)" d="m 358.39111,330.09708 c 0,15.62636 -12.66767,28.29403 -28.29403,28.29403 -15.62637,0 -28.29404,-12.66767 -28.29404,-28.29403 0,-15.62637 12.66767,-28.29404 28.29404,-28.29404 15.62636,0 28.29403,12.66767 28.29403,28.29404 z" sodipodi:ry="28.294037" sodipodi:rx="28.294037" sodipodi:cy="330.09708" sodipodi:cx="330.09708" id="path2987-6-9-2-4-7-5" style="opacity:0.20000000000000001;fill:#f58c29;fill-opacity:1;fill-rule:nonzero;stroke:none" sodipodi:type="arc" />
                        <path transform="matrix(0.84823527,0,0,0.84823527,162.15061,817.48643)" d="m 358.39111,330.09708 c 0,15.62636 -12.66767,28.29403 -28.29403,28.29403 -15.62637,0 -28.29404,-12.66767 -28.29404,-28.29403 0,-15.62637 12.66767,-28.29404 28.29404,-28.29404 15.62636,0 28.29403,12.66767 28.29403,28.29404 z" sodipodi:ry="28.294037" sodipodi:rx="28.294037" sodipodi:cy="330.09708" sodipodi:cx="330.09708" id="path2987-6-9-2-4-9-0" style="opacity:0.20000000000000001;fill:#f58c29;fill-opacity:1;fill-rule:nonzero;stroke:none" sodipodi:type="arc" />
                        <path transform="matrix(0.84823527,0,0,0.84823527,261.00129,817.48643)" d="m 358.39111,330.09708 c 0,15.62636 -12.66767,28.29403 -28.29403,28.29403 -15.62637,0 -28.29404,-12.66767 -28.29404,-28.29403 0,-15.62637 12.66767,-28.29404 28.29404,-28.29404 15.62636,0 28.29403,12.66767 28.29403,28.29404 z" sodipodi:ry="28.294037" sodipodi:rx="28.294037" sodipodi:cy="330.09708" sodipodi:cx="330.09708" id="path2987-6-9-2-4-5-3" style="opacity:0.20000000000000001;fill:#f58c29;fill-opacity:1;fill-rule:nonzero;stroke:none" sodipodi:type="arc" />
                        <path transform="matrix(0.84823533,0,0,0.84823533,138.63472,807.60406)" d="m 434.95147,341.74756 c 0,10.41757 -8.44512,18.86269 -18.86269,18.86269 -10.41758,0 -18.86269,-8.44512 -18.86269,-18.86269 0,-10.41758 8.44511,-18.86269 18.86269,-18.86269 10.41757,0 18.86269,8.44511 18.86269,18.86269 z" sodipodi:ry="18.86269" sodipodi:rx="18.86269" sodipodi:cy="341.74756" sodipodi:cx="416.08878" id="path2989-4-8-8-0-6-9-3" style="opacity:0.20000000000000001;fill:#f58c29;fill-opacity:1;fill-rule:nonzero;stroke:none" sodipodi:type="arc" />
                    </g>
                    <g transform="matrix(1,0,0,-1,-1.962255,1267.7905)" id="g5467-7" style="fill:#f58c29;fill-opacity:1">
                        <path transform="matrix(0.84823533,0,0,0.84823533,89.398949,758.4986)" d="m 434.95147,341.74756 c 0,10.41757 -8.44512,18.86269 -18.86269,18.86269 -10.41758,0 -18.86269,-8.44512 -18.86269,-18.86269 0,-10.41758 8.44511,-18.86269 18.86269,-18.86269 10.41757,0 18.86269,8.44511 18.86269,18.86269 z" sodipodi:ry="18.86269" sodipodi:rx="18.86269" sodipodi:cy="341.74756" sodipodi:cx="416.08878" id="path2989-4-8-8-0-6-5" style="opacity:0.20000000000000001;fill:#f58c29;fill-opacity:1;fill-rule:nonzero;stroke:none" sodipodi:type="arc" />
                        <path transform="matrix(0.84823533,0,0,0.84823533,187.45583,758.4986)" d="m 434.95147,341.74756 c 0,10.41757 -8.44512,18.86269 -18.86269,18.86269 -10.41758,0 -18.86269,-8.44512 -18.86269,-18.86269 0,-10.41758 8.44511,-18.86269 18.86269,-18.86269 10.41757,0 18.86269,8.44511 18.86269,18.86269 z" sodipodi:ry="18.86269" sodipodi:rx="18.86269" sodipodi:cy="341.74756" sodipodi:cx="416.08878" id="path2989-4-8-8-0-5-3" style="opacity:0.20000000000000001;fill:#f58c29;fill-opacity:1;fill-rule:nonzero;stroke:none" sodipodi:type="arc" />
                        <path transform="matrix(0.84823527,0,0,0.84823527,211.36861,768.38097)" d="m 358.39111,330.09708 c 0,15.62636 -12.66767,28.29403 -28.29403,28.29403 -15.62637,0 -28.29404,-12.66767 -28.29404,-28.29403 0,-15.62637 12.66767,-28.29404 28.29404,-28.29404 15.62636,0 28.29403,12.66767 28.29403,28.29404 z" sodipodi:ry="28.294037" sodipodi:rx="28.294037" sodipodi:cy="330.09708" sodipodi:cx="330.09708" id="path2987-6-9-2-4-7-6" style="opacity:0.20000000000000001;fill:#f58c29;fill-opacity:1;fill-rule:nonzero;stroke:none" sodipodi:type="arc" />
                        <path transform="matrix(0.84823527,0,0,0.84823527,162.15061,817.48643)" d="m 358.39111,330.09708 c 0,15.62636 -12.66767,28.29403 -28.29403,28.29403 -15.62637,0 -28.29404,-12.66767 -28.29404,-28.29403 0,-15.62637 12.66767,-28.29404 28.29404,-28.29404 15.62636,0 28.29403,12.66767 28.29403,28.29404 z" sodipodi:ry="28.294037" sodipodi:rx="28.294037" sodipodi:cy="330.09708" sodipodi:cx="330.09708" id="path2987-6-9-2-4-9-7" style="opacity:0.20000000000000001;fill:#f58c29;fill-opacity:1;fill-rule:nonzero;stroke:none" sodipodi:type="arc" />
                        <path transform="matrix(0.84823527,0,0,0.84823527,261.00129,817.48643)" d="m 358.39111,330.09708 c 0,15.62636 -12.66767,28.29403 -28.29403,28.29403 -15.62637,0 -28.29404,-12.66767 -28.29404,-28.29403 0,-15.62637 12.66767,-28.29404 28.29404,-28.29404 15.62636,0 28.29403,12.66767 28.29403,28.29404 z" sodipodi:ry="28.294037" sodipodi:rx="28.294037" sodipodi:cy="330.09708" sodipodi:cx="330.09708" id="path2987-6-9-2-4-5-9" style="opacity:0.20000000000000001;fill:#f58c29;fill-opacity:1;fill-rule:nonzero;stroke:none" sodipodi:type="arc" />
                        <path transform="matrix(0.84823533,0,0,0.84823533,138.63472,807.60406)" d="m 434.95147,341.74756 c 0,10.41757 -8.44512,18.86269 -18.86269,18.86269 -10.41758,0 -18.86269,-8.44512 -18.86269,-18.86269 0,-10.41758 8.44511,-18.86269 18.86269,-18.86269 10.41757,0 18.86269,8.44511 18.86269,18.86269 z" sodipodi:ry="18.86269" sodipodi:rx="18.86269" sodipodi:cy="341.74756" sodipodi:cx="416.08878" id="path2989-4-8-8-0-6-9-6" style="opacity:0.20000000000000001;fill:#f58c29;fill-opacity:1;fill-rule:nonzero;stroke:none" sodipodi:type="arc" />
                    </g>
                    <g transform="matrix(1,0,0,-1,302.61835,1267.894)" id="g5467-7-2" style="fill:#f58c29;fill-opacity:1">
                        <path transform="matrix(0.84823533,0,0,0.84823533,89.398949,758.4986)" d="m 434.95147,341.74756 c 0,10.41757 -8.44512,18.86269 -18.86269,18.86269 -10.41758,0 -18.86269,-8.44512 -18.86269,-18.86269 0,-10.41758 8.44511,-18.86269 18.86269,-18.86269 10.41757,0 18.86269,8.44511 18.86269,18.86269 z" sodipodi:ry="18.86269" sodipodi:rx="18.86269" sodipodi:cy="341.74756" sodipodi:cx="416.08878" id="path2989-4-8-8-0-6-5-9" style="opacity:0.20000000000000001;fill:#f58c29;fill-opacity:1;fill-rule:nonzero;stroke:none" sodipodi:type="arc" />
                        <path transform="matrix(0.84823533,0,0,0.84823533,187.45583,758.4986)" d="m 434.95147,341.74756 c 0,10.41757 -8.44512,18.86269 -18.86269,18.86269 -10.41758,0 -18.86269,-8.44512 -18.86269,-18.86269 0,-10.41758 8.44511,-18.86269 18.86269,-18.86269 10.41757,0 18.86269,8.44511 18.86269,18.86269 z" sodipodi:ry="18.86269" sodipodi:rx="18.86269" sodipodi:cy="341.74756" sodipodi:cx="416.08878" id="path2989-4-8-8-0-5-3-0" style="opacity:0.20000000000000001;fill:#f58c29;fill-opacity:1;fill-rule:nonzero;stroke:none" sodipodi:type="arc" />
                        <path transform="matrix(0.84823527,0,0,0.84823527,211.36861,768.38097)" d="m 358.39111,330.09708 c 0,15.62636 -12.66767,28.29403 -28.29403,28.29403 -15.62637,0 -28.29404,-12.66767 -28.29404,-28.29403 0,-15.62637 12.66767,-28.29404 28.29404,-28.29404 15.62636,0 28.29403,12.66767 28.29403,28.29404 z" sodipodi:ry="28.294037" sodipodi:rx="28.294037" sodipodi:cy="330.09708" sodipodi:cx="330.09708" id="path2987-6-9-2-4-7-6-6" style="opacity:0.20000000000000001;fill:#f58c29;fill-opacity:1;fill-rule:nonzero;stroke:none" sodipodi:type="arc" />
                        <path transform="matrix(0.84823527,0,0,0.84823527,162.15061,817.48643)" d="m 358.39111,330.09708 c 0,15.62636 -12.66767,28.29403 -28.29403,28.29403 -15.62637,0 -28.29404,-12.66767 -28.29404,-28.29403 0,-15.62637 12.66767,-28.29404 28.29404,-28.29404 15.62636,0 28.29403,12.66767 28.29403,28.29404 z" sodipodi:ry="28.294037" sodipodi:rx="28.294037" sodipodi:cy="330.09708" sodipodi:cx="330.09708" id="path2987-6-9-2-4-9-7-2" style="opacity:0.20000000000000001;fill:#f58c29;fill-opacity:1;fill-rule:nonzero;stroke:none" sodipodi:type="arc" />
                        <path transform="matrix(0.84823527,0,0,0.84823527,261.00129,817.48643)" d="m 358.39111,330.09708 c 0,15.62636 -12.66767,28.29403 -28.29403,28.29403 -15.62637,0 -28.29404,-12.66767 -28.29404,-28.29403 0,-15.62637 12.66767,-28.29404 28.29404,-28.29404 15.62636,0 28.29403,12.66767 28.29403,28.29404 z" sodipodi:ry="28.294037" sodipodi:rx="28.294037" sodipodi:cy="330.09708" sodipodi:cx="330.09708" id="path2987-6-9-2-4-5-9-8" style="opacity:0.20000000000000001;fill:#f58c29;fill-opacity:1;fill-rule:nonzero;stroke:none" sodipodi:type="arc" />
                        <path transform="matrix(0.84823533,0,0,0.84823533,138.63472,807.60406)" d="m 434.95147,341.74756 c 0,10.41757 -8.44512,18.86269 -18.86269,18.86269 -10.41758,0 -18.86269,-8.44512 -18.86269,-18.86269 0,-10.41758 8.44511,-18.86269 18.86269,-18.86269 10.41757,0 18.86269,8.44511 18.86269,18.86269 z" sodipodi:ry="18.86269" sodipodi:rx="18.86269" sodipodi:cy="341.74756" sodipodi:cx="416.08878" id="path2989-4-8-8-0-6-9-6-8" style="opacity:0.20000000000000001;fill:#f58c29;fill-opacity:1;fill-rule:nonzero;stroke:none" sodipodi:type="arc" />
                    </g>
                    <g id="g4598" transform="translate(0,4)" style="opacity:0.80000000000000004;fill:#f58c29;fill-opacity:1">
                        <path transform="matrix(0.84823527,0,0,0.84823527,257.71065,-14.107056)" d="m 358.39111,330.09708 c 0,15.62636 -12.66767,28.29403 -28.29403,28.29403 -15.62637,0 -28.29404,-12.66767 -28.29404,-28.29403 0,-15.62637 12.66767,-28.29404 28.29404,-28.29404 15.62636,0 28.29403,12.66767 28.29403,28.29404 z" sodipodi:ry="28.294037" sodipodi:rx="28.294037" sodipodi:cy="330.09708" sodipodi:cx="330.09708" id="path2987-6-7" style="fill:#f58c29;fill-opacity:1;fill-rule:nonzero;stroke:none" sodipodi:type="arc" />
                        <path transform="matrix(0.84823527,0,0,0.84823527,362.01998,-14.107056)" d="m 358.39111,330.09708 c 0,15.62636 -12.66767,28.29403 -28.29403,28.29403 -15.62637,0 -28.29404,-12.66767 -28.29404,-28.29403 0,-15.62637 12.66767,-28.29404 28.29404,-28.29404 15.62636,0 28.29403,12.66767 28.29403,28.29404 z" sodipodi:ry="28.294037" sodipodi:rx="28.294037" sodipodi:cy="330.09708" sodipodi:cx="330.09708" id="path2987-6-2" style="fill:#f58c29;fill-opacity:1;fill-rule:nonzero;stroke:none" sodipodi:type="arc" />
                        <path transform="matrix(0.84823527,0,0,0.84823527,466.3293,-14.107056)" d="m 358.39111,330.09708 c 0,15.62636 -12.66767,28.29403 -28.29403,28.29403 -15.62637,0 -28.29404,-12.66767 -28.29404,-28.29403 0,-15.62637 12.66767,-28.29404 28.29404,-28.29404 15.62636,0 28.29403,12.66767 28.29403,28.29404 z" sodipodi:ry="28.294037" sodipodi:rx="28.294037" sodipodi:cy="330.09708" sodipodi:cx="330.09708" id="path2987-6-72" style="fill:#f58c29;fill-opacity:1;fill-rule:nonzero;stroke:none" sodipodi:type="arc" />
                        <path transform="matrix(0.84823533,0,0,0.84823533,236.9241,-23.989426)" d="m 434.95147,341.74756 c 0,10.41757 -8.44512,18.86269 -18.86269,18.86269 -10.41758,0 -18.86269,-8.44512 -18.86269,-18.86269 0,-10.41758 8.44511,-18.86269 18.86269,-18.86269 10.41757,0 18.86269,8.44511 18.86269,18.86269 z" sodipodi:ry="18.86269" sodipodi:rx="18.86269" sodipodi:cy="341.74756" sodipodi:cx="416.08878" id="path2989-4-4" style="fill:#f58c29;fill-opacity:1;fill-rule:nonzero;stroke:none" sodipodi:type="arc" />
                        <path transform="matrix(0.84823533,0,0,0.84823533,341.23342,-23.989426)" d="m 434.95147,341.74756 c 0,10.41757 -8.44512,18.86269 -18.86269,18.86269 -10.41758,0 -18.86269,-8.44512 -18.86269,-18.86269 0,-10.41758 8.44511,-18.86269 18.86269,-18.86269 10.41757,0 18.86269,8.44511 18.86269,18.86269 z" sodipodi:ry="18.86269" sodipodi:rx="18.86269" sodipodi:cy="341.74756" sodipodi:cx="416.08878" id="path2989-4-47" style="fill:#f58c29;fill-opacity:1;fill-rule:nonzero;stroke:none" sodipodi:type="arc" />
                    </g>
                    <g transform="translate(0.5922872,732.95061)" id="g4598-6" style="opacity:0.80000000000000004;fill:#f58c29;fill-opacity:1">
                        <path transform="matrix(0.84823527,0,0,0.84823527,257.71065,-14.107056)" d="m 358.39111,330.09708 c 0,15.62636 -12.66767,28.29403 -28.29403,28.29403 -15.62637,0 -28.29404,-12.66767 -28.29404,-28.29403 0,-15.62637 12.66767,-28.29404 28.29404,-28.29404 15.62636,0 28.29403,12.66767 28.29403,28.29404 z" sodipodi:ry="28.294037" sodipodi:rx="28.294037" sodipodi:cy="330.09708" sodipodi:cx="330.09708" id="path2987-6-7-0" style="fill:#f58c29;fill-opacity:1;fill-rule:nonzero;stroke:none" sodipodi:type="arc" />
                        <path transform="matrix(0.84823527,0,0,0.84823527,362.01998,-14.107056)" d="m 358.39111,330.09708 c 0,15.62636 -12.66767,28.29403 -28.29403,28.29403 -15.62637,0 -28.29404,-12.66767 -28.29404,-28.29403 0,-15.62637 12.66767,-28.29404 28.29404,-28.29404 15.62636,0 28.29403,12.66767 28.29403,28.29404 z" sodipodi:ry="28.294037" sodipodi:rx="28.294037" sodipodi:cy="330.09708" sodipodi:cx="330.09708" id="path2987-6-2-2" style="fill:#f58c29;fill-opacity:1;fill-rule:nonzero;stroke:none" sodipodi:type="arc" />
                        <path transform="matrix(0.84823527,0,0,0.84823527,466.3293,-14.107056)" d="m 358.39111,330.09708 c 0,15.62636 -12.66767,28.29403 -28.29403,28.29403 -15.62637,0 -28.29404,-12.66767 -28.29404,-28.29403 0,-15.62637 12.66767,-28.29404 28.29404,-28.29404 15.62636,0 28.29403,12.66767 28.29403,28.29404 z" sodipodi:ry="28.294037" sodipodi:rx="28.294037" sodipodi:cy="330.09708" sodipodi:cx="330.09708" id="path2987-6-72-7" style="fill:#f58c29;fill-opacity:1;fill-rule:nonzero;stroke:none" sodipodi:type="arc" />
                        <path transform="matrix(0.84823533,0,0,0.84823533,236.9241,-23.989426)" d="m 434.95147,341.74756 c 0,10.41757 -8.44512,18.86269 -18.86269,18.86269 -10.41758,0 -18.86269,-8.44512 -18.86269,-18.86269 0,-10.41758 8.44511,-18.86269 18.86269,-18.86269 10.41757,0 18.86269,8.44511 18.86269,18.86269 z" sodipodi:ry="18.86269" sodipodi:rx="18.86269" sodipodi:cy="341.74756" sodipodi:cx="416.08878" id="path2989-4-4-7" style="fill:#f58c29;fill-opacity:1;fill-rule:nonzero;stroke:none" sodipodi:type="arc" />
                        <path transform="matrix(0.84823533,0,0,0.84823533,341.23342,-23.989426)" d="m 434.95147,341.74756 c 0,10.41757 -8.44512,18.86269 -18.86269,18.86269 -10.41758,0 -18.86269,-8.44512 -18.86269,-18.86269 0,-10.41758 8.44511,-18.86269 18.86269,-18.86269 10.41757,0 18.86269,8.44511 18.86269,18.86269 z" sodipodi:ry="18.86269" sodipodi:rx="18.86269" sodipodi:cy="341.74756" sodipodi:cx="416.08878" id="path2989-4-47-6" style="fill:#f58c29;fill-opacity:1;fill-rule:nonzero;stroke:none" sodipodi:type="arc" />
                    </g>
                    <g transform="matrix(0,1,-1,0,1272.2987,-7.2123977)" id="g4598-0" style="opacity:0.80000000000000004;fill:#f58c29;fill-opacity:1">
                        <path transform="matrix(0.84823527,0,0,0.84823527,257.71065,-14.107056)" d="m 358.39111,330.09708 c 0,15.62636 -12.66767,28.29403 -28.29403,28.29403 -15.62637,0 -28.29404,-12.66767 -28.29404,-28.29403 0,-15.62637 12.66767,-28.29404 28.29404,-28.29404 15.62636,0 28.29403,12.66767 28.29403,28.29404 z" sodipodi:ry="28.294037" sodipodi:rx="28.294037" sodipodi:cy="330.09708" sodipodi:cx="330.09708" id="path2987-6-7-1" style="fill:#f58c29;fill-opacity:1;fill-rule:nonzero;stroke:none" sodipodi:type="arc" />
                        <path transform="matrix(0.84823527,0,0,0.84823527,362.01998,-14.107056)" d="m 358.39111,330.09708 c 0,15.62636 -12.66767,28.29403 -28.29403,28.29403 -15.62637,0 -28.29404,-12.66767 -28.29404,-28.29403 0,-15.62637 12.66767,-28.29404 28.29404,-28.29404 15.62636,0 28.29403,12.66767 28.29403,28.29404 z" sodipodi:ry="28.294037" sodipodi:rx="28.294037" sodipodi:cy="330.09708" sodipodi:cx="330.09708" id="path2987-6-2-3" style="fill:#f58c29;fill-opacity:1;fill-rule:nonzero;stroke:none" sodipodi:type="arc" />
                        <path transform="matrix(0.84823527,0,0,0.84823527,466.3293,-14.107056)" d="m 358.39111,330.09708 c 0,15.62636 -12.66767,28.29403 -28.29403,28.29403 -15.62637,0 -28.29404,-12.66767 -28.29404,-28.29403 0,-15.62637 12.66767,-28.29404 28.29404,-28.29404 15.62636,0 28.29403,12.66767 28.29403,28.29404 z" sodipodi:ry="28.294037" sodipodi:rx="28.294037" sodipodi:cy="330.09708" sodipodi:cx="330.09708" id="path2987-6-72-2" style="fill:#f58c29;fill-opacity:1;fill-rule:nonzero;stroke:none" sodipodi:type="arc" />
                        <path transform="matrix(0.84823533,0,0,0.84823533,236.9241,-23.989426)" d="m 434.95147,341.74756 c 0,10.41757 -8.44512,18.86269 -18.86269,18.86269 -10.41758,0 -18.86269,-8.44512 -18.86269,-18.86269 0,-10.41758 8.44511,-18.86269 18.86269,-18.86269 10.41757,0 18.86269,8.44511 18.86269,18.86269 z" sodipodi:ry="18.86269" sodipodi:rx="18.86269" sodipodi:cy="341.74756" sodipodi:cx="416.08878" id="path2989-4-4-8" style="fill:#f58c29;fill-opacity:1;fill-rule:nonzero;stroke:none" sodipodi:type="arc" />
                        <path transform="matrix(0.84823533,0,0,0.84823533,341.23342,-23.989426)" d="m 434.95147,341.74756 c 0,10.41757 -8.44512,18.86269 -18.86269,18.86269 -10.41758,0 -18.86269,-8.44512 -18.86269,-18.86269 0,-10.41758 8.44511,-18.86269 18.86269,-18.86269 10.41757,0 18.86269,8.44511 18.86269,18.86269 z" sodipodi:ry="18.86269" sodipodi:rx="18.86269" sodipodi:cy="341.74756" sodipodi:cx="416.08878" id="path2989-4-47-4" style="fill:#f58c29;fill-opacity:1;fill-rule:nonzero;stroke:none" sodipodi:type="arc" />
                    </g>
                    <g transform="matrix(0,1,-1,0,543.56549,-7.1676047)" id="g4598-3" style="opacity:0.80000000000000004;fill:#f58c29;fill-opacity:1">
                        <path transform="matrix(0.84823527,0,0,0.84823527,257.71065,-14.107056)" d="m 358.39111,330.09708 c 0,15.62636 -12.66767,28.29403 -28.29403,28.29403 -15.62637,0 -28.29404,-12.66767 -28.29404,-28.29403 0,-15.62637 12.66767,-28.29404 28.29404,-28.29404 15.62636,0 28.29403,12.66767 28.29403,28.29404 z" sodipodi:ry="28.294037" sodipodi:rx="28.294037" sodipodi:cy="330.09708" sodipodi:cx="330.09708" id="path2987-6-7-8" style="fill:#f58c29;fill-opacity:1;fill-rule:nonzero;stroke:none" sodipodi:type="arc" />
                        <path transform="matrix(0.84823527,0,0,0.84823527,362.01998,-14.107056)" d="m 358.39111,330.09708 c 0,15.62636 -12.66767,28.29403 -28.29403,28.29403 -15.62637,0 -28.29404,-12.66767 -28.29404,-28.29403 0,-15.62637 12.66767,-28.29404 28.29404,-28.29404 15.62636,0 28.29403,12.66767 28.29403,28.29404 z" sodipodi:ry="28.294037" sodipodi:rx="28.294037" sodipodi:cy="330.09708" sodipodi:cx="330.09708" id="path2987-6-2-4" style="fill:#f58c29;fill-opacity:1;fill-rule:nonzero;stroke:none" sodipodi:type="arc" />
                        <path transform="matrix(0.84823527,0,0,0.84823527,466.3293,-14.107056)" d="m 358.39111,330.09708 c 0,15.62636 -12.66767,28.29403 -28.29403,28.29403 -15.62637,0 -28.29404,-12.66767 -28.29404,-28.29403 0,-15.62637 12.66767,-28.29404 28.29404,-28.29404 15.62636,0 28.29403,12.66767 28.29403,28.29404 z" sodipodi:ry="28.294037" sodipodi:rx="28.294037" sodipodi:cy="330.09708" sodipodi:cx="330.09708" id="path2987-6-72-4" style="fill:#f58c29;fill-opacity:1;fill-rule:nonzero;stroke:none" sodipodi:type="arc" />
                        <path transform="matrix(0.84823533,0,0,0.84823533,236.9241,-23.989426)" d="m 434.95147,341.74756 c 0,10.41757 -8.44512,18.86269 -18.86269,18.86269 -10.41758,0 -18.86269,-8.44512 -18.86269,-18.86269 0,-10.41758 8.44511,-18.86269 18.86269,-18.86269 10.41757,0 18.86269,8.44511 18.86269,18.86269 z" sodipodi:ry="18.86269" sodipodi:rx="18.86269" sodipodi:cy="341.74756" sodipodi:cx="416.08878" id="path2989-4-4-82" style="fill:#f58c29;fill-opacity:1;fill-rule:nonzero;stroke:none" sodipodi:type="arc" />
                        <path transform="matrix(0.84823533,0,0,0.84823533,341.23342,-23.989426)" d="m 434.95147,341.74756 c 0,10.41757 -8.44512,18.86269 -18.86269,18.86269 -10.41758,0 -18.86269,-8.44512 -18.86269,-18.86269 0,-10.41758 8.44511,-18.86269 18.86269,-18.86269 10.41757,0 18.86269,8.44511 18.86269,18.86269 z" sodipodi:ry="18.86269" sodipodi:rx="18.86269" sodipodi:cy="341.74756" sodipodi:cx="416.08878" id="path2989-4-47-1" style="fill:#f58c29;fill-opacity:1;fill-rule:nonzero;stroke:none" sodipodi:type="arc" />
                    </g>
                </g>
            </g>
            <g inkscape:label="Capa" id="layer3" style="fill:#f58c29;fill-opacity:1" />
        </g>
        <text xml:space="preserve" style="font-size:36px;font-style:normal;font-variant:normal;font-weight:normal;font-stretch:normal;text-align:start;line-height:125%;letter-spacing:0px;word-spacing:0px;writing-mode:lr;text-anchor:start;fill:black;fill-opacity:1;stroke:none;filter:url(#filter5060);font-family:Banda Regular;-inkscape-font-specification:'Banda Regular,'" x="447.83185" y="558.72705" id="text5056" sodipodi:linespacing="125%"><tspan sodipodi:role="line" id="tspan4310">Web</tspan></text>
    </g>
</svg>
